test_run_dir/should_test_SAD_with_bw5_and_pd3/SAD.vcd
$date
2025-07-25T04:56+0000
$end
$version
0.2
$end
$comment

$end
$timescale 1ns  $end
$scope module SAD $end
 $var wire 5 J io_bVec_2 $end
 $var wire 5 L io_bVec_3 $end
 $var wire 5 N io_bVec_0 $end
 $var wire 5 O io_bVec_1 $end
 $var wire 1 Z io_valid_out $end
 $var wire 5 p io_aVec_0 $end
 $var wire 5 q io_aVec_2 $end
 $var wire 5 r io_aVec_1 $end
 $var wire 1 s io_valid_in $end
 $var wire 5 z io_aVec_3 $end
 $var wire 1 "; clock $end
 $var wire 5 "B io_out $end
 $var wire 1 "Z absDiffs_2 $end
 $var wire 1 "[ absDiffs_1 $end
 $var wire 1 "^ absDiffs_0 $end
 $var wire 1 "j absDiffs_3 $end
 $var wire 1 #' sumsAndValids_adder_2 $end
 $var wire 1 #+ sumsAndValids_adder_1 $end
 $var wire 1 #B reset $end
 $var wire 1 #C sumsAndValids_adder $end
  $scope module absDiffs_2 $end
   $var wire 5 % aVal $end
   $var wire 4 * alignedB $end
   $var wire 4 + alignedA $end
   $var wire 1 < valid_sr_0 $end
   $var wire 1 = valid_sr_1 $end
   $var wire 1 > valid_sr_2 $end
   $var wire 5 I bVal $end
   $var wire 2 T expB_ $end
   $var wire 3 Y aExt_hi $end
   $var wire 2 \ expA_ $end
   $var wire 5 _ io_b $end
   $var wire 5 a io_a $end
   $var wire 1 b lzc $end
   $var wire 4 v aExt $end
   $var wire 2 "! manB $end
   $var wire 2 "" manA $end
   $var wire 4 ". bExt $end
   $var wire 1 "3 io_valid_out $end
   $var wire 1 "7 clock $end
   $var wire 2 "S normalizedMant $end
   $var wire 5 "] result $end
   $var wire 1 "h reset $end
   $var wire 5 "w sr_array_0 $end
   $var wire 5 "x sr_array_2 $end
   $var wire 5 "y sr_array_1 $end
   $var wire 2 "{ expDiff $end
   $var wire 5 #" io_out $end
   $var wire 1 #- io_valid_in $end
   $var wire 3 #6 bExt_hi $end
   $var wire 4 #@ diff $end
   $var wire 3 #A adjustedExp $end
   $var wire 11 #Q normalizedMantFull $end
   $var wire 2 #f maxExp $end
    $scope module lzc $end
     $var wire 4 "< io_in $end
     $var wire 3 #g io_out $end
    $upscope $end
  $upscope $end
  $scope module absDiffs_1 $end
   $var wire 2 ( maxExp $end
   $var wire 2 C normalizedMant $end
   $var wire 5 D sr_array_1 $end
   $var wire 5 E sr_array_0 $end
   $var wire 5 G sr_array_2 $end
   $var wire 4 W bExt $end
   $var wire 4 f aExt $end
   $var wire 2 m manB $end
   $var wire 2 n manA $end
   $var wire 1 { lzc $end
   $var wire 11 "/ normalizedMantFull $end
   $var wire 2 "C expDiff $end
   $var wire 1 "E io_valid_in $end
   $var wire 5 "O result $end
   $var wire 1 "T clock $end
   $var wire 2 "X expA_ $end
   $var wire 2 "b expB_ $end
   $var wire 1 "e valid_sr_1 $end
   $var wire 1 "g valid_sr_2 $end
   $var wire 1 "i valid_sr_0 $end
   $var wire 1 "k io_valid_out $end
   $var wire 5 "n io_b $end
   $var wire 5 "o io_a $end
   $var wire 4 #/ diff $end
   $var wire 3 #> adjustedExp $end
   $var wire 3 #? bExt_hi $end
   $var wire 3 #H aExt_hi $end
   $var wire 4 #I alignedB $end
   $var wire 4 #J alignedA $end
   $var wire 1 #P reset $end
   $var wire 5 #R bVal $end
   $var wire 5 #S io_out $end
   $var wire 5 #c aVal $end
    $scope module lzc $end
     $var wire 3 j io_out $end
     $var wire 4 "2 io_in $end
    $upscope $end
  $upscope $end
  $scope module absDiffs_0 $end
   $var wire 2 $ normalizedMant $end
   $var wire 5 ' result $end
   $var wire 3 F bExt_hi $end
   $var wire 2 Q expDiff $end
   $var wire 1 U valid_sr_0 $end
   $var wire 1 V valid_sr_1 $end
   $var wire 1 X valid_sr_2 $end
   $var wire 5 [ io_out $end
   $var wire 2 e expB_ $end
   $var wire 2 i expA_ $end
   $var wire 3 x adjustedExp $end
   $var wire 4 ~ diff $end
   $var wire 5 "' sr_array_0 $end
   $var wire 5 ") sr_array_1 $end
   $var wire 5 ", sr_array_2 $end
   $var wire 2 "- maxExp $end
   $var wire 1 "5 lzc $end
   $var wire 1 "D clock $end
   $var wire 5 "F io_a $end
   $var wire 5 "G io_b $end
   $var wire 5 "N bVal $end
   $var wire 1 "W io_valid_out $end
   $var wire 3 "f aExt_hi $end
   $var wire 5 "l aVal $end
   $var wire 11 "s normalizedMantFull $end
   $var wire 2 #$ manB $end
   $var wire 2 #% manA $end
   $var wire 1 #, io_valid_in $end
   $var wire 4 #0 bExt $end
   $var wire 4 #7 alignedA $end
   $var wire 4 #8 alignedB $end
   $var wire 4 #F aExt $end
   $var wire 1 #b reset $end
    $scope module lzc $end
     $var wire 3 "M io_out $end
     $var wire 4 "q io_in $end
    $upscope $end
  $upscope $end
  $scope module absDiffs_0.lzc $end
  $upscope $end
  $scope module absDiffs_2.lzc $end
  $upscope $end
  $scope module sumsAndValids_adder_2.lzc $end
  $upscope $end
  $scope module sumsAndValids_adder_2 $end
   $var wire 5 - io_b $end
   $var wire 5 . io_a $end
   $var wire 1 ? io_valid_in $end
   $var wire 1 H valid_sr_2 $end
   $var wire 1 K valid_sr_1 $end
   $var wire 1 M valid_sr_0 $end
   $var wire 12 P normalizedMantFull $end
   $var wire 3 ^ aExt_hi $end
   $var wire 3 o bExt_hi $end
   $var wire 4 t bExt $end
   $var wire 4 "$ alignedA $end
   $var wire 4 "% alignedB $end
   $var wire 5 "( sum $end
   $var wire 3 "6 adjustedExp $end
   $var wire 5 "= result $end
   $var wire 4 "> aExt $end
   $var wire 2 "J manB $end
   $var wire 2 "K manA $end
   $var wire 1 "Q reset $end
   $var wire 1 "V io_valid_out $end
   $var wire 2 "Y maxExp $end
   $var wire 2 "t expA $end
   $var wire 2 "u expB $end
   $var wire 2 "~ normalizedMant $end
   $var wire 5 #( sr_array_0 $end
   $var wire 5 #) sr_array_1 $end
   $var wire 5 #* sr_array_2 $end
   $var wire 2 #4 expDiff $end
   $var wire 1 #T lzc $end
   $var wire 5 #\ io_out $end
   $var wire 1 #e clock $end
    $scope module lzc $end
     $var wire 5 "` io_in $end
     $var wire 3 #& io_out $end
    $upscope $end
  $upscope $end
  $scope module sumsAndValids_adder.lzc $end
  $upscope $end
  $scope module absDiffs_1.lzc $end
  $upscope $end
  $scope module sumsAndValids_adder_1 $end
   $var wire 4 " bExt $end
   $var wire 1 & lzc $end
   $var wire 2 , expDiff $end
   $var wire 3 / bExt_hi $end
   $var wire 2 3 manA $end
   $var wire 2 4 manB $end
   $var wire 1 @ io_valid_in $end
   $var wire 4 B aExt $end
   $var wire 2 ` expA $end
   $var wire 2 c expB $end
   $var wire 4 k alignedA $end
   $var wire 4 l alignedB $end
   $var wire 2 y maxExp $end
   $var wire 12 "1 normalizedMantFull $end
   $var wire 1 "9 reset $end
   $var wire 5 "I sum $end
   $var wire 2 "d normalizedMant $end
   $var wire 3 "r aExt_hi $end
   $var wire 5 "v result $end
   $var wire 1 "z valid_sr_2 $end
   $var wire 1 "| valid_sr_1 $end
   $var wire 1 "} valid_sr_0 $end
   $var wire 3 #! adjustedExp $end
   $var wire 5 #. io_out $end
   $var wire 5 #3 io_a $end
   $var wire 5 #5 io_b $end
   $var wire 1 #; clock $end
   $var wire 5 #D sr_array_2 $end
   $var wire 5 #E sr_array_1 $end
   $var wire 5 #G sr_array_0 $end
   $var wire 1 #] io_valid_out $end
    $scope module lzc $end
     $var wire 5 # io_in $end
     $var wire 3 #[ io_out $end
    $upscope $end
  $upscope $end
  $scope module sumsAndValids_adder $end
   $var wire 4 ) aExt $end
   $var wire 2 1 manA $end
   $var wire 2 2 manB $end
   $var wire 1 6 io_valid_out $end
   $var wire 2 g expA $end
   $var wire 2 h expB $end
   $var wire 12 w normalizedMantFull $end
   $var wire 3 } bExt_hi $end
   $var wire 1 "& lzc $end
   $var wire 4 "4 bExt $end
   $var wire 2 "8 maxExp $end
   $var wire 3 ": aExt_hi $end
   $var wire 4 "? alignedB $end
   $var wire 4 "@ alignedA $end
   $var wire 5 "L io_out $end
   $var wire 3 "P adjustedExp $end
   $var wire 1 "R reset $end
   $var wire 2 "p normalizedMant $end
   $var wire 5 #1 io_b $end
   $var wire 5 #2 io_a $end
   $var wire 1 #= clock $end
   $var wire 5 #K result $end
   $var wire 2 #U expDiff $end
   $var wire 5 #V sum $end
   $var wire 1 #W valid_sr_1 $end
   $var wire 1 #X valid_sr_0 $end
   $var wire 1 #Y valid_sr_2 $end
   $var wire 5 #^ sr_array_0 $end
   $var wire 5 #` sr_array_1 $end
   $var wire 5 #a sr_array_2 $end
   $var wire 1 #d io_valid_in $end
    $scope module lzc $end
     $var wire 3 5 io_out $end
     $var wire 5 "c io_in $end
    $upscope $end
  $upscope $end
  $scope module sumsAndValids_adder_1.lzc $end
  $upscope $end
  $scope module absDiffs_3 $end
   $var wire 4 ! diff $end
   $var wire 1 0 reset $end
   $var wire 5 7 sr_array_2 $end
   $var wire 5 8 sr_array_1 $end
   $var wire 2 9 expDiff $end
   $var wire 5 : sr_array_0 $end
   $var wire 1 ; clock $end
   $var wire 1 A lzc $end
   $var wire 5 R io_a $end
   $var wire 5 S io_b $end
   $var wire 5 ] bVal $end
   $var wire 2 u normalizedMant $end
   $var wire 3 | adjustedExp $end
   $var wire 1 "* io_valid_out $end
   $var wire 2 "+ expB_ $end
   $var wire 2 "0 expA_ $end
   $var wire 3 "A bExt_hi $end
   $var wire 3 "H aExt_hi $end
   $var wire 4 "U aExt $end
   $var wire 2 "\ manA $end
   $var wire 2 "_ manB $end
   $var wire 2 "a maxExp $end
   $var wire 11 "m normalizedMantFull $end
   $var wire 5 ## io_out $end
   $var wire 5 #9 aVal $end
   $var wire 4 #: alignedB $end
   $var wire 4 #< alignedA $end
   $var wire 5 #L result $end
   $var wire 1 #M valid_sr_0 $end
   $var wire 1 #N valid_sr_2 $end
   $var wire 1 #O valid_sr_1 $end
   $var wire 4 #Z bExt $end
   $var wire 1 #_ io_valid_in $end
    $scope module lzc $end
     $var wire 3 d io_out $end
     $var wire 4 "# io_in $end
    $upscope $end
  $upscope $end
  $scope module absDiffs_3.lzc $end
  $upscope $end
$upscope $end
$enddefinitions $end
$dumpvars
00
b0000 #F
b00 9
b0000 #J
b0000 #I
06
b00 1
0;
0<
b0000 "q
0=
b00 4
0>
b00 3
0?
b00 2
0@
0A
b00 (
b0000 #Z
b00 ,
0H
0K
0M
b00 $
b0000 "
b0000 !
0U
0V
0X
b0000 *
0Z
b0000 +
b0000 )
0b
b000000000000 "1
0s
0{
b00 #f
b00 "{
b00 "u
b00 "t
b00 #U
b00 "~
0"&
b00 "d
0"*
b00 "p
b00 "Y
b00000 "I
b00000 #*
b00 "X
0"3
b00000 #)
0"5
b00000 #.
0"7
b00000 "L
b00000 "O
0"9
b00000 "N
b00 "a
b00000 #"
0";
b00 "b
b00000 "B
b00000 ##
b00 "\
b00 "_
b00000 "G
b00000 #(
b00000 "F
b00 "K
0"D
b00 "J
b000 x
0"E
0#'
b00000 "=
b00 #%
0#+
0#,
b00 "S
b00 #4
0#-
b000 }
b000 |
0"Q
0"R
b00000 ")
b00 "8
b00000 "(
0"T
0"V
0"W
b00000 ",
b000 d
b000 o
0"Z
0#;
0"[
b00 "C
b00 #$
0#=
0"^
b000 j
b00000 "'
0#B
0#C
b00 "+
b000 Y
0"e
0"g
0"h
0"i
0"j
b00 "0
b000 ^
0"k
0#M
0#N
b00 "-
0#O
0#P
b00 y
b000 F
0#T
0#W
0#X
0#Y
b00 "!
0"z
b00000 #a
0"|
0#]
b00 ""
0"}
b00 n
b00000 #c
0#_
b00 u
0#b
b00 i
b00000 "y
0#d
b00 h
b00000 "x
0#e
b00 g
b00000 #\
b00 m
b00000 #^
b000 5
b00000 #`
b00000 #R
b00 `
b00000 #S
b00 e
b00000 #V
b00 c
b00000 "w
b00000 "v
b00000 #L
b00000 #K
b00 \
b00000 "l
b00000 "o
b00000 "n
b000 /
b00 Q
b00000 "`
b00000 "c
b00000 #D
b00 T
b00000 #E
b00000 #G
b00000 #9
b00000 "]
b00000 #2
b00000 #1
b00000 #3
b00000 #5
b00 C
b000 #6
b000 "P
b0000 ~
b000 #?
b000 #>
b000 "f
b00000 #
b000 #H
b00000 %
b00000 '
b00000000000 "s
b000 #A
b00000000000 #Q
b00000 -
b00000 .
b000 "r
b00000 7
b00000 8
b00000 :
b00000000000 "m
b000 #[
b000 #g
b00000 E
b00000 D
b00000 G
b00000 I
b00000 J
b00000 L
b00000 O
b00000 N
b0000 "#
b0000 "%
b00000 S
b0000 "$
b00000 R
b0000 B
b00000 [
b00000 ]
b0000 ".
b00000 _
b00000 a
b000000000000 w
b0000 "2
b0000 "4
b0000 "<
b0000 "?
b0000 ">
b0000 "@
b00000 q
b0000 W
b00000 p
b000 "6
b00000 r
b000000000000 P
b0000 l
b00000000000 "/
b00000 z
b0000 #0
b0000 k
b0000 #/
b000 ":
b0000 f
b0000 t
b0000 "U
b0000 #8
b000 #&
b0000 #7
b0000 #:
b000 #!
0&
b0000 #<
b000 "A
b0000 #@
b000 "M
b000 "H
b0000 v
$end
#0
b10000 "c
b1000 #F
b100 "f
b100 #H
1"h
b1000 #I
b1000 #J
b10100 #L
1#P
b100 "r
b10000 #V
b1000 #Z
1#b
b1000 "
b10000 #
b011 #g
b10100 '
b1000 )
b1000 *
b1000 +
b100 /
10
b1000 B
b1000 "$
b1000 "%
b100 F
b10000 "(
b1000 ".
b000000010000 "1
b000000010000 P
b1000 "4
b1000 W
1"9
b100 ":
b100 Y
b1000 ">
b1000 "?
b100 ^
b1000 "@
b100 "A
b011 d
b1000 f
b100 "H
b10000 "I
b011 j
b1000 k
b011 "M
b1000 l
b10100 "O
b1000 #0
b100 o
1"Q
1"R
b1000 "U
b100 #6
b1000 t
b1000 #7
b1000 #8
b1000 v
b000000010000 w
b1000 #:
b101 x
b1000 #<
b10100 "]
b101 #>
b101 |
b100 #?
b100 }
b10000 "`
b101 #A
1#B
#1
1"D
1"T
1#e
1"7
1#;
1";
1#=
1;
#6
b101 #H
0"h
b1010 #I
b1010 #J
b00001 "n
0#P
b00001 "o
b00001 O
b00001 #R
0"7
b1010 W
0"9
0";
0#b
b00001 #c
0"D
0#e
b1010 f
b01 m
b01 n
0"Q
00
0"R
b00001 r
0"T
0#;
0#=
0;
b101 #?
0#B
#11
1"D
1#e
b10100 E
b10100 "'
1"T
1"7
b10100 "w
1#;
1";
b10100 :
1#=
1;
#16
0"D
0"T
0#e
0"7
0#;
0";
0#=
0;
#21
1"D
1#e
b10100 D
b10100 ")
1"T
1"7
b10100 "y
b10100 8
1#;
1";
1#=
1;
#26
0"D
0"T
0#e
0"7
0#;
0";
0#=
0;
#31
b10100 G
b00100 #K
b10100 ",
b10100 #S
b00100 "v
1"7
b01 "8
b10100 "x
1";
b10100 [
b001 #!
b10100 #"
b01 `
b10100 ##
1"D
1#e
b01 c
b01 g
b01 h
b10100 #1
b001 "P
b10100 #2
b10100 #3
b10100 #5
1"T
b10100 7
1#;
b01 y
1#=
1;
#36
b1010 #F
b101 "f
b110 #H
b1100 #J
b00001 "l
b00010 "n
b00000001000 "/
b00001 N
b00010 O
b0010 "q
b0010 "2
b00000001000 "s
0"7
0";
b00010 #c
0"D
b01 #%
0#e
b00001 "G
b1100 f
b11000 '
b010 j
b010 "M
b0010 #/
b11000 "O
b10 n
0"T
b1010 #7
b110 x
0#;
0#=
0;
b110 #>
b0010 ~
#41
1"D
1#e
b00100 #G
b11000 E
b11000 "'
1"T
1"7
1#;
1";
1#=
1;
b00100 #^
#46
0"D
0"T
0#e
0"7
0#;
0";
0#=
0;
#51
1"D
b00100 #E
1#e
b11000 D
b11000 ")
1"T
1"7
1#;
1";
1#=
1;
b00100 #`
#56
0"D
0"T
0#e
0"7
0#;
0";
0#=
0;
#61
b00100 #D
b11000 G
b01000 #K
b11000 ",
b11000 #S
b01 "t
b01 "u
b001 "6
1"7
b10 "8
1";
b11000 [
b00100 "=
b00100 #a
1"D
1#e
b10 g
b10 h
b00100 "L
b00100 #.
b00100 -
b00100 .
b11000 #1
b010 "P
b11000 #2
1"T
b01 "Y
1#;
1#=
1;
#66
b1100 #F
b110 "f
b111 #H
b1110 #J
b00010 "l
b00011 "n
b00010 N
b00011 O
b0100 "q
b0100 "2
0"7
0";
b00011 #c
0"D
b10 #%
0#e
b00010 "G
b1110 f
b11100 '
b001 j
b001 "M
b0100 #/
b11100 "O
b11 n
0"T
b1100 #7
b111 x
0#;
0#=
0;
b111 #>
b0100 ~
#71
1"D
1#e
b11100 E
b11100 "'
b00100 #(
1"T
1"7
1#;
1";
1#=
1;
b01000 #^
#76
0"D
0"T
0#e
0"7
0#;
0";
0#=
0;
#81
1"D
1#e
b11100 D
b00100 #)
b11100 ")
1"T
1"7
1#;
1";
1#=
1;
b01000 #`
#86
0"D
0"T
0#e
0"7
0#;
0";
0#=
0;
#91
b0100 "%
b01100 "(
b11100 G
b01100 #K
b11100 ",
b000000011000 P
b11100 #S
b10 "t
1"7
b11 "8
1";
b00100 #\
b11100 [
b00110 "=
b10 "~
b01000 #a
b00100 "B
1"D
1#e
b001 #&
b11 g
b00100 #*
b11 h
b01000 "L
b01000 .
b11100 #1
b011 "P
b11100 #2
b01 #4
1"T
b10 "Y
1#;
1#=
1;
b01100 "`
#96
b10 C
b1110 #F
b111 "f
b100 #H
b0101 #I
b1000 #J
b00011 "l
b00100 "n
b00000001100 "/
b00011 N
b00100 O
b0110 "q
b0011 "2
b00000001100 "s
0"7
0";
b00100 #c
b01 "C
0"D
b11 #%
0#e
b10 $
b00011 "G
b1000 f
b11110 '
b01 (
b010 j
b0011 #/
b11110 "O
b00 n
0"T
b1110 #7
b01 "X
0#;
0#=
0;
b0110 ~
#101
1"D
1#e
b11110 E
b11110 "'
b00110 #(
1"T
1"7
1#;
1";
1#=
1;
b01100 #^
#106
0"D
0"T
0#e
0"7
0#;
0";
0#=
0;
#111
1"D
1#e
b11110 D
b00110 #)
b11110 ")
1"T
1"7
1#;
1";
1#=
1;
b01100 #`
#116
0"D
0"T
0#e
0"7
0#;
0";
0#=
0;
#121
b11000 "c
b0010 "%
b01010 "(
b11110 G
b01110 #K
b11110 ",
b10 "p
b000000010100 P
b11110 #S
b1100 "4
b11 "t
b11000 #V
b010 "6
1"7
b110 ":
1";
b00110 #\
b11110 [
b01001 "=
b01 "~
b1100 "?
b1100 "@
b01100 #a
b00110 "B
1"D
1#e
b00110 #*
b1100 )
b01100 "L
b01100 .
b11110 #1
b11110 #2
b10 1
b10 #4
b10 2
1"T
b000000011000 w
b11 "Y
1#;
1#=
1;
b110 }
b01010 "`
#126
b01 C
b1000 #F
b100 "f
b101 #H
b1010 #J
b00100 "l
b01 "-
b00101 "n
b00000001010 "/
b00100 N
b00101 O
b0100 "q
b0101 "2
b01 Q
b00000001000 "s
0"7
0";
b00101 #c
0"D
b00 #%
0#e
b00 $
b00100 "G
b1010 f
b00000 '
b01 i
b001 j
b0101 #/
b00001 "O
b01 n
0"T
b1000 #7
b0100 #8
b000 x
0#;
0#=
0;
b000 #>
b0100 ~
#131
1"D
1#e
b00001 E
b00000 "'
b01001 #(
1"T
1"7
1#;
1";
1#=
1;
b01110 #^
#136
0"D
0"T
0#e
0"7
0#;
0";
0#=
0;
#141
1"D
1#e
b00001 D
b01001 #)
b00000 ")
1"T
1"7
1#;
1";
1#=
1;
b01110 #`
#146
0"D
0"T
0#e
0"7
0#;
0";
0#=
0;
#151
b10010 "c
b1100 "$
b01110 "(
b00001 G
b00000 #K
b00000 ",
b00 "p
b000000011100 P
b00001 #S
b1010 "4
b10010 #V
1"7
b00 "8
b100 ":
1";
b01001 #\
b00000 [
b01011 "=
b1100 ">
b11 "~
b1010 "?
b110 ^
b1000 "@
b01110 #a
b01001 "B
1"D
1#e
b00 g
b01001 #*
b00 h
b1000 )
b10 "K
b01110 "L
b01110 .
b00001 #1
b000 "P
b00000 #2
b00 1
b01 2
1"T
b000000010010 w
1#;
1#=
1;
b101 }
b01110 "`
#156
b11 C
b1010 #F
b101 "f
b110 #H
b1100 #J
b00101 "l
b00110 "n
b00000001110 "/
b00101 N
b00110 O
b0110 "q
b0111 "2
b00000001100 "s
0"7
0";
b00110 #c
0"D
b01 #%
0#e
b10 $
b00101 "G
b1100 f
b00010 '
b0111 #/
b00011 "O
b10 n
0"T
b1010 #7
0#;
0#=
0;
b0110 ~
#161
1"D
1#e
b00011 E
b00010 "'
b01011 #(
1"T
1"7
1#;
1";
1#=
1;
b00000 #^
#166
0"D
0"T
0#e
0"7
0#;
0";
0#=
0;
#171
1"D
1#e
b00011 D
b01011 #)
b00010 ")
1"T
1"7
1#;
1";
1#=
1;
b00000 #`
#176
0"D
0"T
0#e
0"7
0#;
0";
0#=
0;
#181
b11010 "c
b0100 "$
b1000 "%
b01100 "(
b00011 G
b00010 #K
b00010 ",
b10 "p
b000000011000 P
b00011 #S
b1110 "4
b00 "t
b11010 #V
b000 "6
1"7
b110 ":
1";
b01011 #\
b00010 [
b00010 "=
b1000 ">
b10 "~
b1110 "?
b100 ^
b1100 "@
b00000 #a
b01011 "B
1"D
1#e
b01011 #*
b1100 )
b00 "K
b00000 "L
b00000 .
b00011 #1
b00010 #2
b10 1
b01 #4
b11 2
1"T
b000000011010 w
b01 "Y
1#;
1#=
1;
b111 }
b01100 "`
#186
b00 C
b1100 #F
b110 "f
b111 #H
b1110 #J
b00110 "l
b00111 "n
b00000001001 "/
b00110 N
b00111 O
b1000 "q
b1001 "2
b00000001000 "s
0"7
0";
b00111 #c
0"D
b10 #%
0#e
b00 $
b00110 "G
b1110 f
b00100 '
b000 j
b000 "M
b1001 #/
b00100 "O
b11 n
0"T
b1100 #7
b001 x
0#;
0#=
0;
b001 #>
b1000 ~
#191
1"D
1#e
b00100 E
b00100 "'
b00010 #(
1"T
1"7
1#;
1";
1#=
1;
b00010 #^
#196
0"D
0"T
0#e
0"7
0#;
0";
0#=
0;
#201
1"D
1#e
b00100 D
b00010 #)
b00100 ")
1"T
1"7
1#;
1";
1#=
1;
b00010 #`
#206
0"D
0"T
0#e
0"7
0#;
0";
0#=
0;
#211
b10000 "c
b0110 "$
b01110 "(
b00100 G
b00100 #K
b00100 ",
b00 "p
b000000011100 P
b00100 #S
b1000 "4
b10000 #V
1"7
b01 "8
b100 ":
1";
b00010 #\
b00100 [
b00011 "=
b1100 ">
b11 "~
b1000 "?
b110 ^
b1000 "@
b00010 #a
b00010 "B
1"D
1#e
b01 g
b00010 #*
b01 h
b1000 )
b10 "K
b00010 "L
b00010 .
b00100 #1
b001 "P
b00100 #2
b00 1
b00 2
1"T
b000000010000 w
1#;
1#=
1;
b100 }
b01110 "`
#216
b10 C
b1110 #F
b111 "f
b100 #H
b0010 #I
b1000 #J
b00111 "l
b01000 "n
b00000001100 "/
b00111 N
b01000 O
b1010 "q
b0110 "2
b00000001010 "s
0"7
0";
b01000 #c
b10 "C
0"D
b11 #%
0#e
b01 $
b00111 "G
b1000 f
b00101 '
b10 (
b001 j
b0110 #/
b00110 "O
b00 n
0"T
b1110 #7
b10 "X
0#;
0#=
0;
b1010 ~
#221
1"D
1#e
b00110 E
b00101 "'
b00011 #(
1"T
1"7
1#;
1";
1#=
1;
b00100 #^
#226
0"D
0"T
0#e
0"7
0#;
0";
0#=
0;
#231
1"D
1#e
b00110 D
b00011 #)
b00101 ")
1"T
1"7
1#;
1";
1#=
1;
b00100 #`
#236
0"D
0"T
0#e
0"7
0#;
0";
0#=
0;
#241
b10110 "c
b1000 "$
b10000 "(
b00110 G
b00101 #K
b00101 ",
b01 "p
b000000010000 P
b00110 #S
b1100 "4
b01 "t
b10110 #V
b001 "6
1"7
b101 ":
1";
b00011 #\
b00101 [
b00100 "=
b1000 ">
b00 "~
b1100 "?
b100 ^
b1010 "@
b00100 #a
b00011 "B
1"D
1#e
b000 #&
b00011 #*
b1010 )
b00 "K
b00100 "L
b00100 .
b00110 #1
b00101 #2
b01 1
b00 #4
b10 2
1"T
b000000010110 w
1#;
1#=
1;
b110 }
b10000 "`
#246
b00 C
b1000 #F
b100 "f
b101 #H
b1010 #J
b01000 "l
b10 "-
b01001 "n
b00000001000 "/
b01000 N
b01001 O
b0110 "q
b1000 "2
b10 Q
b00000001100 "s
0"7
0";
b01001 #c
0"D
b00 #%
0#e
b10 $
b01000 "G
b1010 f
b00110 '
b10 i
b000 j
b001 "M
b1000 #/
b01000 "O
b01 n
0"T
b1000 #7
b0010 #8
0#;
0#=
0;
b010 #>
b0110 ~
#251
1"D
1#e
b01000 E
b00110 "'
b00100 #(
1"T
1"7
1#;
1";
1#=
1;
b00101 #^
#256
0"D
0"T
0#e
0"7
0#;
0";
0#=
0;
#261
1"D
1#e
b01000 D
b00100 #)
b00110 ")
1"T
1"7
1#;
1";
1#=
1;
b00101 #`
#266
0"D
0"T
0#e
0"7
0#;
0";
0#=
0;
#271
b01110 "c
b1010 "$
b10010 "(
b01000 G
b00111 #K
b00110 ",
b11 "p
b000000010010 P
b01000 #S
b1000 "4
b01 #U
b01110 #V
1"7
b10 "8
b110 ":
1";
b00100 #\
b00110 [
b1010 ">
b1000 "?
b101 ^
b0110 "@
b00101 #a
b00100 "B
1"D
1#e
b00100 #*
b10 h
b1100 )
b01 "K
b00101 "L
b00101 .
b01000 #1
b00110 #2
b10 1
b00 2
1"T
b001 5
b000000011100 w
1#;
1#=
1;
b100 }
b10010 "`
#276
b01 C
b1010 #F
b101 "f
b110 #H
b1100 #J
b01001 "l
b01010 "n
b00000001010 "/
b01001 N
b01010 O
b1000 "q
b1010 "2
b00000001000 "s
0"7
0";
b01010 #c
0"D
b01 #%
0#e
b00 $
b01001 "G
b1100 f
b01000 '
b000 "M
b1010 #/
b01001 "O
b10 n
0"T
b1010 #7
b010 x
0#;
0#=
0;
b1000 ~
#281
1"D
1"T
1#e
b01001 E
b01000 "'
1"7
1#;
1";
1#=
1;
b00111 #^
#286
0"D
0"T
0#e
0"7
0#;
0";
0#=
0;
#291
1"D
1"T
1#e
b01001 D
1"7
b01000 ")
1#;
1";
1#=
1;
b00111 #`
#296
0"D
0"T
0#e
0"7
0#;
0";
0#=
0;
#301
b10010 "c
b1110 "$
b10110 "(
b01001 G
b01000 #K
b01000 ",
b00 "p
b000000010110 P
b01001 #S
b1010 "4
b00 #U
b10010 #V
1"7
b100 ":
1";
b01000 [
b00101 "=
b1110 ">
b01 "~
b1010 "?
b111 ^
b1000 "@
b00111 #a
1"D
1#e
b10 g
b1000 )
b11 "K
b00111 "L
b00111 .
b01001 #1
b010 "P
b01000 #2
b00 1
b01 2
1"T
b000 5
b000000010010 w
1#;
1#=
1;
b101 }
b10110 "`
#306
b10 C
b1100 #F
b110 "f
b111 #H
b1110 #J
b01010 "l
b01011 "n
b00000001100 "/
b01010 N
b01011 O
b1010 "q
b1100 "2
b00000001010 "s
0"7
0";
b01011 #c
0"D
b10 #%
0#e
b01 $
b01010 "G
b1110 f
b01001 '
b1100 #/
b01010 "O
b11 n
0"T
b1100 #7
0#;
0#=
0;
b1010 ~
#311
1"D
1#e
b01010 E
b01001 "'
b00101 #(
1"T
1"7
1#;
1";
1#=
1;
b01000 #^
#316
0"D
0"T
0#e
0"7
0#;
0";
0#=
0;
#321
1"D
1#e
b01010 D
b00101 #)
b01001 ")
1"T
1"7
1#;
1";
1#=
1;
b01000 #`
#326
0"D
0"T
0#e
0"7
0#;
0";
0#=
0;
#331
b10110 "c
b1000 "$
b0100 "%
b01100 "(
b01010 G
b01001 #K
b01001 ",
b01 "p
b000000011000 P
b01010 #S
b1100 "4
b10 "t
b10110 #V
1"7
b101 ":
1";
b00101 #\
b01001 [
b00110 "=
b1000 ">
b10 "~
b1100 "?
b100 ^
b1010 "@
b01000 #a
b00101 "B
1"D
1#e
b001 #&
b00101 #*
b1010 )
b00 "K
b01000 "L
b01000 .
b01010 #1
b01001 #2
b01 1
b01 #4
b10 2
1"T
b000000010110 w
b10 "Y
1#;
1#=
1;
b110 }
b01100 "`
#336
b11 C
b1110 #F
b111 "f
b100 #H
b0001 #I
b1000 #J
b01011 "l
b01100 "n
b00000001110 "/
b01011 N
b01100 O
b1100 "q
b0111 "2
b00000001100 "s
0"7
0";
b01100 #c
b11 "C
0"D
b11 #%
0#e
b10 $
b01011 "G
b1000 f
b01010 '
b11 (
b001 j
b0111 #/
b01011 "O
b00 n
0"T
b1110 #7
b11 "X
0#;
0#=
0;
b1100 ~
#341
1"D
1#e
b01011 E
b01010 "'
b00110 #(
1"T
1"7
1#;
1";
1#=
1;
b01001 #^
#346
0"D
0"T
0#e
0"7
0#;
0";
0#=
0;
#351
1"D
1#e
b01011 D
b00110 #)
b01010 ")
1"T
1"7
1#;
1";
1#=
1;
b01001 #`
#356
0"D
0"T
0#e
0"7
0#;
0";
0#=
0;
#361
b11010 "c
b1010 "$
b01110 "(
b01011 G
b01010 #K
b01010 ",
b10 "p
b000000011100 P
b01011 #S
b1110 "4
b11010 #V
1"7
b110 ":
1";
b00110 #\
b01010 [
b00111 "=
b1010 ">
b11 "~
b1110 "?
b101 ^
b1100 "@
b01001 #a
b00110 "B
1"D
1#e
b00110 #*
b1100 )
b01 "K
b01001 "L
b01001 .
b01011 #1
b01010 #2
b10 1
b11 2
1"T
b000000011010 w
1#;
1#=
1;
b111 }
b01110 "`
