test_run_dir/FPAdder_should_print_first_10_results_for_bw4_pd1/FPAdder.vcd
$date
2025-07-28T19:56+0000
$end
$version
0.2
$end
$comment

$end
$timescale 1ns  $end
$scope module FPAdder $end
 $var wire 4 ! io_in_a $end
 $var wire 4 " io_in_b $end
 $var wire 1 # io_out_valid $end
 $var wire 3 $ manA $end
 $var wire 4 % pipe_data_0 $end
 $var wire 3 & manB $end
 $var wire 3 ' expDiff $end
 $var wire 2 ( manB_raw $end
 $var wire 1 ) reset $end
 $var wire 1 * io_in_valid $end
 $var wire 2 + resultFrac $end
 $var wire 2 , resultExp $end
 $var wire 32 - cycle $end
 $var wire 4 . resultMan $end
 $var wire 2 / manA_raw $end
 $var wire 2 0 expBig $end
 $var wire 3 1 alignedManA $end
 $var wire 3 2 alignedManB $end
 $var wire 3 3 maxExp $end
 $var wire 1 4 clock $end
 $var wire 1 5 printf_1 $end
 $var wire 1 6 printf_2 $end
 $var wire 3 7 shiftAmount $end
 $var wire 1 8 pipe_valids_0 $end
 $var wire 4 9 io_out $end
 $var wire 4 : normalized $end
 $var wire 1 ; printf $end
 $var wire 2 < expB $end
 $var wire 2 = expA $end
 $var wire 4 > finalResult $end
$upscope $end
$enddefinitions $end
$dumpvars
b00000000000000000000000000000000 -
04
b00 =
05
b00 <
b0000 >
06
08
b00 0
b00 /
0;
b000 7
b00 (
b000 3
b000 2
b00 ,
b00 +
b000 '
b0000 %
b000 &
b0000 "
b0000 !
b000 $
b000 1
0#
b0000 .
0)
b0000 :
0*
b0000 9
$end
#0
b011 3
1)
#1
14
#6
04
0)
1*
#11
1#
14
18
b00000000000000000000000000000001 -
#16
b0001 "
b001 2
04
b001 &
b01 (
b0001 :
b0001 .
#21
14
b00000000000000000000000000000010 -
#26
b0010 "
b010 2
04
b010 &
b10 (
b0010 :
b01 +
b0010 .
b0001 >
#31
14
b0001 %
b0001 9
b00000000000000000000000000000011 -
#36
b0011 "
b011 2
04
b011 &
b11 (
b0011 :
b0011 .
#41
14
b00000000000000000000000000000100 -
#46
b0100 "
b100 &
b111 '
b00 (
b10 +
b01 ,
b0100 .
b01 0
b100 2
04
b001 7
b0100 :
b01 <
b0110 >
#51
14
b0110 %
b0110 9
b00000000000000000000000000000101 -
#56
b0101 "
b101 2
04
b101 &
b01 (
b0101 :
b0101 .
#61
14
b00000000000000000000000000000110 -
#66
b0110 "
b110 2
04
b110 &
b10 (
b0110 :
b11 +
b0110 .
b0111 >
#71
14
b0111 %
b0111 9
b00000000000000000000000000000111 -
#76
b0111 "
b111 2
04
b111 &
b11 (
b0111 :
b0111 .
#81
14
b00000000000000000000000000001000 -
#86
b1000 "
b100 &
b110 '
b00 (
b10 +
b10 ,
b0100 .
b10 0
b100 2
04
b010 7
b0100 :
b10 <
b1010 >
#91
14
b1010 %
b1010 9
b00000000000000000000000000001001 -
#96
b1001 "
b101 2
04
b101 &
b01 (
b0101 :
b0101 .
#101
14
b00000000000000000000000000001010 -
#106
b0001 !
b0000 "
b001 $
b000 &
b000 '
b00 (
b00 +
b00 ,
b0001 .
b01 /
b00 0
b001 1
b000 2
04
b000 7
b0001 :
b00 <
b0000 >
#111
14
b0000 %
b0000 9
b00000000000000000000000000001011 -
#116
b0001 "
b001 2
04
b001 &
b01 (
b0010 :
b01 +
b0010 .
b0001 >
#121
14
b0001 %
b0001 9
b00000000000000000000000000001100 -
#126
b0010 "
b010 2
04
b010 &
b10 (
b0011 :
b0011 .
#131
14
b00000000000000000000000000001101 -
#136
b0011 "
b011 2
04
b011 &
b11 (
b0100 :
b10 +
b0100 .
b0010 >
#141
14
b0010 %
b0010 9
b00000000000000000000000000001110 -
#146
b0100 "
b100 &
b111 '
b00 (
b01 ,
b01 0
b000 1
b100 2
04
b001 7
b01 <
b0110 >
#151
14
b0110 %
b0110 9
b00000000000000000000000000001111 -
#156
b0101 "
b101 2
04
b101 &
b01 (
b0101 :
b0101 .
#161
14
b00000000000000000000000000010000 -
#166
b0110 "
b110 2
04
b110 &
b10 (
b0110 :
b11 +
b0110 .
b0111 >
#171
14
b0111 %
b0111 9
b00000000000000000000000000010001 -
#176
b0111 "
b111 2
04
b111 &
b11 (
b0111 :
b0111 .
#181
14
b00000000000000000000000000010010 -
#186
b1000 "
b100 &
b110 '
b00 (
b10 +
b10 ,
b0100 .
b10 0
b100 2
04
b010 7
b0100 :
b10 <
b1010 >
#191
14
b1010 %
b1010 9
b00000000000000000000000000010011 -
#196
b1001 "
b101 2
04
b101 &
b01 (
b0101 :
b0101 .
#201
14
b00000000000000000000000000010100 -
#206
b0010 !
b0000 "
b010 $
b000 &
b000 '
b00 (
b01 +
b00 ,
b0010 .
b10 /
b00 0
b010 1
b000 2
04
b000 7
b0010 :
b00 <
b0001 >
#211
14
b0001 %
b0001 9
b00000000000000000000000000010101 -
#216
b0001 "
b001 2
04
b001 &
b01 (
b0011 :
b0011 .
#221
14
b00000000000000000000000000010110 -
#226
b0010 "
b010 2
04
b010 &
b10 (
b0100 :
b10 +
b0100 .
b0010 >
#231
14
b0010 %
b0010 9
b00000000000000000000000000010111 -
#236
b0011 "
b011 2
04
b011 &
b11 (
b0101 :
b0101 .
#241
14
b00000000000000000000000000011000 -
#246
b0100 "
b100 &
b111 '
b00 (
b01 ,
b01 0
b001 1
b100 2
04
b001 7
b01 <
b0110 >
#251
14
b0110 %
b0110 9
b00000000000000000000000000011001 -
#256
b0101 "
b101 2
04
b101 &
b01 (
b0110 :
b11 +
b0110 .
b0111 >
#261
14
b0111 %
b0111 9
b00000000000000000000000000011010 -
#266
b0110 "
b110 2
04
b110 &
b10 (
b0111 :
b0111 .
#271
14
b00000000000000000000000000011011 -
#276
b0111 "
b111 2
04
b111 &
b11 (
b0100 :
b10 +
b10 ,
b1000 .
b1010 >
#281
14
b1010 %
b1010 9
b00000000000000000000000000011100 -
#286
b10 0
b000 1
b1000 "
b100 2
04
b100 &
b110 '
b010 7
b00 (
b10 <
b0100 .
#291
14
b00000000000000000000000000011101 -
#296
b1001 "
b101 2
04
b101 &
b01 (
b0101 :
b0101 .
#301
14
b00000000000000000000000000011110 -
#306
b0011 !
b0000 "
b011 $
b000 &
b000 '
b00 (
b01 +
b00 ,
b0011 .
b11 /
b00 0
b011 1
b000 2
04
b000 7
b0011 :
b00 <
b0001 >
#311
14
b0001 %
b0001 9
b00000000000000000000000000011111 -
#316
b0001 "
b001 2
04
b001 &
b01 (
b0100 :
b10 +
b0100 .
b0010 >
#321
14
b0010 %
b0010 9
b00000000000000000000000000100000 -
#326
b0010 "
b010 2
04
b010 &
b10 (
b0101 :
b0101 .
#331
14
b00000000000000000000000000100001 -
#336
b0011 "
b011 2
04
b011 &
b11 (
b0110 :
b11 +
b0110 .
b0011 >
#341
14
b0011 %
b0011 9
b00000000000000000000000000100010 -
#346
b0100 "
b100 &
b111 '
b00 (
b10 +
b01 ,
b0101 .
b01 0
b001 1
b100 2
04
b001 7
b0101 :
b01 <
b0110 >
#351
14
b0110 %
b0110 9
b00000000000000000000000000100011 -
#356
b0101 "
b101 2
04
b101 &
b01 (
b0110 :
b11 +
b0110 .
b0111 >
#361
14
b0111 %
b0111 9
b00000000000000000000000000100100 -
#366
b0110 "
b110 2
04
b110 &
b10 (
b0111 :
b0111 .
#371
14
b00000000000000000000000000100101 -
#376
b0111 "
b111 2
04
b111 &
b11 (
b0100 :
b10 +
b10 ,
b1000 .
b1010 >
#381
14
b1010 %
b1010 9
b00000000000000000000000000100110 -
#386
b10 0
b000 1
b1000 "
b100 2
04
b100 &
b110 '
b010 7
b00 (
b10 <
b0100 .
#391
14
b00000000000000000000000000100111 -
#396
b1001 "
b101 2
04
b101 &
b01 (
b0101 :
b0101 .
#401
14
b00000000000000000000000000101000 -
#406
b0100 !
b0000 "
b100 $
b000 &
b001 '
b00 (
b01 ,
b0100 .
b00 /
b01 0
b100 1
b000 2
04
b001 7
b0100 :
b00 <
b01 =
b0110 >
#411
14
b0110 %
b0110 9
b00000000000000000000000000101001 -
#416
b0001 "
04
b001 &
b01 (
#421
14
b00000000000000000000000000101010 -
#426
b0010 "
b001 2
04
b010 &
b10 (
b0101 :
b0101 .
#431
14
b00000000000000000000000000101011 -
#436
b0011 "
04
b011 &
b11 (
#441
14
b00000000000000000000000000101100 -
#446
b0100 "
b100 &
b000 '
b00 (
b10 ,
b1000 .
b100 2
04
b000 7
b0100 :
b01 <
b1010 >
#451
14
b1010 %
b1010 9
b00000000000000000000000000101101 -
#456
b0101 "
b101 2
04
b101 &
b01 (
b1001 .
#461
14
b00000000000000000000000000101110 -
#466
b0110 "
b110 2
04
b110 &
b10 (
b0101 :
b1010 .
#471
14
b00000000000000000000000000101111 -
#476
b0111 "
b111 2
04
b111 &
b11 (
b1011 .
#481
14
b00000000000000000000000000110000 -
#486
b1000 "
b100 &
b111 '
b00 (
b11 +
b0110 .
b10 0
b010 1
b100 2
04
b001 7
b0110 :
b10 <
b1011 >
#491
14
b1011 %
b1011 9
b00000000000000000000000000110001 -
#496
b1001 "
b101 2
04
b101 &
b01 (
b0111 :
b0111 .
#501
14
b00000000000000000000000000110010 -
#506
b0101 !
b0000 "
b101 $
b000 &
b001 '
b00 (
b10 +
b01 ,
b0101 .
b01 /
b01 0
b101 1
b000 2
04
b0101 :
b00 <
b0110 >
#511
14
b0110 %
b0110 9
b00000000000000000000000000110011 -
#516
b0001 "
04
b001 &
b01 (
#521
14
b00000000000000000000000000110100 -
#526
b0010 "
b001 2
04
b010 &
b10 (
b0110 :
b11 +
b0110 .
b0111 >
#531
14
b0111 %
b0111 9
b00000000000000000000000000110101 -
#536
b0011 "
04
b011 &
b11 (
#541
14
b00000000000000000000000000110110 -
#546
b0100 "
b100 &
b000 '
b00 (
b10 +
b10 ,
b1001 .
b100 2
04
b000 7
b0100 :
b01 <
b1010 >
#551
14
b1010 %
b1010 9
b00000000000000000000000000110111 -
#556
b0101 "
b101 2
04
b101 &
b01 (
b0101 :
b1010 .
#561
14
b00000000000000000000000000111000 -
#566
b0110 "
b110 2
04
b110 &
b10 (
b1011 .
#571
14
b00000000000000000000000000111001 -
#576
b0111 "
b111 2
04
b111 &
b11 (
b0110 :
b11 +
b1100 .
b1011 >
#581
14
b1011 %
b1011 9
b00000000000000000000000000111010 -
#586
b10 0
b010 1
b1000 "
b100 2
04
b100 &
b111 '
b001 7
b00 (
b10 <
b0110 .
#591
14
b00000000000000000000000000111011 -
#596
b1001 "
b101 2
04
b101 &
b01 (
b0111 :
b0111 .
#601
14
b00000000000000000000000000111100 -
#606
b0110 !
b0000 "
b110 $
b000 &
b001 '
b00 (
b01 ,
b0110 .
b10 /
b01 0
b110 1
b000 2
04
b0110 :
b00 <
b0111 >
#611
14
b0111 %
b0111 9
b00000000000000000000000000111101 -
#616
b0001 "
04
b001 &
b01 (
#621
14
b00000000000000000000000000111110 -
#626
b0010 "
b001 2
04
b010 &
b10 (
b0111 :
b0111 .
#631
14
b00000000000000000000000000111111 -
#636
b0011 "
04
b011 &
b11 (
#641
14
b00000000000000000000000001000000 -
#646
b0100 "
b100 &
b000 '
b00 (
b10 +
b10 ,
b1010 .
b100 2
04
b000 7
b0101 :
b01 <
b1010 >
#651
14
b1010 %
b1010 9
b00000000000000000000000001000001 -
#656
b0101 "
b101 2
04
b101 &
b01 (
b1011 .
#661
14
b00000000000000000000000001000010 -
#666
b0110 "
b110 2
04
b110 &
b10 (
b0110 :
b11 +
b1100 .
b1011 >
#671
14
b1011 %
b1011 9
b00000000000000000000000001000011 -
#676
b0111 "
b111 2
04
b111 &
b11 (
b1101 .
#681
14
b00000000000000000000000001000100 -
#686
b1000 "
b100 &
b111 '
b00 (
b0111 .
b10 0
b011 1
b100 2
04
b001 7
b0111 :
b10 <
#691
14
b00000000000000000000000001000101 -
#696
b1001 "
b101 2
04
b101 &
b01 (
b0100 :
b10 +
b11 ,
b1000 .
b1110 >
#701
14
b1110 %
b1110 9
b00000000000000000000000001000110 -
#706
b0111 !
b0000 "
b111 $
b000 &
b001 '
b00 (
b11 +
b01 ,
b0111 .
b11 /
b01 0
b111 1
b000 2
04
b0111 :
b00 <
b0111 >
#711
14
b0111 %
b0111 9
b00000000000000000000000001000111 -
#716
b0001 "
04
b001 &
b01 (
#721
14
b00000000000000000000000001001000 -
#726
b0010 "
b001 2
04
b010 &
b10 (
b0100 :
b10 +
b10 ,
b1000 .
b1010 >
#731
14
b1010 %
b1010 9
b00000000000000000000000001001001 -
#736
b0011 "
04
b011 &
b11 (
#741
14
b00000000000000000000000001001010 -
#746
b0100 "
b100 2
04
b100 &
b000 '
b000 7
b00 (
b0101 :
b01 <
b1011 .
#751
14
b00000000000000000000000001001011 -
#756
b0101 "
b101 2
04
b101 &
b01 (
b0110 :
b11 +
b1100 .
b1011 >
#761
14
b1011 %
b1011 9
b00000000000000000000000001001100 -
#766
b0110 "
b110 2
04
b110 &
b10 (
b1101 .
#771
14
b00000000000000000000000001001101 -
#776
b0111 "
b111 2
04
b111 &
b11 (
b0111 :
b1110 .
#781
14
b00000000000000000000000001001110 -
#786
b10 0
b011 1
b1000 "
b100 2
04
b100 &
b111 '
b001 7
b00 (
b10 <
b0111 .
#791
14
b00000000000000000000000001001111 -
#796
b1001 "
b101 2
04
b101 &
b01 (
b0100 :
b10 +
b11 ,
b1000 .
b1110 >
#801
14
b1110 %
b1110 9
b00000000000000000000000001010000 -
#806
b1000 !
b0000 "
b100 $
b000 &
b010 '
b00 (
b10 ,
b0100 .
b00 /
b100 1
b000 2
04
b010 7
b00 <
b10 =
b1010 >
#811
14
b1010 %
b1010 9
b00000000000000000000000001010001 -
#816
b0001 "
04
b001 &
b01 (
#821
14
b00000000000000000000000001010010 -
#826
b0010 "
04
b010 &
b10 (
#831
14
b00000000000000000000000001010011 -
#836
b0011 "
04
b011 &
b11 (
#841
14
b00000000000000000000000001010100 -
#846
b0100 "
b100 &
b001 '
b00 (
b11 +
b0110 .
b010 2
04
b001 7
b0110 :
b01 <
b1011 >
#851
14
b1011 %
b1011 9
b00000000000000000000000001010101 -
#856
b0101 "
04
b101 &
b01 (
#861
14
b00000000000000000000000001010110 -
#866
b0110 "
b011 2
04
b110 &
b10 (
b0111 :
b0111 .
#871
14
b00000000000000000000000001010111 -
#876
b0111 "
04
b111 &
b11 (
#881
14
b00000000000000000000000001011000 -
#886
b1000 "
b100 &
b000 '
b00 (
b10 +
b11 ,
b1000 .
b100 2
04
b000 7
b0100 :
b10 <
b1110 >
#891
14
b1110 %
b1110 9
b00000000000000000000000001011001 -
#896
b1001 "
b101 2
04
b101 &
b01 (
b1001 .
#901
14
b00000000000000000000000001011010 -
#906
b1001 !
b0000 "
b101 $
b000 &
b010 '
b00 (
b10 ,
b0101 .
b01 /
b101 1
b000 2
04
b010 7
b0101 :
b00 <
b1010 >
#911
14
b1010 %
b1010 9
b00000000000000000000000001011011 -
#916
b0001 "
04
b001 &
b01 (
#921
14
b00000000000000000000000001011100 -
#926
b0010 "
04
b010 &
b10 (
#931
14
b00000000000000000000000001011101 -
#936
b0011 "
04
b011 &
b11 (
#941
14
b00000000000000000000000001011110 -
#946
b0100 "
b100 &
b001 '
b00 (
b11 +
b0111 .
b010 2
04
b001 7
b0111 :
b01 <
b1011 >
#951
14
b1011 %
b1011 9
b00000000000000000000000001011111 -
#956
b0101 "
04
b101 &
b01 (
#961
14
b00000000000000000000000001100000 -
#966
b0110 "
b011 2
04
b110 &
b10 (
b0100 :
b10 +
b11 ,
b1000 .
b1110 >
#971
14
b1110 %
b1110 9
b00000000000000000000000001100001 -
#976
b0111 "
04
b111 &
b11 (
#981
14
b00000000000000000000000001100010 -
#986
b1000 "
b100 2
04
b100 &
b000 '
b000 7
b00 (
b10 <
b1001 .
#991
14
b00000000000000000000000001100011 -
#996
b1001 "
b101 2
04
b101 &
b01 (
b0101 :
b1010 .
#1001
14
b00000000000000000000000001100100 -
#1006
04
0*
#1011
0#
14
08
b00000000000000000000000001100101 -
