test_run_dir/SAD_module_with_bw6_pd7_should_correctly_compute_SAD_for_all_scalar_input_combinations/SAD.vcd
$date
2025-07-24T20:48+0000
$end
$version
0.2
$end
$comment

$end
$timescale 1ns  $end
$scope module SAD $end
 $var wire 1 ! io_valid_in $end
 $var wire 1 " io_valid_out $end
 $var wire 11 % sumReg $end
 $var wire 1 & clock $end
 $var wire 7 ' absDelay $end
 $var wire 6 ) io_b $end
 $var wire 6 * io_a $end
 $var wire 1 + reset $end
 $var wire 1 , sub $end
 $var wire 11 - io_sum $end
 $var wire 7 . delayRegs_5 $end
 $var wire 7 / delayRegs_4 $end
 $var wire 7 0 delayRegs_3 $end
 $var wire 7 1 delayRegs_2 $end
 $var wire 7 2 delayRegs_1 $end
 $var wire 7 3 delayRegs_0 $end
 $var wire 1 4 validRegs_4 $end
 $var wire 1 5 validRegs_5 $end
 $var wire 1 6 validRegs_6 $end
 $var wire 1 9 abs $end
 $var wire 1 : validRegs_0 $end
 $var wire 1 ; validRegs_1 $end
 $var wire 1 < validRegs_2 $end
 $var wire 1 = validRegs_3 $end
  $scope module sub $end
   $var wire 6 # io_a $end
   $var wire 6 $ io_b $end
   $var wire 7 7 io_diff $end
  $upscope $end
  $scope module abs $end
   $var wire 7 ( io_out $end
   $var wire 7 8 io_in $end
  $upscope $end
$upscope $end
$enddefinitions $end
$dumpvars
04
05
06
09
0:
0;
0<
0=
b00000000000 -
b000000 )
b000000 *
b0000000 3
b00000000000 %
b0000000 2
b0000000 7
b000000 #
b0000000 8
b000000 $
b0000000 /
b0000000 .
b0000000 1
b0000000 0
b0000000 '
b0000000 (
0!
0"
0&
0+
0,
$end
#0
1+
#1
1&
#6
1!
0&
0+
#11
1&
1:
#16
0&
#21
1&
1;
#26
0&
#31
1&
1<
#36
0&
#41
1&
1=
#46
0&
#51
14
1&
#56
0&
#61
15
1&
#66
0&
#71
1"
1&
16
#76
b000001 $
0&
b1111111 7
b0000001 (
b1111111 8
b000001 )
#81
b0000001 3
1&
#86
0&
#91
b0000001 2
1&
#96
0&
#101
b0000001 1
1&
#106
0&
#111
b0000001 0
1&
#116
0&
#121
1&
b0000001 /
#126
0&
#131
1&
b0000001 '
b0000001 .
#136
0&
#141
b00000000001 %
1&
b00000000001 -
#146
b000010 $
0&
b1111110 7
b0000010 (
b1111110 8
b000010 )
#151
b0000010 3
b00000000010 %
1&
b00000000010 -
#156
0&
#161
b0000010 2
b00000000011 %
1&
b00000000011 -
#166
0&
#171
b0000010 1
b00000000100 %
1&
b00000000100 -
#176
0&
#181
b0000010 0
b00000000101 %
1&
b00000000101 -
#186
0&
#191
b00000000110 %
1&
b00000000110 -
b0000010 /
#196
0&
#201
b00000000111 %
1&
b0000010 '
b00000000111 -
b0000010 .
#206
0&
#211
b00000001001 %
1&
b00000001001 -
#216
b000011 $
0&
b1111101 7
b0000011 (
b1111101 8
b000011 )
#221
b0000011 3
b00000001011 %
1&
b00000001011 -
#226
0&
#231
b0000011 2
b00000001101 %
1&
b00000001101 -
#236
0&
#241
b0000011 1
b00000001111 %
1&
b00000001111 -
#246
0&
#251
b0000011 0
b00000010001 %
1&
b00000010001 -
#256
0&
#261
b00000010011 %
1&
b00000010011 -
b0000011 /
#266
0&
#271
b00000010101 %
1&
b0000011 '
b00000010101 -
b0000011 .
#276
0&
#281
b00000011000 %
1&
b00000011000 -
#286
b000100 $
0&
b1111100 7
b0000100 (
b1111100 8
b000100 )
#291
b0000100 3
b00000011011 %
1&
b00000011011 -
#296
0&
#301
b0000100 2
b00000011110 %
1&
b00000011110 -
#306
0&
#311
b0000100 1
b00000100001 %
1&
b00000100001 -
#316
0&
#321
b0000100 0
b00000100100 %
1&
b00000100100 -
#326
0&
#331
b00000100111 %
1&
b00000100111 -
b0000100 /
#336
0&
#341
b00000101010 %
1&
b0000100 '
b00000101010 -
b0000100 .
#346
0&
#351
b00000101110 %
1&
b00000101110 -
#356
b000101 $
0&
b1111011 7
b0000101 (
b1111011 8
b000101 )
#361
b0000101 3
b00000110010 %
1&
b00000110010 -
#366
0&
#371
b0000101 2
b00000110110 %
1&
b00000110110 -
#376
0&
#381
b0000101 1
b00000111010 %
1&
b00000111010 -
#386
0&
#391
b0000101 0
b00000111110 %
1&
b00000111110 -
#396
0&
#401
b00001000010 %
1&
b00001000010 -
b0000101 /
#406
0&
#411
b00001000110 %
1&
b0000101 '
b00001000110 -
b0000101 .
#416
0&
#421
b00001001011 %
1&
b00001001011 -
#426
b000110 $
0&
b1111010 7
b0000110 (
b1111010 8
b000110 )
#431
b0000110 3
b00001010000 %
1&
b00001010000 -
#436
0&
#441
b0000110 2
b00001010101 %
1&
b00001010101 -
#446
0&
#451
b0000110 1
b00001011010 %
1&
b00001011010 -
#456
0&
#461
b0000110 0
b00001011111 %
1&
b00001011111 -
#466
0&
#471
b00001100100 %
1&
b00001100100 -
b0000110 /
#476
0&
#481
b00001101001 %
1&
b0000110 '
b00001101001 -
b0000110 .
#486
0&
#491
b00001101111 %
1&
b00001101111 -
#496
b000111 $
0&
b1111001 7
b0000111 (
b1111001 8
b000111 )
#501
b0000111 3
b00001110101 %
1&
b00001110101 -
#506
0&
#511
b0000111 2
b00001111011 %
1&
b00001111011 -
#516
0&
#521
b0000111 1
b00010000001 %
1&
b00010000001 -
#526
0&
#531
b0000111 0
b00010000111 %
1&
b00010000111 -
#536
0&
#541
b00010001101 %
1&
b00010001101 -
b0000111 /
#546
0&
#551
b00010010011 %
1&
b0000111 '
b00010010011 -
b0000111 .
#556
0&
#561
b00010011010 %
1&
b00010011010 -
#566
b001000 $
0&
b1111000 7
b0001000 (
b1111000 8
b001000 )
#571
b0001000 3
b00010100001 %
1&
b00010100001 -
#576
0&
#581
b0001000 2
b00010101000 %
1&
b00010101000 -
#586
0&
#591
b0001000 1
b00010101111 %
1&
b00010101111 -
#596
0&
#601
b0001000 0
b00010110110 %
1&
b00010110110 -
#606
0&
#611
b00010111101 %
1&
b00010111101 -
b0001000 /
#616
0&
#621
b00011000100 %
1&
b0001000 '
b00011000100 -
b0001000 .
#626
0&
#631
b00011001100 %
1&
b00011001100 -
#636
b001001 $
0&
b1110111 7
b0001001 (
b1110111 8
b001001 )
#641
b0001001 3
b00011010100 %
1&
b00011010100 -
#646
0&
#651
b0001001 2
b00011011100 %
1&
b00011011100 -
#656
0&
#661
b0001001 1
b00011100100 %
1&
b00011100100 -
#666
0&
#671
b0001001 0
b00011101100 %
1&
b00011101100 -
#676
0&
#681
b00011110100 %
1&
b00011110100 -
b0001001 /
#686
0&
#691
b00011111100 %
1&
b0001001 '
b00011111100 -
b0001001 .
#696
0&
#701
b00100000101 %
1&
b00100000101 -
#706
b001010 $
0&
b1110110 7
b0001010 (
b1110110 8
b001010 )
#711
b0001010 3
b00100001110 %
1&
b00100001110 -
#716
0&
#721
b0001010 2
b00100010111 %
1&
b00100010111 -
#726
0&
#731
b0001010 1
b00100100000 %
1&
b00100100000 -
#736
0&
#741
b0001010 0
b00100101001 %
1&
b00100101001 -
#746
0&
#751
b00100110010 %
1&
b00100110010 -
b0001010 /
#756
0&
#761
b00100111011 %
1&
b0001010 '
b00100111011 -
b0001010 .
#766
0&
#771
b00101000101 %
1&
b00101000101 -
#776
b001011 $
0&
b1110101 7
b0001011 (
b1110101 8
b001011 )
#781
b0001011 3
b00101001111 %
1&
b00101001111 -
#786
0&
#791
b0001011 2
b00101011001 %
1&
b00101011001 -
#796
0&
#801
b0001011 1
b00101100011 %
1&
b00101100011 -
#806
0&
#811
b0001011 0
b00101101101 %
1&
b00101101101 -
#816
0&
#821
b00101110111 %
1&
b00101110111 -
b0001011 /
#826
0&
#831
b00110000001 %
1&
b0001011 '
b00110000001 -
b0001011 .
#836
0&
#841
b00110001100 %
1&
b00110001100 -
#846
b001100 $
0&
b1110100 7
b0001100 (
b1110100 8
b001100 )
#851
b0001100 3
b00110010111 %
1&
b00110010111 -
#856
0&
#861
b0001100 2
b00110100010 %
1&
b00110100010 -
#866
0&
#871
b0001100 1
b00110101101 %
1&
b00110101101 -
#876
0&
#881
b0001100 0
b00110111000 %
1&
b00110111000 -
#886
0&
#891
b00111000011 %
1&
b00111000011 -
b0001100 /
#896
0&
#901
b00111001110 %
1&
b0001100 '
b00111001110 -
b0001100 .
#906
0&
#911
b00111011010 %
1&
b00111011010 -
#916
b001101 $
0&
b1110011 7
b0001101 (
b1110011 8
b001101 )
#921
b0001101 3
b00111100110 %
1&
b00111100110 -
#926
0&
#931
b0001101 2
b00111110010 %
1&
b00111110010 -
#936
0&
#941
b0001101 1
b00111111110 %
1&
b00111111110 -
#946
0&
#951
b0001101 0
b01000001010 %
1&
b01000001010 -
#956
0&
#961
b01000010110 %
1&
b01000010110 -
b0001101 /
#966
0&
#971
b01000100010 %
1&
b0001101 '
b01000100010 -
b0001101 .
#976
0&
#981
b01000101111 %
1&
b01000101111 -
#986
b001110 $
0&
b1110010 7
b0001110 (
b1110010 8
b001110 )
#991
b0001110 3
b01000111100 %
1&
b01000111100 -
#996
0&
#1001
b0001110 2
b01001001001 %
1&
b01001001001 -
#1006
0&
#1011
b0001110 1
b01001010110 %
1&
b01001010110 -
#1016
0&
#1021
b0001110 0
b01001100011 %
1&
b01001100011 -
#1026
0&
#1031
b01001110000 %
1&
b01001110000 -
b0001110 /
#1036
0&
#1041
b01001111101 %
1&
b0001110 '
b01001111101 -
b0001110 .
#1046
0&
#1051
b01010001011 %
1&
b01010001011 -
#1056
b001111 $
0&
b1110001 7
b0001111 (
b1110001 8
b001111 )
#1061
b0001111 3
b01010011001 %
1&
b01010011001 -
#1066
0&
#1071
b0001111 2
b01010100111 %
1&
b01010100111 -
#1076
0&
#1081
b0001111 1
b01010110101 %
1&
b01010110101 -
#1086
0&
#1091
b0001111 0
b01011000011 %
1&
b01011000011 -
#1096
0&
#1101
b01011010001 %
1&
b01011010001 -
b0001111 /
#1106
0&
#1111
b01011011111 %
1&
b0001111 '
b01011011111 -
b0001111 .
#1116
0&
#1121
b01011101110 %
1&
b01011101110 -
#1126
b010000 $
0&
b1110000 7
b0010000 (
b1110000 8
b010000 )
#1131
b0010000 3
b01011111101 %
1&
b01011111101 -
#1136
0&
#1141
b0010000 2
b01100001100 %
1&
b01100001100 -
#1146
0&
#1151
b0010000 1
b01100011011 %
1&
b01100011011 -
#1156
0&
#1161
b0010000 0
b01100101010 %
1&
b01100101010 -
#1166
0&
#1171
b01100111001 %
1&
b01100111001 -
b0010000 /
#1176
0&
#1181
b01101001000 %
1&
b0010000 '
b01101001000 -
b0010000 .
#1186
0&
#1191
b01101011000 %
1&
b01101011000 -
#1196
b010001 $
0&
b1101111 7
b0010001 (
b1101111 8
b010001 )
#1201
b0010001 3
b01101101000 %
1&
b01101101000 -
#1206
0&
#1211
b0010001 2
b01101111000 %
1&
b01101111000 -
#1216
0&
#1221
b0010001 1
b01110001000 %
1&
b01110001000 -
#1226
0&
#1231
b0010001 0
b01110011000 %
1&
b01110011000 -
#1236
0&
#1241
b01110101000 %
1&
b01110101000 -
b0010001 /
#1246
0&
#1251
b01110111000 %
1&
b0010001 '
b01110111000 -
b0010001 .
#1256
0&
#1261
b01111001001 %
1&
b01111001001 -
#1266
b010010 $
0&
b1101110 7
b0010010 (
b1101110 8
b010010 )
#1271
b0010010 3
b01111011010 %
1&
b01111011010 -
#1276
0&
#1281
b0010010 2
b01111101011 %
1&
b01111101011 -
#1286
0&
#1291
b0010010 1
b01111111100 %
1&
b01111111100 -
#1296
0&
#1301
b0010010 0
b10000001101 %
1&
b10000001101 -
#1306
0&
#1311
b10000011110 %
1&
b10000011110 -
b0010010 /
#1316
0&
#1321
b10000101111 %
1&
b0010010 '
b10000101111 -
b0010010 .
#1326
0&
#1331
b10001000001 %
1&
b10001000001 -
#1336
b010011 $
0&
b1101101 7
b0010011 (
b1101101 8
b010011 )
#1341
b0010011 3
b10001010011 %
1&
b10001010011 -
#1346
0&
#1351
b0010011 2
b10001100101 %
1&
b10001100101 -
#1356
0&
#1361
b0010011 1
b10001110111 %
1&
b10001110111 -
#1366
0&
#1371
b0010011 0
b10010001001 %
1&
b10010001001 -
#1376
0&
#1381
b10010011011 %
1&
b10010011011 -
b0010011 /
#1386
0&
#1391
b10010101101 %
1&
b0010011 '
b10010101101 -
b0010011 .
#1396
0&
#1401
b10011000000 %
1&
b10011000000 -
#1406
b010100 $
0&
b1101100 7
b0010100 (
b1101100 8
b010100 )
#1411
b0010100 3
b10011010011 %
1&
b10011010011 -
#1416
0&
#1421
b0010100 2
b10011100110 %
1&
b10011100110 -
#1426
0&
#1431
b0010100 1
b10011111001 %
1&
b10011111001 -
#1436
0&
#1441
b0010100 0
b10100001100 %
1&
b10100001100 -
#1446
0&
#1451
b10100011111 %
1&
b10100011111 -
b0010100 /
#1456
0&
#1461
b10100110010 %
1&
b0010100 '
b10100110010 -
b0010100 .
#1466
0&
#1471
b10101000110 %
1&
b10101000110 -
#1476
b010101 $
0&
b1101011 7
b0010101 (
b1101011 8
b010101 )
#1481
b0010101 3
b10101011010 %
1&
b10101011010 -
#1486
0&
#1491
b0010101 2
b10101101110 %
1&
b10101101110 -
#1496
0&
#1501
b0010101 1
b10110000010 %
1&
b10110000010 -
#1506
0&
#1511
b0010101 0
b10110010110 %
1&
b10110010110 -
#1516
0&
#1521
b10110101010 %
1&
b10110101010 -
b0010101 /
#1526
0&
#1531
b10110111110 %
1&
b0010101 '
b10110111110 -
b0010101 .
#1536
0&
#1541
b10111010011 %
1&
b10111010011 -
#1546
b010110 $
0&
b1101010 7
b0010110 (
b1101010 8
b010110 )
#1551
b0010110 3
b10111101000 %
1&
b10111101000 -
#1556
0&
#1561
b0010110 2
b10111111101 %
1&
b10111111101 -
#1566
0&
#1571
b0010110 1
b11000010010 %
1&
b11000010010 -
#1576
0&
#1581
b0010110 0
b11000100111 %
1&
b11000100111 -
#1586
0&
#1591
b11000111100 %
1&
b11000111100 -
b0010110 /
#1596
0&
#1601
b11001010001 %
1&
b0010110 '
b11001010001 -
b0010110 .
#1606
0&
#1611
b11001100111 %
1&
b11001100111 -
#1616
b010111 $
0&
b1101001 7
b0010111 (
b1101001 8
b010111 )
#1621
b0010111 3
b11001111101 %
1&
b11001111101 -
#1626
0&
#1631
b0010111 2
b11010010011 %
1&
b11010010011 -
#1636
0&
#1641
b0010111 1
b11010101001 %
1&
b11010101001 -
#1646
0&
#1651
b0010111 0
b11010111111 %
1&
b11010111111 -
#1656
0&
#1661
b11011010101 %
1&
b11011010101 -
b0010111 /
#1666
0&
#1671
b11011101011 %
1&
b0010111 '
b11011101011 -
b0010111 .
#1676
0&
#1681
b11100000010 %
1&
b11100000010 -
#1686
b011000 $
0&
b1101000 7
b0011000 (
b1101000 8
b011000 )
#1691
b0011000 3
b11100011001 %
1&
b11100011001 -
#1696
0&
#1701
b0011000 2
b11100110000 %
1&
b11100110000 -
#1706
0&
#1711
b0011000 1
b11101000111 %
1&
b11101000111 -
#1716
0&
#1721
b0011000 0
b11101011110 %
1&
b11101011110 -
#1726
0&
#1731
b11101110101 %
1&
b11101110101 -
b0011000 /
#1736
0&
#1741
b11110001100 %
1&
b0011000 '
b11110001100 -
b0011000 .
#1746
0&
#1751
b11110100100 %
1&
b11110100100 -
#1756
b011001 $
0&
b1100111 7
b0011001 (
b1100111 8
b011001 )
#1761
b0011001 3
b11110111100 %
1&
b11110111100 -
#1766
0&
#1771
b0011001 2
b11111010100 %
1&
b11111010100 -
#1776
0&
#1781
b0011001 1
b11111101100 %
1&
b11111101100 -
#1786
0&
#1791
b0011001 0
b00000000100 %
1&
b00000000100 -
#1796
0&
#1801
b00000011100 %
1&
b00000011100 -
b0011001 /
#1806
0&
#1811
b00000110100 %
1&
b0011001 '
b00000110100 -
b0011001 .
#1816
0&
#1821
b00001001101 %
1&
b00001001101 -
#1826
b011010 $
0&
b1100110 7
b0011010 (
b1100110 8
b011010 )
#1831
b0011010 3
b00001100110 %
1&
b00001100110 -
#1836
0&
#1841
b0011010 2
b00001111111 %
1&
b00001111111 -
#1846
0&
#1851
b0011010 1
b00010011000 %
1&
b00010011000 -
#1856
0&
#1861
b0011010 0
b00010110001 %
1&
b00010110001 -
#1866
0&
#1871
b00011001010 %
1&
b00011001010 -
b0011010 /
#1876
0&
#1881
b00011100011 %
1&
b0011010 '
b00011100011 -
b0011010 .
#1886
0&
#1891
b00011111101 %
1&
b00011111101 -
#1896
b011011 $
0&
b1100101 7
b0011011 (
b1100101 8
b011011 )
#1901
b0011011 3
b00100010111 %
1&
b00100010111 -
#1906
0&
#1911
b0011011 2
b00100110001 %
1&
b00100110001 -
#1916
0&
#1921
b0011011 1
b00101001011 %
1&
b00101001011 -
#1926
0&
#1931
b0011011 0
b00101100101 %
1&
b00101100101 -
#1936
0&
#1941
b00101111111 %
1&
b00101111111 -
b0011011 /
#1946
0&
#1951
b00110011001 %
1&
b0011011 '
b00110011001 -
b0011011 .
#1956
0&
#1961
b00110110100 %
1&
b00110110100 -
#1966
b011100 $
0&
b1100100 7
b0011100 (
b1100100 8
b011100 )
#1971
b0011100 3
b00111001111 %
1&
b00111001111 -
#1976
0&
#1981
b0011100 2
b00111101010 %
1&
b00111101010 -
#1986
0&
#1991
b0011100 1
b01000000101 %
1&
b01000000101 -
#1996
0&
#2001
b0011100 0
b01000100000 %
1&
b01000100000 -
#2006
0&
#2011
b01000111011 %
1&
b01000111011 -
b0011100 /
#2016
0&
#2021
b01001010110 %
1&
b0011100 '
b01001010110 -
b0011100 .
#2026
0&
#2031
b01001110010 %
1&
b01001110010 -
#2036
b011101 $
0&
b1100011 7
b0011101 (
b1100011 8
b011101 )
#2041
b0011101 3
b01010001110 %
1&
b01010001110 -
#2046
0&
#2051
b0011101 2
b01010101010 %
1&
b01010101010 -
#2056
0&
#2061
b0011101 1
b01011000110 %
1&
b01011000110 -
#2066
0&
#2071
b0011101 0
b01011100010 %
1&
b01011100010 -
#2076
0&
#2081
b01011111110 %
1&
b01011111110 -
b0011101 /
#2086
0&
#2091
b01100011010 %
1&
b0011101 '
b01100011010 -
b0011101 .
#2096
0&
#2101
b01100110111 %
1&
b01100110111 -
#2106
b011110 $
0&
b1100010 7
b0011110 (
b1100010 8
b011110 )
#2111
b0011110 3
b01101010100 %
1&
b01101010100 -
#2116
0&
#2121
b0011110 2
b01101110001 %
1&
b01101110001 -
#2126
0&
#2131
b0011110 1
b01110001110 %
1&
b01110001110 -
#2136
0&
#2141
b0011110 0
b01110101011 %
1&
b01110101011 -
#2146
0&
#2151
b01111001000 %
1&
b01111001000 -
b0011110 /
#2156
0&
#2161
b01111100101 %
1&
b0011110 '
b01111100101 -
b0011110 .
#2166
0&
#2171
b10000000011 %
1&
b10000000011 -
#2176
b011111 $
0&
b1100001 7
b0011111 (
b1100001 8
b011111 )
#2181
b0011111 3
b10000100001 %
1&
b10000100001 -
#2186
0&
#2191
b0011111 2
b10000111111 %
1&
b10000111111 -
#2196
0&
#2201
b0011111 1
b10001011101 %
1&
b10001011101 -
#2206
0&
#2211
b0011111 0
b10001111011 %
1&
b10001111011 -
#2216
0&
#2221
b10010011001 %
1&
b10010011001 -
b0011111 /
#2226
0&
#2231
b10010110111 %
1&
b0011111 '
b10010110111 -
b0011111 .
#2236
0&
#2241
b10011010110 %
1&
b10011010110 -
#2246
b100000 $
0&
b1100000 7
b0100000 (
b1100000 8
b100000 )
#2251
b0100000 3
b10011110101 %
1&
b10011110101 -
#2256
0&
#2261
b0100000 2
b10100010100 %
1&
b10100010100 -
#2266
0&
#2271
b0100000 1
b10100110011 %
1&
b10100110011 -
#2276
0&
#2281
b0100000 0
b10101010010 %
1&
b10101010010 -
#2286
0&
#2291
b10101110001 %
1&
b10101110001 -
b0100000 /
#2296
0&
#2301
b10110010000 %
1&
b0100000 '
b10110010000 -
b0100000 .
#2306
0&
#2311
b10110110000 %
1&
b10110110000 -
#2316
b100001 $
0&
b0011111 7
b0011111 (
b0011111 8
b100001 )
#2321
b0011111 3
b10111010000 %
1&
b10111010000 -
#2326
0&
#2331
b0011111 2
b10111110000 %
1&
b10111110000 -
#2336
0&
#2341
b0011111 1
b11000010000 %
1&
b11000010000 -
#2346
0&
#2351
b0011111 0
b11000110000 %
1&
b11000110000 -
#2356
0&
#2361
b11001010000 %
1&
b11001010000 -
b0011111 /
#2366
0&
#2371
b11001110000 %
1&
b0011111 '
b11001110000 -
b0011111 .
#2376
0&
#2381
b11010001111 %
1&
b11010001111 -
#2386
b100010 $
0&
b0011110 7
b0011110 (
b0011110 8
b100010 )
#2391
b0011110 3
b11010101110 %
1&
b11010101110 -
#2396
0&
#2401
b0011110 2
b11011001101 %
1&
b11011001101 -
#2406
0&
#2411
b0011110 1
b11011101100 %
1&
b11011101100 -
#2416
0&
#2421
b0011110 0
b11100001011 %
1&
b11100001011 -
#2426
0&
#2431
b11100101010 %
1&
b11100101010 -
b0011110 /
#2436
0&
#2441
b11101001001 %
1&
b0011110 '
b11101001001 -
b0011110 .
#2446
0&
#2451
b11101100111 %
1&
b11101100111 -
#2456
b100011 $
0&
b0011101 7
b0011101 (
b0011101 8
b100011 )
#2461
b0011101 3
b11110000101 %
1&
b11110000101 -
#2466
0&
#2471
b0011101 2
b11110100011 %
1&
b11110100011 -
#2476
0&
#2481
b0011101 1
b11111000001 %
1&
b11111000001 -
#2486
0&
#2491
b0011101 0
b11111011111 %
1&
b11111011111 -
#2496
0&
#2501
b11111111101 %
1&
b11111111101 -
b0011101 /
#2506
0&
#2511
b00000011011 %
1&
b0011101 '
b00000011011 -
b0011101 .
#2516
0&
#2521
b00000111000 %
1&
b00000111000 -
#2526
b100100 $
0&
b0011100 7
b0011100 (
b0011100 8
b100100 )
#2531
b0011100 3
b00001010101 %
1&
b00001010101 -
#2536
0&
#2541
b0011100 2
b00001110010 %
1&
b00001110010 -
#2546
0&
#2551
b0011100 1
b00010001111 %
1&
b00010001111 -
#2556
0&
#2561
b0011100 0
b00010101100 %
1&
b00010101100 -
#2566
0&
#2571
b00011001001 %
1&
b00011001001 -
b0011100 /
#2576
0&
#2581
b00011100110 %
1&
b0011100 '
b00011100110 -
b0011100 .
#2586
0&
#2591
b00100000010 %
1&
b00100000010 -
#2596
b100101 $
0&
b0011011 7
b0011011 (
b0011011 8
b100101 )
#2601
b0011011 3
b00100011110 %
1&
b00100011110 -
#2606
0&
#2611
b0011011 2
b00100111010 %
1&
b00100111010 -
#2616
0&
#2621
b0011011 1
b00101010110 %
1&
b00101010110 -
#2626
0&
#2631
b0011011 0
b00101110010 %
1&
b00101110010 -
#2636
0&
#2641
b00110001110 %
1&
b00110001110 -
b0011011 /
#2646
0&
#2651
b00110101010 %
1&
b0011011 '
b00110101010 -
b0011011 .
#2656
0&
#2661
b00111000101 %
1&
b00111000101 -
#2666
b100110 $
0&
b0011010 7
b0011010 (
b0011010 8
b100110 )
#2671
b0011010 3
b00111100000 %
1&
b00111100000 -
#2676
0&
#2681
b0011010 2
b00111111011 %
1&
b00111111011 -
#2686
0&
#2691
b0011010 1
b01000010110 %
1&
b01000010110 -
#2696
0&
#2701
b0011010 0
b01000110001 %
1&
b01000110001 -
#2706
0&
#2711
b01001001100 %
1&
b01001001100 -
b0011010 /
#2716
0&
#2721
b01001100111 %
1&
b0011010 '
b01001100111 -
b0011010 .
#2726
0&
#2731
b01010000001 %
1&
b01010000001 -
#2736
b100111 $
0&
b0011001 7
b0011001 (
b0011001 8
b100111 )
#2741
b0011001 3
b01010011011 %
1&
b01010011011 -
#2746
0&
#2751
b0011001 2
b01010110101 %
1&
b01010110101 -
#2756
0&
#2761
b0011001 1
b01011001111 %
1&
b01011001111 -
#2766
0&
#2771
b0011001 0
b01011101001 %
1&
b01011101001 -
#2776
0&
#2781
b01100000011 %
1&
b01100000011 -
b0011001 /
#2786
0&
#2791
b01100011101 %
1&
b0011001 '
b01100011101 -
b0011001 .
#2796
0&
#2801
b01100110110 %
1&
b01100110110 -
#2806
b101000 $
0&
b0011000 7
b0011000 (
b0011000 8
b101000 )
#2811
b0011000 3
b01101001111 %
1&
b01101001111 -
#2816
0&
#2821
b0011000 2
b01101101000 %
1&
b01101101000 -
#2826
0&
#2831
b0011000 1
b01110000001 %
1&
b01110000001 -
#2836
0&
#2841
b0011000 0
b01110011010 %
1&
b01110011010 -
#2846
0&
#2851
b01110110011 %
1&
b01110110011 -
b0011000 /
#2856
0&
#2861
b01111001100 %
1&
b0011000 '
b01111001100 -
b0011000 .
#2866
0&
#2871
b01111100100 %
1&
b01111100100 -
#2876
b101001 $
0&
b0010111 7
b0010111 (
b0010111 8
b101001 )
#2881
b0010111 3
b01111111100 %
1&
b01111111100 -
#2886
0&
#2891
b0010111 2
b10000010100 %
1&
b10000010100 -
#2896
0&
#2901
b0010111 1
b10000101100 %
1&
b10000101100 -
#2906
0&
#2911
b0010111 0
b10001000100 %
1&
b10001000100 -
#2916
0&
#2921
b10001011100 %
1&
b10001011100 -
b0010111 /
#2926
0&
#2931
b10001110100 %
1&
b0010111 '
b10001110100 -
b0010111 .
#2936
0&
#2941
b10010001011 %
1&
b10010001011 -
#2946
b101010 $
0&
b0010110 7
b0010110 (
b0010110 8
b101010 )
#2951
b0010110 3
b10010100010 %
1&
b10010100010 -
#2956
0&
#2961
b0010110 2
b10010111001 %
1&
b10010111001 -
#2966
0&
#2971
b0010110 1
b10011010000 %
1&
b10011010000 -
#2976
0&
#2981
b0010110 0
b10011100111 %
1&
b10011100111 -
#2986
0&
#2991
b10011111110 %
1&
b10011111110 -
b0010110 /
#2996
0&
#3001
b10100010101 %
1&
b0010110 '
b10100010101 -
b0010110 .
#3006
0&
#3011
b10100101011 %
1&
b10100101011 -
#3016
b101011 $
0&
b0010101 7
b0010101 (
b0010101 8
b101011 )
#3021
b0010101 3
b10101000001 %
1&
b10101000001 -
#3026
0&
#3031
b0010101 2
b10101010111 %
1&
b10101010111 -
#3036
0&
#3041
b0010101 1
b10101101101 %
1&
b10101101101 -
#3046
0&
#3051
b0010101 0
b10110000011 %
1&
b10110000011 -
#3056
0&
#3061
b10110011001 %
1&
b10110011001 -
b0010101 /
#3066
0&
#3071
b10110101111 %
1&
b0010101 '
b10110101111 -
b0010101 .
#3076
0&
#3081
b10111000100 %
1&
b10111000100 -
#3086
b101100 $
0&
b0010100 7
b0010100 (
b0010100 8
b101100 )
#3091
b0010100 3
b10111011001 %
1&
b10111011001 -
#3096
0&
#3101
b0010100 2
b10111101110 %
1&
b10111101110 -
#3106
0&
#3111
b0010100 1
b11000000011 %
1&
b11000000011 -
#3116
0&
#3121
b0010100 0
b11000011000 %
1&
b11000011000 -
#3126
0&
#3131
b11000101101 %
1&
b11000101101 -
b0010100 /
#3136
0&
#3141
b11001000010 %
1&
b0010100 '
b11001000010 -
b0010100 .
#3146
0&
#3151
b11001010110 %
1&
b11001010110 -
#3156
b101101 $
0&
b0010011 7
b0010011 (
b0010011 8
b101101 )
#3161
b0010011 3
b11001101010 %
1&
b11001101010 -
#3166
0&
#3171
b0010011 2
b11001111110 %
1&
b11001111110 -
#3176
0&
#3181
b0010011 1
b11010010010 %
1&
b11010010010 -
#3186
0&
#3191
b0010011 0
b11010100110 %
1&
b11010100110 -
#3196
0&
#3201
b11010111010 %
1&
b11010111010 -
b0010011 /
#3206
0&
#3211
b11011001110 %
1&
b0010011 '
b11011001110 -
b0010011 .
#3216
0&
#3221
b11011100001 %
1&
b11011100001 -
#3226
b101110 $
0&
b0010010 7
b0010010 (
b0010010 8
b101110 )
#3231
b0010010 3
b11011110100 %
1&
b11011110100 -
#3236
0&
#3241
b0010010 2
b11100000111 %
1&
b11100000111 -
#3246
0&
#3251
b0010010 1
b11100011010 %
1&
b11100011010 -
#3256
0&
#3261
b0010010 0
b11100101101 %
1&
b11100101101 -
#3266
0&
#3271
b11101000000 %
1&
b11101000000 -
b0010010 /
#3276
0&
#3281
b11101010011 %
1&
b0010010 '
b11101010011 -
b0010010 .
#3286
0&
#3291
b11101100101 %
1&
b11101100101 -
#3296
b101111 $
0&
b0010001 7
b0010001 (
b0010001 8
b101111 )
#3301
b0010001 3
b11101110111 %
1&
b11101110111 -
#3306
0&
#3311
b0010001 2
b11110001001 %
1&
b11110001001 -
#3316
0&
#3321
b0010001 1
b11110011011 %
1&
b11110011011 -
#3326
0&
#3331
b0010001 0
b11110101101 %
1&
b11110101101 -
#3336
0&
#3341
b11110111111 %
1&
b11110111111 -
b0010001 /
#3346
0&
#3351
b11111010001 %
1&
b0010001 '
b11111010001 -
b0010001 .
#3356
0&
#3361
b11111100010 %
1&
b11111100010 -
#3366
b110000 $
0&
b0010000 7
b0010000 (
b0010000 8
b110000 )
#3371
b0010000 3
b11111110011 %
1&
b11111110011 -
#3376
0&
#3381
b0010000 2
b00000000100 %
1&
b00000000100 -
#3386
0&
#3391
b0010000 1
b00000010101 %
1&
b00000010101 -
#3396
0&
#3401
b0010000 0
b00000100110 %
1&
b00000100110 -
#3406
0&
#3411
b00000110111 %
1&
b00000110111 -
b0010000 /
#3416
0&
#3421
b00001001000 %
1&
b0010000 '
b00001001000 -
b0010000 .
#3426
0&
#3431
b00001011000 %
1&
b00001011000 -
#3436
b110001 $
0&
b0001111 7
b0001111 (
b0001111 8
b110001 )
#3441
b0001111 3
b00001101000 %
1&
b00001101000 -
#3446
0&
#3451
b0001111 2
b00001111000 %
1&
b00001111000 -
#3456
0&
#3461
b0001111 1
b00010001000 %
1&
b00010001000 -
#3466
0&
#3471
b0001111 0
b00010011000 %
1&
b00010011000 -
#3476
0&
#3481
b00010101000 %
1&
b00010101000 -
b0001111 /
#3486
0&
#3491
b00010111000 %
1&
b0001111 '
b00010111000 -
b0001111 .
#3496
0&
#3501
b00011000111 %
1&
b00011000111 -
