test_run_dir/should_exhaustively_test_FPAdder_for_bw6_pd7/FPAdder.vcd
$date
2025-07-28T20:16+0000
$end
$version
0.2
$end
$comment

$end
$timescale 1ns  $end
$scope module FPAdder $end
 $var wire 6 ! io_out $end
 $var wire 6 " io_in_a $end
 $var wire 6 # io_in_b $end
 $var wire 1 $ reset $end
 $var wire 1 % clock $end
$upscope $end
$enddefinitions $end
$dumpvars
0$
0%
b000000 !
b000000 #
b000000 "
$end
#0
1$
#1
1%
#6
0$
0%
#11
1%
#16
b000001 !
b000001 #
0%
#21
1%
#26
b000010 !
b000010 #
0%
#31
1%
#36
b000011 !
b000011 #
0%
#41
1%
#46
b000100 !
b000100 #
0%
#51
1%
#56
b000101 !
b000101 #
0%
#61
1%
#66
b000110 !
b000110 #
0%
#71
1%
#76
b000111 !
b000111 #
0%
#81
1%
#86
b001000 !
b001000 #
0%
#91
1%
#96
b001001 !
b001001 #
0%
#101
1%
#106
b001010 !
b001010 #
0%
#111
1%
#116
b001011 !
b001011 #
0%
#121
1%
#126
b001100 !
b001100 #
0%
#131
1%
#136
b001101 !
b001101 #
0%
#141
1%
#146
b001110 !
b001110 #
0%
#151
1%
#156
b001111 !
b001111 #
0%
#161
1%
#166
b010000 !
b010000 #
0%
#171
1%
#176
b010001 !
b010001 #
0%
#181
1%
#186
b010010 !
b010010 #
0%
#191
1%
#196
b010011 !
b010011 #
0%
#201
1%
#206
b010100 !
b010100 #
0%
#211
1%
#216
b010101 !
b010101 #
0%
#221
1%
#226
b010110 !
b010110 #
0%
#231
1%
#236
b010111 !
b010111 #
0%
#241
1%
#246
b011000 !
b011000 #
0%
#251
1%
#256
b011001 !
b011001 #
0%
#261
1%
#266
b011010 !
b011010 #
0%
#271
1%
#276
b011011 !
b011011 #
0%
#281
1%
#286
b011100 !
b011100 #
0%
#291
1%
#296
b011101 !
b011101 #
0%
#301
1%
#306
b011110 !
b011110 #
0%
#311
1%
#316
b011111 !
b011111 #
0%
#321
1%
#326
b100000 !
b100000 #
0%
#331
1%
#336
b100001 !
b100001 #
0%
#341
1%
#346
b100010 !
b100010 #
0%
#351
1%
#356
b100011 !
b100011 #
0%
#361
1%
#366
b100100 !
b100100 #
0%
#371
1%
#376
b100101 !
b100101 #
0%
#381
1%
#386
b100110 !
b100110 #
0%
#391
1%
#396
b100111 !
b100111 #
0%
#401
1%
#406
b101000 !
b101000 #
0%
#411
1%
#416
b101001 !
b101001 #
0%
#421
1%
#426
b101010 !
b101010 #
0%
#431
1%
#436
b101011 !
b101011 #
0%
#441
1%
#446
b101100 !
b101100 #
0%
#451
1%
#456
b101101 !
b101101 #
0%
#461
1%
#466
b101110 !
b101110 #
0%
#471
1%
#476
b101111 !
b101111 #
0%
#481
1%
#486
b110000 !
b110000 #
0%
#491
1%
#496
b110001 !
b110001 #
0%
#501
1%
#506
b110010 !
b110010 #
0%
#511
1%
#516
b110011 !
b110011 #
0%
#521
1%
#526
b110100 !
b110100 #
0%
#531
1%
#536
b110101 !
b110101 #
0%
#541
1%
#546
b110110 !
b110110 #
0%
#551
1%
#556
b110111 !
b110111 #
0%
#561
1%
#566
b111000 !
b111000 #
0%
#571
1%
#576
b111001 !
b111001 #
0%
#581
1%
#586
b111010 !
b111010 #
0%
#591
1%
#596
b111011 !
b111011 #
0%
#601
1%
#606
b111100 !
b111100 #
0%
#611
1%
#616
b111101 !
b111101 #
0%
#621
1%
#626
b111110 !
b111110 #
0%
#631
1%
#636
b111111 !
b111111 #
0%
#641
1%
#646
b000001 !
b000001 "
b000000 #
0%
#651
1%
#656
b000010 !
b000001 #
0%
#661
1%
#666
b000011 !
b000010 #
0%
#671
1%
#676
b000100 !
b000011 #
0%
#681
1%
#686
b000101 !
b000100 #
0%
#691
1%
#696
b000110 !
b000101 #
0%
#701
1%
#706
b000111 !
b000110 #
0%
#711
1%
#716
b001000 !
b000111 #
0%
#721
1%
#726
b001001 !
b001000 #
0%
#731
1%
#736
b001010 !
b001001 #
0%
#741
1%
#746
b001011 !
b001010 #
0%
#751
1%
#756
b001100 !
b001011 #
0%
#761
1%
#766
b001101 !
b001100 #
0%
#771
1%
#776
b001110 !
b001101 #
0%
#781
1%
#786
b001111 !
b001110 #
0%
#791
1%
#796
b010000 !
b001111 #
0%
#801
1%
#806
b010001 !
b010000 #
0%
#811
1%
#816
b010010 !
b010001 #
0%
#821
1%
#826
b010011 !
b010010 #
0%
#831
1%
#836
b010100 !
b010011 #
0%
#841
1%
#846
b010101 !
b010100 #
0%
#851
1%
#856
b010110 !
b010101 #
0%
#861
1%
#866
b010111 !
b010110 #
0%
#871
1%
#876
b011000 !
b010111 #
0%
#881
1%
#886
b011001 !
b011000 #
0%
#891
1%
#896
b011010 !
b011001 #
0%
#901
1%
#906
b011011 !
b011010 #
0%
#911
1%
#916
b011100 !
b011011 #
0%
#921
1%
#926
b011101 !
b011100 #
0%
#931
1%
#936
b011110 !
b011101 #
0%
#941
1%
#946
b011111 !
b011110 #
0%
#951
1%
#956
b100000 !
b011111 #
0%
#961
1%
#966
b100001 !
b100000 #
0%
#971
1%
#976
b100010 !
b100001 #
0%
#981
1%
#986
b100011 !
b100010 #
0%
#991
1%
#996
b100100 !
b100011 #
0%
#1001
1%
#1006
b100101 !
b100100 #
0%
#1011
1%
#1016
b100110 !
b100101 #
0%
#1021
1%
#1026
b100111 !
b100110 #
0%
#1031
1%
#1036
b101000 !
b100111 #
0%
#1041
1%
#1046
b101001 !
b101000 #
0%
#1051
1%
#1056
b101010 !
b101001 #
0%
#1061
1%
#1066
b101011 !
b101010 #
0%
#1071
1%
#1076
b101100 !
b101011 #
0%
#1081
1%
#1086
b101101 !
b101100 #
0%
#1091
1%
#1096
b101110 !
b101101 #
0%
#1101
1%
#1106
b101111 !
b101110 #
0%
#1111
1%
#1116
b110000 !
b101111 #
0%
#1121
1%
#1126
b110001 !
b110000 #
0%
#1131
1%
#1136
b110010 !
b110001 #
0%
#1141
1%
#1146
b110011 !
b110010 #
0%
#1151
1%
#1156
b110100 !
b110011 #
0%
#1161
1%
#1166
b110101 !
b110100 #
0%
#1171
1%
#1176
b110110 !
b110101 #
0%
#1181
1%
#1186
b110111 !
b110110 #
0%
#1191
1%
#1196
b111000 !
b110111 #
0%
#1201
1%
#1206
b111001 !
b111000 #
0%
#1211
1%
#1216
b111010 !
b111001 #
0%
#1221
1%
#1226
b111011 !
b111010 #
0%
#1231
1%
#1236
b111100 !
b111011 #
0%
#1241
1%
#1246
b111101 !
b111100 #
0%
#1251
1%
#1256
b111110 !
b111101 #
0%
#1261
1%
#1266
b111111 !
b111110 #
0%
#1271
1%
#1276
b000000 !
b111111 #
0%
#1281
1%
#1286
b000010 !
b000010 "
b000000 #
0%
#1291
1%
#1296
b000011 !
b000001 #
0%
#1301
1%
#1306
b000100 !
b000010 #
0%
#1311
1%
#1316
b000101 !
b000011 #
0%
#1321
1%
#1326
b000110 !
b000100 #
0%
#1331
1%
#1336
b000111 !
b000101 #
0%
#1341
1%
#1346
b001000 !
b000110 #
0%
#1351
1%
#1356
b001001 !
b000111 #
0%
#1361
1%
#1366
b001010 !
b001000 #
0%
#1371
1%
#1376
b001011 !
b001001 #
0%
#1381
1%
#1386
b001100 !
b001010 #
0%
#1391
1%
#1396
b001101 !
b001011 #
0%
#1401
1%
#1406
b001110 !
b001100 #
0%
#1411
1%
#1416
b001111 !
b001101 #
0%
#1421
1%
#1426
b010000 !
b001110 #
0%
#1431
1%
#1436
b010001 !
b001111 #
0%
#1441
1%
#1446
b010010 !
b010000 #
0%
#1451
1%
#1456
b010011 !
b010001 #
0%
#1461
1%
#1466
b010100 !
b010010 #
0%
#1471
1%
#1476
b010101 !
b010011 #
0%
#1481
1%
#1486
b010110 !
b010100 #
0%
#1491
1%
#1496
b010111 !
b010101 #
0%
#1501
1%
#1506
b011000 !
b010110 #
0%
#1511
1%
#1516
b011001 !
b010111 #
0%
#1521
1%
#1526
b011010 !
b011000 #
0%
#1531
1%
#1536
b011011 !
b011001 #
0%
#1541
1%
#1546
b011100 !
b011010 #
0%
#1551
1%
#1556
b011101 !
b011011 #
0%
#1561
1%
#1566
b011110 !
b011100 #
0%
#1571
1%
#1576
b011111 !
b011101 #
0%
#1581
1%
#1586
b100000 !
b011110 #
0%
#1591
1%
#1596
b100001 !
b011111 #
0%
#1601
1%
#1606
b100010 !
b100000 #
0%
#1611
1%
#1616
b100011 !
b100001 #
0%
#1621
1%
#1626
b100100 !
b100010 #
0%
#1631
1%
#1636
b100101 !
b100011 #
0%
#1641
1%
#1646
b100110 !
b100100 #
0%
#1651
1%
#1656
b100111 !
b100101 #
0%
#1661
1%
#1666
b101000 !
b100110 #
0%
#1671
1%
#1676
b101001 !
b100111 #
0%
#1681
1%
#1686
b101010 !
b101000 #
0%
#1691
1%
#1696
b101011 !
b101001 #
0%
#1701
1%
#1706
b101100 !
b101010 #
0%
#1711
1%
#1716
b101101 !
b101011 #
0%
#1721
1%
#1726
b101110 !
b101100 #
0%
#1731
1%
#1736
b101111 !
b101101 #
0%
#1741
1%
#1746
b110000 !
b101110 #
0%
#1751
1%
#1756
b110001 !
b101111 #
0%
#1761
1%
#1766
b110010 !
b110000 #
0%
#1771
1%
#1776
b110011 !
b110001 #
0%
#1781
1%
#1786
b110100 !
b110010 #
0%
#1791
1%
#1796
b110101 !
b110011 #
0%
#1801
1%
#1806
b110110 !
b110100 #
0%
#1811
1%
#1816
b110111 !
b110101 #
0%
#1821
1%
#1826
b111000 !
b110110 #
0%
#1831
1%
#1836
b111001 !
b110111 #
0%
#1841
1%
#1846
b111010 !
b111000 #
0%
#1851
1%
#1856
b111011 !
b111001 #
0%
#1861
1%
#1866
b111100 !
b111010 #
0%
#1871
1%
#1876
b111101 !
b111011 #
0%
#1881
1%
#1886
b111110 !
b111100 #
0%
#1891
1%
#1896
b111111 !
b111101 #
0%
#1901
1%
#1906
b000000 !
b111110 #
0%
#1911
1%
#1916
b000001 !
b111111 #
0%
#1921
1%
#1926
b000011 !
b000011 "
b000000 #
0%
#1931
1%
#1936
b000100 !
b000001 #
0%
#1941
1%
#1946
b000101 !
b000010 #
0%
#1951
1%
#1956
b000110 !
b000011 #
0%
#1961
1%
#1966
b000111 !
b000100 #
0%
#1971
1%
#1976
b001000 !
b000101 #
0%
#1981
1%
#1986
b001001 !
b000110 #
0%
#1991
1%
#1996
b001010 !
b000111 #
0%
#2001
1%
#2006
b001011 !
b001000 #
0%
#2011
1%
#2016
b001100 !
b001001 #
0%
#2021
1%
#2026
b001101 !
b001010 #
0%
#2031
1%
#2036
b001110 !
b001011 #
0%
#2041
1%
#2046
b001111 !
b001100 #
0%
#2051
1%
#2056
b010000 !
b001101 #
0%
#2061
1%
#2066
b010001 !
b001110 #
0%
#2071
1%
#2076
b010010 !
b001111 #
0%
#2081
1%
#2086
b010011 !
b010000 #
0%
#2091
1%
#2096
b010100 !
b010001 #
0%
#2101
1%
#2106
b010101 !
b010010 #
0%
#2111
1%
#2116
b010110 !
b010011 #
0%
#2121
1%
#2126
b010111 !
b010100 #
0%
#2131
1%
#2136
b011000 !
b010101 #
0%
#2141
1%
#2146
b011001 !
b010110 #
0%
#2151
1%
#2156
b011010 !
b010111 #
0%
#2161
1%
#2166
b011011 !
b011000 #
0%
#2171
1%
#2176
b011100 !
b011001 #
0%
#2181
1%
#2186
b011101 !
b011010 #
0%
#2191
1%
#2196
b011110 !
b011011 #
0%
#2201
1%
#2206
b011111 !
b011100 #
0%
#2211
1%
#2216
b100000 !
b011101 #
0%
#2221
1%
#2226
b100001 !
b011110 #
0%
#2231
1%
#2236
b100010 !
b011111 #
0%
#2241
1%
#2246
b100011 !
b100000 #
0%
#2251
1%
#2256
b100100 !
b100001 #
0%
#2261
1%
#2266
b100101 !
b100010 #
0%
#2271
1%
#2276
b100110 !
b100011 #
0%
#2281
1%
#2286
b100111 !
b100100 #
0%
#2291
1%
#2296
b101000 !
b100101 #
0%
#2301
1%
#2306
b101001 !
b100110 #
0%
#2311
1%
#2316
b101010 !
b100111 #
0%
#2321
1%
#2326
b101011 !
b101000 #
0%
#2331
1%
#2336
b101100 !
b101001 #
0%
#2341
1%
#2346
b101101 !
b101010 #
0%
#2351
1%
#2356
b101110 !
b101011 #
0%
#2361
1%
#2366
b101111 !
b101100 #
0%
#2371
1%
#2376
b110000 !
b101101 #
0%
#2381
1%
#2386
b110001 !
b101110 #
0%
#2391
1%
#2396
b110010 !
b101111 #
0%
#2401
1%
#2406
b110011 !
b110000 #
0%
#2411
1%
#2416
b110100 !
b110001 #
0%
#2421
1%
#2426
b110101 !
b110010 #
0%
#2431
1%
#2436
b110110 !
b110011 #
0%
#2441
1%
#2446
b110111 !
b110100 #
0%
#2451
1%
#2456
b111000 !
b110101 #
0%
#2461
1%
#2466
b111001 !
b110110 #
0%
#2471
1%
#2476
b111010 !
b110111 #
0%
#2481
1%
#2486
b111011 !
b111000 #
0%
#2491
1%
#2496
b111100 !
b111001 #
0%
#2501
1%
#2506
b111101 !
b111010 #
0%
#2511
1%
#2516
b111110 !
b111011 #
0%
#2521
1%
#2526
b111111 !
b111100 #
0%
#2531
1%
#2536
b000000 !
b111101 #
0%
#2541
1%
#2546
b000001 !
b111110 #
0%
#2551
1%
#2556
b000010 !
b111111 #
0%
#2561
1%
#2566
b000100 !
b000100 "
b000000 #
0%
#2571
1%
#2576
b000101 !
b000001 #
0%
#2581
1%
#2586
b000110 !
b000010 #
0%
#2591
1%
#2596
b000111 !
b000011 #
0%
#2601
1%
#2606
b001000 !
b000100 #
0%
#2611
1%
#2616
b001001 !
b000101 #
0%
#2621
1%
#2626
b001010 !
b000110 #
0%
#2631
1%
#2636
b001011 !
b000111 #
0%
#2641
1%
#2646
b001100 !
b001000 #
0%
#2651
1%
#2656
b001101 !
b001001 #
0%
#2661
1%
#2666
b001110 !
b001010 #
0%
#2671
1%
#2676
b001111 !
b001011 #
0%
#2681
1%
#2686
b010000 !
b001100 #
0%
#2691
1%
#2696
b010001 !
b001101 #
0%
#2701
1%
#2706
b010010 !
b001110 #
0%
#2711
1%
#2716
b010011 !
b001111 #
0%
#2721
1%
#2726
b010100 !
b010000 #
0%
#2731
1%
#2736
b010101 !
b010001 #
0%
#2741
1%
#2746
b010110 !
b010010 #
0%
#2751
1%
#2756
b010111 !
b010011 #
0%
#2761
1%
#2766
b011000 !
b010100 #
0%
#2771
1%
#2776
b011001 !
b010101 #
0%
#2781
1%
#2786
b011010 !
b010110 #
0%
#2791
1%
#2796
b011011 !
b010111 #
0%
#2801
1%
#2806
b011100 !
b011000 #
0%
#2811
1%
#2816
b011101 !
b011001 #
0%
#2821
1%
#2826
b011110 !
b011010 #
0%
#2831
1%
#2836
b011111 !
b011011 #
0%
#2841
1%
#2846
b100000 !
b011100 #
0%
#2851
1%
#2856
b100001 !
b011101 #
0%
#2861
1%
#2866
b100010 !
b011110 #
0%
#2871
1%
#2876
b100011 !
b011111 #
0%
#2881
1%
#2886
b100100 !
b100000 #
0%
#2891
1%
#2896
b100101 !
b100001 #
0%
#2901
1%
#2906
b100110 !
b100010 #
0%
#2911
1%
#2916
b100111 !
b100011 #
0%
#2921
1%
#2926
b101000 !
b100100 #
0%
#2931
1%
#2936
b101001 !
b100101 #
0%
#2941
1%
#2946
b101010 !
b100110 #
0%
#2951
1%
#2956
b101011 !
b100111 #
0%
#2961
1%
#2966
b101100 !
b101000 #
0%
#2971
1%
#2976
b101101 !
b101001 #
0%
#2981
1%
#2986
b101110 !
b101010 #
0%
#2991
1%
#2996
b101111 !
b101011 #
0%
#3001
1%
#3006
b110000 !
b101100 #
0%
#3011
1%
#3016
b110001 !
b101101 #
0%
#3021
1%
#3026
b110010 !
b101110 #
0%
#3031
1%
#3036
b110011 !
b101111 #
0%
#3041
1%
#3046
b110100 !
b110000 #
0%
#3051
1%
#3056
b110101 !
b110001 #
0%
#3061
1%
#3066
b110110 !
b110010 #
0%
#3071
1%
#3076
b110111 !
b110011 #
0%
#3081
1%
#3086
b111000 !
b110100 #
0%
#3091
1%
#3096
b111001 !
b110101 #
0%
#3101
1%
#3106
b111010 !
b110110 #
0%
#3111
1%
#3116
b111011 !
b110111 #
0%
#3121
1%
#3126
b111100 !
b111000 #
0%
#3131
1%
#3136
b111101 !
b111001 #
0%
#3141
1%
#3146
b111110 !
b111010 #
0%
#3151
1%
#3156
b111111 !
b111011 #
0%
#3161
1%
#3166
b000000 !
b111100 #
0%
#3171
1%
#3176
b000001 !
b111101 #
0%
#3181
1%
#3186
b000010 !
b111110 #
0%
#3191
1%
#3196
b000011 !
b111111 #
0%
#3201
1%
#3206
b000101 !
b000101 "
b000000 #
0%
#3211
1%
#3216
b000110 !
b000001 #
0%
#3221
1%
#3226
b000111 !
b000010 #
0%
#3231
1%
#3236
b001000 !
b000011 #
0%
#3241
1%
#3246
b001001 !
b000100 #
0%
#3251
1%
#3256
b001010 !
b000101 #
0%
#3261
1%
#3266
b001011 !
b000110 #
0%
#3271
1%
#3276
b001100 !
b000111 #
0%
#3281
1%
#3286
b001101 !
b001000 #
0%
#3291
1%
#3296
b001110 !
b001001 #
0%
#3301
1%
#3306
b001111 !
b001010 #
0%
#3311
1%
#3316
b010000 !
b001011 #
0%
#3321
1%
#3326
b010001 !
b001100 #
0%
#3331
1%
#3336
b010010 !
b001101 #
0%
#3341
1%
#3346
b010011 !
b001110 #
0%
#3351
1%
#3356
b010100 !
b001111 #
0%
#3361
1%
#3366
b010101 !
b010000 #
0%
#3371
1%
#3376
b010110 !
b010001 #
0%
#3381
1%
#3386
b010111 !
b010010 #
0%
#3391
1%
#3396
b011000 !
b010011 #
0%
#3401
1%
#3406
b011001 !
b010100 #
0%
#3411
1%
#3416
b011010 !
b010101 #
0%
#3421
1%
#3426
b011011 !
b010110 #
0%
#3431
1%
#3436
b011100 !
b010111 #
0%
#3441
1%
#3446
b011101 !
b011000 #
0%
#3451
1%
#3456
b011110 !
b011001 #
0%
#3461
1%
#3466
b011111 !
b011010 #
0%
#3471
1%
#3476
b100000 !
b011011 #
0%
#3481
1%
#3486
b100001 !
b011100 #
0%
#3491
1%
#3496
b100010 !
b011101 #
0%
#3501
1%
#3506
b100011 !
b011110 #
0%
#3511
1%
#3516
b100100 !
b011111 #
0%
#3521
1%
#3526
b100101 !
b100000 #
0%
#3531
1%
#3536
b100110 !
b100001 #
0%
#3541
1%
#3546
b100111 !
b100010 #
0%
#3551
1%
#3556
b101000 !
b100011 #
0%
#3561
1%
#3566
b101001 !
b100100 #
0%
#3571
1%
#3576
b101010 !
b100101 #
0%
#3581
1%
#3586
b101011 !
b100110 #
0%
#3591
1%
#3596
b101100 !
b100111 #
0%
#3601
1%
#3606
b101101 !
b101000 #
0%
#3611
1%
#3616
b101110 !
b101001 #
0%
#3621
1%
#3626
b101111 !
b101010 #
0%
#3631
1%
#3636
b110000 !
b101011 #
0%
#3641
1%
#3646
b110001 !
b101100 #
0%
#3651
1%
#3656
b110010 !
b101101 #
0%
#3661
1%
#3666
b110011 !
b101110 #
0%
#3671
1%
#3676
b110100 !
b101111 #
0%
#3681
1%
#3686
b110101 !
b110000 #
0%
#3691
1%
#3696
b110110 !
b110001 #
0%
#3701
1%
#3706
b110111 !
b110010 #
0%
#3711
1%
#3716
b111000 !
b110011 #
0%
#3721
1%
#3726
b111001 !
b110100 #
0%
#3731
1%
#3736
b111010 !
b110101 #
0%
#3741
1%
#3746
b111011 !
b110110 #
0%
#3751
1%
#3756
b111100 !
b110111 #
0%
#3761
1%
#3766
b111101 !
b111000 #
0%
#3771
1%
#3776
b111110 !
b111001 #
0%
#3781
1%
#3786
b111111 !
b111010 #
0%
#3791
1%
#3796
b000000 !
b111011 #
0%
#3801
1%
#3806
b000001 !
b111100 #
0%
#3811
1%
#3816
b000010 !
b111101 #
0%
#3821
1%
#3826
b000011 !
b111110 #
0%
#3831
1%
#3836
b000100 !
b111111 #
0%
#3841
1%
#3846
b000110 !
b000110 "
b000000 #
0%
#3851
1%
#3856
b000111 !
b000001 #
0%
#3861
1%
#3866
b001000 !
b000010 #
0%
#3871
1%
#3876
b001001 !
b000011 #
0%
#3881
1%
#3886
b001010 !
b000100 #
0%
#3891
1%
#3896
b001011 !
b000101 #
0%
#3901
1%
#3906
b001100 !
b000110 #
0%
#3911
1%
#3916
b001101 !
b000111 #
0%
#3921
1%
#3926
b001110 !
b001000 #
0%
#3931
1%
#3936
b001111 !
b001001 #
0%
#3941
1%
#3946
b010000 !
b001010 #
0%
#3951
1%
#3956
b010001 !
b001011 #
0%
#3961
1%
#3966
b010010 !
b001100 #
0%
#3971
1%
#3976
b010011 !
b001101 #
0%
#3981
1%
#3986
b010100 !
b001110 #
0%
#3991
1%
#3996
b010101 !
b001111 #
0%
#4001
1%
#4006
b010110 !
b010000 #
0%
#4011
1%
#4016
b010111 !
b010001 #
0%
#4021
1%
#4026
b011000 !
b010010 #
0%
#4031
1%
#4036
b011001 !
b010011 #
0%
#4041
1%
#4046
b011010 !
b010100 #
0%
#4051
1%
#4056
b011011 !
b010101 #
0%
#4061
1%
#4066
b011100 !
b010110 #
0%
#4071
1%
#4076
b011101 !
b010111 #
0%
#4081
1%
#4086
b011110 !
b011000 #
0%
#4091
1%
#4096
b011111 !
b011001 #
0%
#4101
1%
#4106
b100000 !
b011010 #
0%
#4111
1%
#4116
b100001 !
b011011 #
0%
#4121
1%
#4126
b100010 !
b011100 #
0%
#4131
1%
#4136
b100011 !
b011101 #
0%
#4141
1%
#4146
b100100 !
b011110 #
0%
#4151
1%
#4156
b100101 !
b011111 #
0%
#4161
1%
#4166
b100110 !
b100000 #
0%
#4171
1%
#4176
b100111 !
b100001 #
0%
#4181
1%
#4186
b101000 !
b100010 #
0%
#4191
1%
#4196
b101001 !
b100011 #
0%
#4201
1%
#4206
b101010 !
b100100 #
0%
#4211
1%
#4216
b101011 !
b100101 #
0%
#4221
1%
#4226
b101100 !
b100110 #
0%
#4231
1%
#4236
b101101 !
b100111 #
0%
#4241
1%
#4246
b101110 !
b101000 #
0%
#4251
1%
#4256
b101111 !
b101001 #
0%
#4261
1%
#4266
b110000 !
b101010 #
0%
#4271
1%
#4276
b110001 !
b101011 #
0%
#4281
1%
#4286
b110010 !
b101100 #
0%
#4291
1%
#4296
b110011 !
b101101 #
0%
#4301
1%
#4306
b110100 !
b101110 #
0%
#4311
1%
#4316
b110101 !
b101111 #
0%
#4321
1%
#4326
b110110 !
b110000 #
0%
#4331
1%
#4336
b110111 !
b110001 #
0%
#4341
1%
#4346
b111000 !
b110010 #
0%
#4351
1%
#4356
b111001 !
b110011 #
0%
#4361
1%
#4366
b111010 !
b110100 #
0%
#4371
1%
#4376
b111011 !
b110101 #
0%
#4381
1%
#4386
b111100 !
b110110 #
0%
#4391
1%
#4396
b111101 !
b110111 #
0%
#4401
1%
#4406
b111110 !
b111000 #
0%
#4411
1%
#4416
b111111 !
b111001 #
0%
#4421
1%
#4426
b000000 !
b111010 #
0%
#4431
1%
#4436
b000001 !
b111011 #
0%
#4441
1%
#4446
b000010 !
b111100 #
0%
#4451
1%
#4456
b000011 !
b111101 #
0%
#4461
1%
#4466
b000100 !
b111110 #
0%
#4471
1%
#4476
b000101 !
b111111 #
0%
#4481
1%
#4486
b000111 !
b000111 "
b000000 #
0%
#4491
1%
#4496
b001000 !
b000001 #
0%
#4501
1%
#4506
b001001 !
b000010 #
0%
#4511
1%
#4516
b001010 !
b000011 #
0%
#4521
1%
#4526
b001011 !
b000100 #
0%
#4531
1%
#4536
b001100 !
b000101 #
0%
#4541
1%
#4546
b001101 !
b000110 #
0%
#4551
1%
#4556
b001110 !
b000111 #
0%
#4561
1%
#4566
b001111 !
b001000 #
0%
#4571
1%
#4576
b010000 !
b001001 #
0%
#4581
1%
#4586
b010001 !
b001010 #
0%
#4591
1%
#4596
b010010 !
b001011 #
0%
#4601
1%
#4606
b010011 !
b001100 #
0%
#4611
1%
#4616
b010100 !
b001101 #
0%
#4621
1%
#4626
b010101 !
b001110 #
0%
#4631
1%
#4636
b010110 !
b001111 #
0%
#4641
1%
#4646
b010111 !
b010000 #
0%
#4651
1%
#4656
b011000 !
b010001 #
0%
#4661
1%
#4666
b011001 !
b010010 #
0%
#4671
1%
#4676
b011010 !
b010011 #
0%
#4681
1%
#4686
b011011 !
b010100 #
0%
#4691
1%
#4696
b011100 !
b010101 #
0%
#4701
1%
#4706
b011101 !
b010110 #
0%
#4711
1%
#4716
b011110 !
b010111 #
0%
#4721
1%
#4726
b011111 !
b011000 #
0%
#4731
1%
#4736
b100000 !
b011001 #
0%
#4741
1%
#4746
b100001 !
b011010 #
0%
#4751
1%
#4756
b100010 !
b011011 #
0%
#4761
1%
#4766
b100011 !
b011100 #
0%
#4771
1%
#4776
b100100 !
b011101 #
0%
#4781
1%
#4786
b100101 !
b011110 #
0%
#4791
1%
#4796
b100110 !
b011111 #
0%
#4801
1%
#4806
b100111 !
b100000 #
0%
#4811
1%
#4816
b101000 !
b100001 #
0%
#4821
1%
#4826
b101001 !
b100010 #
0%
#4831
1%
#4836
b101010 !
b100011 #
0%
#4841
1%
#4846
b101011 !
b100100 #
0%
#4851
1%
#4856
b101100 !
b100101 #
0%
#4861
1%
#4866
b101101 !
b100110 #
0%
#4871
1%
#4876
b101110 !
b100111 #
0%
#4881
1%
#4886
b101111 !
b101000 #
0%
#4891
1%
#4896
b110000 !
b101001 #
0%
#4901
1%
#4906
b110001 !
b101010 #
0%
#4911
1%
#4916
b110010 !
b101011 #
0%
#4921
1%
#4926
b110011 !
b101100 #
0%
#4931
1%
#4936
b110100 !
b101101 #
0%
#4941
1%
#4946
b110101 !
b101110 #
0%
#4951
1%
#4956
b110110 !
b101111 #
0%
#4961
1%
#4966
b110111 !
b110000 #
0%
#4971
1%
#4976
b111000 !
b110001 #
0%
#4981
1%
#4986
b111001 !
b110010 #
0%
#4991
1%
#4996
b111010 !
b110011 #
0%
#5001
1%
#5006
b111011 !
b110100 #
0%
#5011
1%
#5016
b111100 !
b110101 #
0%
#5021
1%
#5026
b111101 !
b110110 #
0%
#5031
1%
#5036
b111110 !
b110111 #
0%
#5041
1%
#5046
b111111 !
b111000 #
0%
#5051
1%
#5056
b000000 !
b111001 #
0%
#5061
1%
#5066
b000001 !
b111010 #
0%
#5071
1%
#5076
b000010 !
b111011 #
0%
#5081
1%
#5086
b000011 !
b111100 #
0%
#5091
1%
#5096
b000100 !
b111101 #
0%
#5101
1%
#5106
b000101 !
b111110 #
0%
#5111
1%
#5116
b000110 !
b111111 #
0%
#5121
1%
#5126
b001000 !
b001000 "
b000000 #
0%
#5131
1%
#5136
b001001 !
b000001 #
0%
#5141
1%
#5146
b001010 !
b000010 #
0%
#5151
1%
#5156
b001011 !
b000011 #
0%
#5161
1%
#5166
b001100 !
b000100 #
0%
#5171
1%
#5176
b001101 !
b000101 #
0%
#5181
1%
#5186
b001110 !
b000110 #
0%
#5191
1%
#5196
b001111 !
b000111 #
0%
#5201
1%
#5206
b010000 !
b001000 #
0%
#5211
1%
#5216
b010001 !
b001001 #
0%
#5221
1%
#5226
b010010 !
b001010 #
0%
#5231
1%
#5236
b010011 !
b001011 #
0%
#5241
1%
#5246
b010100 !
b001100 #
0%
#5251
1%
#5256
b010101 !
b001101 #
0%
#5261
1%
#5266
b010110 !
b001110 #
0%
#5271
1%
#5276
b010111 !
b001111 #
0%
#5281
1%
#5286
b011000 !
b010000 #
0%
#5291
1%
#5296
b011001 !
b010001 #
0%
#5301
1%
#5306
b011010 !
b010010 #
0%
#5311
1%
#5316
b011011 !
b010011 #
0%
#5321
1%
#5326
b011100 !
b010100 #
0%
#5331
1%
#5336
b011101 !
b010101 #
0%
#5341
1%
#5346
b011110 !
b010110 #
0%
#5351
1%
#5356
b011111 !
b010111 #
0%
#5361
1%
#5366
b100000 !
b011000 #
0%
#5371
1%
#5376
b100001 !
b011001 #
0%
#5381
1%
#5386
b100010 !
b011010 #
0%
#5391
1%
#5396
b100011 !
b011011 #
0%
#5401
1%
#5406
b100100 !
b011100 #
0%
#5411
1%
#5416
b100101 !
b011101 #
0%
#5421
1%
#5426
b100110 !
b011110 #
0%
#5431
1%
#5436
b100111 !
b011111 #
0%
#5441
1%
#5446
b101000 !
b100000 #
0%
#5451
1%
#5456
b101001 !
b100001 #
0%
#5461
1%
#5466
b101010 !
b100010 #
0%
#5471
1%
#5476
b101011 !
b100011 #
0%
#5481
1%
#5486
b101100 !
b100100 #
0%
#5491
1%
#5496
b101101 !
b100101 #
0%
#5501
1%
#5506
b101110 !
b100110 #
0%
#5511
1%
#5516
b101111 !
b100111 #
0%
#5521
1%
#5526
b110000 !
b101000 #
0%
#5531
1%
#5536
b110001 !
b101001 #
0%
#5541
1%
#5546
b110010 !
b101010 #
0%
#5551
1%
#5556
b110011 !
b101011 #
0%
#5561
1%
#5566
b110100 !
b101100 #
0%
#5571
1%
#5576
b110101 !
b101101 #
0%
#5581
1%
#5586
b110110 !
b101110 #
0%
#5591
1%
#5596
b110111 !
b101111 #
0%
#5601
1%
#5606
b111000 !
b110000 #
0%
#5611
1%
#5616
b111001 !
b110001 #
0%
#5621
1%
#5626
b111010 !
b110010 #
0%
#5631
1%
#5636
b111011 !
b110011 #
0%
#5641
1%
#5646
b111100 !
b110100 #
0%
#5651
1%
#5656
b111101 !
b110101 #
0%
#5661
1%
#5666
b111110 !
b110110 #
0%
#5671
1%
#5676
b111111 !
b110111 #
0%
#5681
1%
#5686
b000000 !
b111000 #
0%
#5691
1%
#5696
b000001 !
b111001 #
0%
#5701
1%
#5706
b000010 !
b111010 #
0%
#5711
1%
#5716
b000011 !
b111011 #
0%
#5721
1%
#5726
b000100 !
b111100 #
0%
#5731
1%
