test_run_dir/FP4Adder_should_compute_correct_results_with_pipeline_latency/FP4Adder.vcd
$date
2025-07-25T01:18+0000
$end
$version
0.2
$end
$comment

$end
$timescale 1ns  $end
$scope module FP4Adder $end
 $var wire 3 ! normExp $end
 $var wire 2 " manA $end
 $var wire 2 # manB $end
 $var wire 3 $ expDiff $end
 $var wire 3 % manB_ext $end
 $var wire 1 & reset $end
 $var wire 6 ' sumRaw $end
 $var wire 6 ( result $end
 $var wire 3 ) finalMan $end
 $var wire 5 * normalizedSum $end
 $var wire 5 + alignedManA $end
 $var wire 1 , lzc $end
 $var wire 5 - alignedManB $end
 $var wire 4 . pipeRegs_2 $end
 $var wire 3 / manA_ext $end
 $var wire 4 0 pipeRegs_1 $end
 $var wire 4 1 pipeRegs_0 $end
 $var wire 1 2 clock $end
 $var wire 4 4 io_b $end
 $var wire 4 5 io_a $end
 $var wire 4 6 io_out $end
 $var wire 2 7 expB $end
 $var wire 2 8 expA $end
 $var wire 3 : outExp $end
  $scope module lzc $end
   $var wire 3 3 io_out $end
   $var wire 6 9 io_in $end
  $upscope $end
$upscope $end
$enddefinitions $end
$dumpvars
b00 8
02
b00 7
b000000 9
b000000 '
b000000 (
b000 3
b00000 +
b00000 *
b00000 -
b000 :
b00 #
b00 "
b000 )
b000 %
b000 $
b000 /
b0000 4
b0000 5
b0000 0
b0000 1
b0000 .
0&
b000 !
0,
b0000 6
$end
#0
b001 !
b100 %
1&
b100000 '
b001100 (
b100 )
b10000 *
b10000 +
b10000 -
b100 /
b001 3
b011111 9
b001 :
#1
12
#6
02
1&
#11
12
#16
b111 !
b11 #
b001 $
b111 %
0&
b011110 '
b000111 (
b111 )
b11110 *
b01110 -
02
b000 3
b1011 4
b1100 5
b10 7
b11 8
b100001 9
b000 :
#21
b0111 1
12
#26
b110 !
b01 "
b10 #
b010 $
b110 %
b011010 '
b000110 (
b110 )
b11010 *
b10100 +
b00110 -
b101 /
02
b0010 4
b1001 5
b00 7
b10 8
b100101 9
#31
b0111 0
b0110 1
12
#36
b111 !
b10 "
b01 #
b011 $
b101 %
b11000 +
b00010 -
b110 /
02
b0001 4
b1110 5
b11 8
#41
b0110 0
12
b0111 6
b0111 .
#46
b00 "
b10 #
b000 $
b110 %
b101000 '
b000101 (
b101 )
b10100 *
b10000 +
b11000 -
b100 /
02
b001 3
b1010 4
b1000 5
b10 7
b10 8
b010111 9
#51
b0101 1
12
b0110 6
b0110 .
