test_run_dir/FP6Subtractor_pipeline_depth__7_should_correctly_subtract_all_FP6_input_combinations_with_pd__7/FP4Subtractor.vcd
$date
2025-07-24T17:50+0000
$end
$version
0.2
$end
$comment

$end
$timescale 1ns  $end
$scope module FP4Subtractor $end
 $var wire 5 ! diff_abs $end
 $var wire 1 " a_bigger $end
 $var wire 3 # shifted_man $end
 $var wire 1 $ io_out_valid $end
 $var wire 3 % adjusted_exp $end
 $var wire 5 & aligned_b $end
 $var wire 3 ' norm_man $end
 $var wire 5 ( aligned_a $end
 $var wire 1 ) reset $end
 $var wire 5 * aligned_b_sint $end
 $var wire 1 + io_in_valid $end
 $var wire 5 , result $end
 $var wire 2 - norm_exp $end
 $var wire 2 . b_exp $end
 $var wire 3 / man $end
 $var wire 4 0 a_full $end
 $var wire 3 1 adjusted_exp_raw $end
 $var wire 1 2 valid_0 $end
 $var wire 1 3 valid_1 $end
 $var wire 1 4 valid_2 $end
 $var wire 1 5 valid_3 $end
 $var wire 1 6 valid_4 $end
 $var wire 1 7 valid_5 $end
 $var wire 1 8 valid_6 $end
 $var wire 3 9 leading_zeros $end
 $var wire 2 : aligned_exp $end
 $var wire 3 ; man_1 $end
 $var wire 1 < clock $end
 $var wire 2 = exp_diff $end
 $var wire 6 > io_b $end
 $var wire 6 ? io_a $end
 $var wire 2 @ a_exp $end
 $var wire 6 A io_out $end
 $var wire 5 B diff_full $end
 $var wire 6 C stage_0 $end
 $var wire 6 D stage_5 $end
 $var wire 6 E stage_6 $end
 $var wire 6 F stage_3 $end
 $var wire 6 G stage_4 $end
 $var wire 6 H stage_1 $end
 $var wire 6 I stage_2 $end
 $var wire 4 J b_full $end
 $var wire 1 K io_in_en $end
 $var wire 5 L aligned_a_sint $end
$upscope $end
$enddefinitions $end
$dumpvars
02
03
04
b00 =
05
06
07
b00 :
08
b0000 J
b00 .
0<
b00000 !
b000 9
b00 -
b00000 &
b00000 (
b00000 *
0K
b00000 ,
b000 ;
b000 '
b000 #
b000 %
b000 /
b000 1
b000000 G
b00000 B
b000000 F
0"
b000000 I
b000000 H
b0000 0
0$
b000000 ?
0)
b00 @
b000000 >
b000000 A
0+
b00000 L
b000000 C
b000000 E
b000000 D
$end
#0
b1000 0
b100 1
1"
b01000 &
b01000 (
1)
b100 9
b01000 *
b1000 J
b01000 L
#1
1<
#6
0)
1+
1K
0<
#11
12
1<
#16
b00001 !
b11111 B
b01001 &
b01001 *
b1001 J
b001 ;
0<
b000001 >
#21
13
1<
#26
b00010 !
b101 1
b11110 B
b01010 &
b011 9
b01010 *
b1010 J
b010 ;
0<
b000010 >
#31
14
1<
#36
b00011 !
b11101 B
b100 #
b01011 &
b100 '
b01011 *
b1011 J
b011 ;
b00100 ,
0<
b000011 >
#41
b000100 C
15
1<
#46
b00100 !
b11100 B
b000 #
b01100 &
b000 '
b01100 *
b1100 J
b00000 ,
b110 1
b010 9
b100 ;
0<
b000100 >
#51
b000000 C
16
b000100 H
1<
#56
b00101 !
b11011 B
b010 #
b01101 &
b010 '
b01101 *
b1101 J
b101 ;
b00010 ,
0<
b000101 >
#61
b000010 C
17
b000000 H
b000100 I
1<
#66
b00110 !
b11010 B
b100 #
b01110 &
b100 '
b01110 *
b1110 J
b110 ;
b00100 ,
0<
b000110 >
#71
b000100 C
1$
b000100 F
18
b000010 H
b000000 I
1<
#76
b00111 !
b11001 B
b110 #
b01111 &
b110 '
b01111 *
b1111 J
b111 ;
b00110 ,
0<
b000111 >
#81
b000110 C
b000000 F
b000100 G
b000100 H
b000010 I
1<
#86
b00100 !
0"
b11100 B
b000 #
b01000 &
b000 '
b00100 (
b01000 *
b1000 J
b00000 ,
b00100 L
b01 .
b111 1
b01 :
b000 ;
0<
b01 =
b001000 >
#91
b000000 C
b000100 D
b000010 F
b000000 G
b000110 H
b000100 I
1<
#96
b00101 !
b11011 B
b010 #
b01001 &
b010 '
b01001 *
b1001 J
b001 ;
b00010 ,
0<
b001001 >
#101
b000100 A
b000010 C
b000000 D
b000100 E
b000100 F
b000010 G
b000000 H
b000110 I
1<
#106
b00110 !
b11010 B
b100 #
b01010 &
b100 '
b01010 *
b1010 J
b010 ;
b00100 ,
0<
b001010 >
#111
b000000 A
b000100 C
b000010 D
b000000 E
b000110 F
b000100 G
b000010 H
b000000 I
1<
#116
b00111 !
b11001 B
b110 #
b01011 &
b110 '
b01011 *
b1011 J
b011 ;
b00110 ,
0<
b001011 >
#121
b000010 A
b000110 C
b000100 D
b000010 E
b000000 F
b000110 G
b000100 H
b000010 I
1<
#126
b01000 !
b11000 B
b000 #
b01100 &
b000 '
b01100 *
b1100 J
b00000 ,
b000 1
b001 9
b100 ;
0<
b001100 >
#131
b000100 A
b000000 C
b000110 D
b000100 E
b000010 F
b000000 G
b000110 H
b000100 I
1<
#136
b01001 !
b10111 B
b001 #
b01101 &
b001 '
b01101 *
b1101 J
b101 ;
b00001 ,
0<
b001101 >
#141
b000110 A
b000001 C
b000000 D
b000110 E
b000100 F
b000010 G
b000000 H
b000110 I
1<
#146
b01010 !
b10110 B
b010 #
b01110 &
b010 '
b01110 *
b1110 J
b110 ;
b00010 ,
0<
b001110 >
#151
b000000 A
b000010 C
b000010 D
b000000 E
b000110 F
b000100 G
b000001 H
b000000 I
1<
#156
b01011 !
b10101 B
b011 #
b01111 &
b011 '
b01111 *
b1111 J
b111 ;
b00011 ,
0<
b001111 >
#161
b000010 A
b000011 C
b000100 D
b000010 E
b000000 F
b000110 G
b000010 H
b000001 I
1<
#166
b00110 !
b11010 B
b100 #
b01000 &
b100 '
b00010 (
b01000 *
b1000 J
b00100 ,
b00010 L
b10 .
b100 1
b010 9
b10 :
b000 ;
0<
b10 =
b010000 >
#171
b000100 A
b000100 C
b000110 D
b000100 E
b000001 F
b000000 G
b000011 H
b000010 I
1<
#176
b00111 !
b11001 B
b110 #
b01001 &
b110 '
b01001 *
b1001 J
b001 ;
b00110 ,
0<
b010001 >
#181
b000110 A
b000110 C
b000000 D
b000110 E
b000010 F
b000001 G
b000100 H
b000011 I
1<
#186
b01000 !
b11000 B
b000 #
b01010 &
b000 '
b01010 *
b1010 J
b00000 ,
b101 1
b001 9
b010 ;
0<
b010010 >
#191
b000000 A
b000000 C
b000001 D
b000000 E
b000011 F
b000010 G
b000110 H
b000100 I
1<
#196
b01001 !
b10111 B
b001 #
b01011 &
b001 '
b01011 *
b1011 J
b011 ;
b00001 ,
0<
b010011 >
#201
b000001 A
b000001 C
b000010 D
b000001 E
b000100 F
b000011 G
b000000 H
b000110 I
1<
#206
b01010 !
b10110 B
b010 #
b01100 &
b010 '
b01100 *
b1100 J
b100 ;
b00010 ,
0<
b010100 >
#211
b000010 A
b000010 C
b000011 D
b000010 E
b000110 F
b000100 G
b000001 H
b000000 I
1<
#216
b01011 !
b10101 B
b011 #
b01101 &
b011 '
b01101 *
b1101 J
b101 ;
b00011 ,
0<
b010101 >
#221
b000011 A
b000011 C
b000100 D
b000011 E
b000000 F
b000110 G
b000010 H
b000001 I
1<
#226
b01100 !
b10100 B
b100 #
b01110 &
b100 '
b01110 *
b1110 J
b110 ;
b00100 ,
0<
b010110 >
#231
b000100 A
b000100 C
b000110 D
b000100 E
b000001 F
b000000 G
b000011 H
b000010 I
1<
#236
b01101 !
b10011 B
b101 #
b01111 &
b101 '
b01111 *
b1111 J
b111 ;
b00101 ,
0<
b010111 >
#241
b000110 A
b000101 C
b000000 D
b000110 E
b000010 F
b000001 G
b000100 H
b000011 I
1<
#246
b00111 !
b11001 B
b110 #
b01000 &
b110 '
b00001 (
b01000 *
b1000 J
b00110 ,
b00001 L
b11 .
b010 9
b11 :
b000 ;
0<
b11 =
b011000 >
#251
b000000 A
b000110 C
b000001 D
b000000 E
b000011 F
b000010 G
b000101 H
b000100 I
1<
#256
b01000 !
b11000 B
b000 #
b01001 &
b000 '
b01001 *
b1001 J
b00000 ,
b110 1
b001 9
b001 ;
0<
b011001 >
#261
b000001 A
b000000 C
b000010 D
b000001 E
b000100 F
b000011 G
b000110 H
b000101 I
1<
#266
b01001 !
b10111 B
b001 #
b01010 &
b001 '
b01010 *
b1010 J
b010 ;
b00001 ,
0<
b011010 >
#271
b000010 A
b000001 C
b000011 D
b000010 E
b000101 F
b000100 G
b000000 H
b000110 I
1<
#276
b01010 !
b10110 B
b010 #
b01011 &
b010 '
b01011 *
b1011 J
b011 ;
b00010 ,
0<
b011011 >
#281
b000011 A
b000010 C
b000100 D
b000011 E
b000110 F
b000101 G
b000001 H
b000000 I
1<
#286
b01011 !
b10101 B
b011 #
b01100 &
b011 '
b01100 *
b1100 J
b100 ;
b00011 ,
0<
b011100 >
#291
b000100 A
b000011 C
b000101 D
b000100 E
b000000 F
b000110 G
b000010 H
b000001 I
1<
#296
b01100 !
b10100 B
b100 #
b01101 &
b100 '
b01101 *
b1101 J
b101 ;
b00100 ,
0<
b011101 >
#301
b000101 A
b000100 C
b000110 D
b000101 E
b000001 F
b000000 G
b000011 H
b000010 I
1<
#306
b01101 !
b10011 B
b101 #
b01110 &
b101 '
b01110 *
b1110 J
b110 ;
b00101 ,
0<
b011110 >
#311
b000110 A
b000101 C
b000000 D
b000110 E
b000010 F
b000001 G
b000100 H
b000011 I
1<
#316
b01110 !
b10010 B
b110 #
b01111 &
b110 '
b01111 *
b1111 J
b111 ;
b00110 ,
0<
b011111 >
#321
b000000 A
b000110 C
b000001 D
b000000 E
b000011 F
b000010 G
b000101 H
b000100 I
1<
#326
b00000 !
1"
b00000 B
b000 #
b01000 &
b000 '
b01000 (
b01000 *
b1000 J
b00000 ,
b01000 L
b00 .
b100 1
b100 9
b00 :
b000 ;
0<
b00 =
b100000 >
#331
b000001 A
b000000 C
b000010 D
b000001 E
b000100 F
b000011 G
b000110 H
b000101 I
1<
#336
b00001 !
b11111 B
b01001 &
b01001 *
b1001 J
b001 ;
0<
b100001 >
#341
b000010 A
b000011 D
b000010 E
b000101 F
b000100 G
b000000 H
b000110 I
1<
#346
b00010 !
b101 1
b11110 B
b01010 &
b011 9
b01010 *
b1010 J
b010 ;
0<
b100010 >
#351
b000011 A
b000100 D
b000011 E
b000110 F
b000101 G
b000000 I
1<
#356
b00011 !
b11101 B
b100 #
b01011 &
b100 '
b01011 *
b1011 J
b011 ;
b00100 ,
0<
b100011 >
#361
b000100 A
b000100 C
b000101 D
b000100 E
b000000 F
b000110 G
1<
#366
b00100 !
b11100 B
b000 #
b01100 &
b000 '
b01100 *
b1100 J
b00000 ,
b110 1
b010 9
b100 ;
0<
b100100 >
#371
b000101 A
b000000 C
b000110 D
b000101 E
b000000 G
b000100 H
1<
#376
b00101 !
b11011 B
b010 #
b01101 &
b010 '
b01101 *
b1101 J
b101 ;
b00010 ,
0<
b100101 >
#381
b000110 A
b000010 C
b000000 D
b000110 E
b000000 H
b000100 I
1<
#386
b00110 !
b11010 B
b100 #
b01110 &
b100 '
b01110 *
b1110 J
b110 ;
b00100 ,
0<
b100110 >
#391
b000000 A
b000100 C
b000000 E
b000100 F
b000010 H
b000000 I
1<
#396
b00111 !
b11001 B
b110 #
b01111 &
b110 '
b01111 *
b1111 J
b111 ;
b00110 ,
0<
b100111 >
#401
b000110 C
b000000 F
b000100 G
b000100 H
b000010 I
1<
#406
b00100 !
0"
b11100 B
b000 #
b01000 &
b000 '
b00100 (
b01000 *
b1000 J
b00000 ,
b00100 L
b01 .
b111 1
b01 :
b000 ;
0<
b01 =
b101000 >
#411
b000000 C
b000100 D
b000010 F
b000000 G
b000110 H
b000100 I
1<
#416
b00101 !
b11011 B
b010 #
b01001 &
b010 '
b01001 *
b1001 J
b001 ;
b00010 ,
0<
b101001 >
#421
b000100 A
b000010 C
b000000 D
b000100 E
b000100 F
b000010 G
b000000 H
b000110 I
1<
#426
b00110 !
b11010 B
b100 #
b01010 &
b100 '
b01010 *
b1010 J
b010 ;
b00100 ,
0<
b101010 >
#431
b000000 A
b000100 C
b000010 D
b000000 E
b000110 F
b000100 G
b000010 H
b000000 I
1<
#436
b00111 !
b11001 B
b110 #
b01011 &
b110 '
b01011 *
b1011 J
b011 ;
b00110 ,
0<
b101011 >
#441
b000010 A
b000110 C
b000100 D
b000010 E
b000000 F
b000110 G
b000100 H
b000010 I
1<
#446
b01000 !
b11000 B
b000 #
b01100 &
b000 '
b01100 *
b1100 J
b00000 ,
b000 1
b001 9
b100 ;
0<
b101100 >
#451
b000100 A
b000000 C
b000110 D
b000100 E
b000010 F
b000000 G
b000110 H
b000100 I
1<
#456
b01001 !
b10111 B
b001 #
b01101 &
b001 '
b01101 *
b1101 J
b101 ;
b00001 ,
0<
b101101 >
#461
b000110 A
b000001 C
b000000 D
b000110 E
b000100 F
b000010 G
b000000 H
b000110 I
1<
#466
b01010 !
b10110 B
b010 #
b01110 &
b010 '
b01110 *
b1110 J
b110 ;
b00010 ,
0<
b101110 >
#471
b000000 A
b000010 C
b000010 D
b000000 E
b000110 F
b000100 G
b000001 H
b000000 I
1<
#476
b01011 !
b10101 B
b011 #
b01111 &
b011 '
b01111 *
b1111 J
b111 ;
b00011 ,
0<
b101111 >
#481
b000010 A
b000011 C
b000100 D
b000010 E
b000000 F
b000110 G
b000010 H
b000001 I
1<
#486
b00110 !
b11010 B
b100 #
b01000 &
b100 '
b00010 (
b01000 *
b1000 J
b00100 ,
b00010 L
b10 .
b100 1
b010 9
b10 :
b000 ;
0<
b10 =
b110000 >
#491
b000100 A
b000100 C
b000110 D
b000100 E
b000001 F
b000000 G
b000011 H
b000010 I
1<
#496
b00111 !
b11001 B
b110 #
b01001 &
b110 '
b01001 *
b1001 J
b001 ;
b00110 ,
0<
b110001 >
#501
b000110 A
b000110 C
b000000 D
b000110 E
b000010 F
b000001 G
b000100 H
b000011 I
1<
#506
b01000 !
b11000 B
b000 #
b01010 &
b000 '
b01010 *
b1010 J
b00000 ,
b101 1
b001 9
b010 ;
0<
b110010 >
#511
b000000 A
b000000 C
b000001 D
b000000 E
b000011 F
b000010 G
b000110 H
b000100 I
1<
#516
b01001 !
b10111 B
b001 #
b01011 &
b001 '
b01011 *
b1011 J
b011 ;
b00001 ,
0<
b110011 >
#521
b000001 A
b000001 C
b000010 D
b000001 E
b000100 F
b000011 G
b000000 H
b000110 I
1<
#526
b01010 !
b10110 B
b010 #
b01100 &
b010 '
b01100 *
b1100 J
b100 ;
b00010 ,
0<
b110100 >
#531
b000010 A
b000010 C
b000011 D
b000010 E
b000110 F
b000100 G
b000001 H
b000000 I
1<
#536
b01011 !
b10101 B
b011 #
b01101 &
b011 '
b01101 *
b1101 J
b101 ;
b00011 ,
0<
b110101 >
#541
b000011 A
b000011 C
b000100 D
b000011 E
b000000 F
b000110 G
b000010 H
b000001 I
1<
#546
b01100 !
b10100 B
b100 #
b01110 &
b100 '
b01110 *
b1110 J
b110 ;
b00100 ,
0<
b110110 >
#551
b000100 A
b000100 C
b000110 D
b000100 E
b000001 F
b000000 G
b000011 H
b000010 I
1<
#556
b01101 !
b10011 B
b101 #
b01111 &
b101 '
b01111 *
b1111 J
b111 ;
b00101 ,
0<
b110111 >
#561
b000110 A
b000101 C
b000000 D
b000110 E
b000010 F
b000001 G
b000100 H
b000011 I
1<
#566
b00111 !
b11001 B
b110 #
b01000 &
b110 '
b00001 (
b01000 *
b1000 J
b00110 ,
b00001 L
b11 .
b010 9
b11 :
b000 ;
0<
b11 =
b111000 >
#571
b000000 A
b000110 C
b000001 D
b000000 E
b000011 F
b000010 G
b000101 H
b000100 I
1<
#576
b01000 !
b11000 B
b000 #
b01001 &
b000 '
b01001 *
b1001 J
b00000 ,
b110 1
b001 9
b001 ;
0<
b111001 >
#581
b000001 A
b000000 C
b000010 D
b000001 E
b000100 F
b000011 G
b000110 H
b000101 I
1<
#586
b01001 !
b10111 B
b001 #
b01010 &
b001 '
b01010 *
b1010 J
b010 ;
b00001 ,
0<
b111010 >
#591
b000010 A
b000001 C
b000011 D
b000010 E
b000101 F
b000100 G
b000000 H
b000110 I
1<
#596
b01010 !
b10110 B
b010 #
b01011 &
b010 '
b01011 *
b1011 J
b011 ;
b00010 ,
0<
b111011 >
#601
b000011 A
b000010 C
b000100 D
b000011 E
b000110 F
b000101 G
b000001 H
b000000 I
1<
#606
b01011 !
b10101 B
b011 #
b01100 &
b011 '
b01100 *
b1100 J
b100 ;
b00011 ,
0<
b111100 >
#611
b000100 A
b000011 C
b000101 D
b000100 E
b000000 F
b000110 G
b000010 H
b000001 I
1<
#616
b01100 !
b10100 B
b100 #
b01101 &
b100 '
b01101 *
b1101 J
b101 ;
b00100 ,
0<
b111101 >
#621
b000101 A
b000100 C
b000110 D
b000101 E
b000001 F
b000000 G
b000011 H
b000010 I
1<
#626
b01101 !
b10011 B
b101 #
b01110 &
b101 '
b01110 *
b1110 J
b110 ;
b00101 ,
0<
b111110 >
#631
b000110 A
b000101 C
b000000 D
b000110 E
b000010 F
b000001 G
b000100 H
b000011 I
1<
#636
b01110 !
b10010 B
b110 #
b01111 &
b110 '
b01111 *
b1111 J
b111 ;
b00110 ,
0<
b111111 >
#641
b000000 A
b000110 C
b000001 D
b000000 E
b000011 F
b000010 G
b000101 H
b000100 I
1<
#646
b00001 !
1"
b00001 B
b000 #
b01000 &
b000 '
b01001 (
b01000 *
b1000 J
b00000 ,
b01001 L
b00 .
b001 /
b1001 0
b100 1
b100 9
b00 :
b000 ;
0<
b00 =
b000000 >
b000001 ?
#651
b000001 A
b000000 C
b000010 D
b000001 E
b000100 F
b000011 G
b000110 H
b000101 I
1<
#656
b00000 !
b00000 B
b01001 &
b01001 *
b1001 J
b001 ;
0<
b000001 >
#661
b000010 A
b000011 D
b000010 E
b000101 F
b000100 G
b000000 H
b000110 I
1<
#666
b00001 !
b11111 B
b01010 &
b01010 *
b1010 J
b010 ;
0<
b000010 >
#671
b000011 A
b000100 D
b000011 E
b000110 F
b000101 G
b000000 I
1<
#676
b00010 !
b101 1
b11110 B
b01011 &
b011 9
b01011 *
b1011 J
b011 ;
0<
b000011 >
#681
b000100 A
b000101 D
b000100 E
b000000 F
b000110 G
1<
#686
b00011 !
b11101 B
b100 #
b01100 &
b100 '
b01100 *
b1100 J
b100 ;
b00100 ,
0<
b000100 >
#691
b000101 A
b000100 C
b000110 D
b000101 E
b000000 G
1<
#696
b00100 !
b11100 B
b000 #
b01101 &
b000 '
b01101 *
b1101 J
b00000 ,
b110 1
b010 9
b101 ;
0<
b000101 >
#701
b000110 A
b000000 C
b000000 D
b000110 E
b000100 H
1<
#706
b00101 !
b11011 B
b010 #
b01110 &
b010 '
b01110 *
b1110 J
b110 ;
b00010 ,
0<
b000110 >
#711
b000000 A
b000010 C
b000000 E
b000000 H
b000100 I
1<
#716
b00110 !
b11010 B
b100 #
b01111 &
b100 '
b01111 *
b1111 J
b111 ;
b00100 ,
0<
b000111 >
#721
b000100 C
b000100 F
b000010 H
b000000 I
1<
#726
b00100 !
0"
b11100 B
b000 #
b01000 &
b000 '
b00100 (
b01000 *
b1000 J
b00000 ,
b00100 L
b01 .
b111 1
b01 :
b000 ;
0<
b01 =
b001000 >
#731
b000000 C
b000000 F
b000100 G
b000100 H
b000010 I
1<
#736
b00101 !
b11011 B
b010 #
b01001 &
b010 '
b01001 *
b1001 J
b001 ;
b00010 ,
0<
b001001 >
#741
b000010 C
b000100 D
b000010 F
b000000 G
b000000 H
b000100 I
1<
#746
b00110 !
b11010 B
b100 #
b01010 &
b100 '
b01010 *
b1010 J
b010 ;
b00100 ,
0<
b001010 >
#751
b000100 A
b000100 C
b000000 D
b000100 E
b000100 F
b000010 G
b000010 H
b000000 I
1<
#756
b00111 !
b11001 B
b110 #
b01011 &
b110 '
b01011 *
b1011 J
b011 ;
b00110 ,
0<
b001011 >
#761
b000000 A
b000110 C
b000010 D
b000000 E
b000000 F
b000100 G
b000100 H
b000010 I
1<
#766
b01000 !
b11000 B
b000 #
b01100 &
b000 '
b01100 *
b1100 J
b00000 ,
b000 1
b001 9
b100 ;
0<
b001100 >
#771
b000010 A
b000000 C
b000100 D
b000010 E
b000010 F
b000000 G
b000110 H
b000100 I
1<
#776
b01001 !
b10111 B
b001 #
b01101 &
b001 '
b01101 *
b1101 J
b101 ;
b00001 ,
0<
b001101 >
#781
b000100 A
b000001 C
b000000 D
b000100 E
b000100 F
b000010 G
b000000 H
b000110 I
1<
#786
b01010 !
b10110 B
b010 #
b01110 &
b010 '
b01110 *
b1110 J
b110 ;
b00010 ,
0<
b001110 >
#791
b000000 A
b000010 C
b000010 D
b000000 E
b000110 F
b000100 G
b000001 H
b000000 I
1<
#796
b01011 !
b10101 B
b011 #
b01111 &
b011 '
b01111 *
b1111 J
b111 ;
b00011 ,
0<
b001111 >
#801
b000010 A
b000011 C
b000100 D
b000010 E
b000000 F
b000110 G
b000010 H
b000001 I
1<
#806
b00110 !
b11010 B
b100 #
b01000 &
b100 '
b00010 (
b01000 *
b1000 J
b00100 ,
b00010 L
b10 .
b100 1
b010 9
b10 :
b000 ;
0<
b10 =
b010000 >
#811
b000100 A
b000100 C
b000110 D
b000100 E
b000001 F
b000000 G
b000011 H
b000010 I
1<
#816
b00111 !
b11001 B
b110 #
b01001 &
b110 '
b01001 *
b1001 J
b001 ;
b00110 ,
0<
b010001 >
#821
b000110 A
b000110 C
b000000 D
b000110 E
b000010 F
b000001 G
b000100 H
b000011 I
1<
#826
b01000 !
b11000 B
b000 #
b01010 &
b000 '
b01010 *
b1010 J
b00000 ,
b101 1
b001 9
b010 ;
0<
b010010 >
#831
b000000 A
b000000 C
b000001 D
b000000 E
b000011 F
b000010 G
b000110 H
b000100 I
1<
#836
b01001 !
b10111 B
b001 #
b01011 &
b001 '
b01011 *
b1011 J
b011 ;
b00001 ,
0<
b010011 >
#841
b000001 A
b000001 C
b000010 D
b000001 E
b000100 F
b000011 G
b000000 H
b000110 I
1<
#846
b01010 !
b10110 B
b010 #
b01100 &
b010 '
b01100 *
b1100 J
b100 ;
b00010 ,
0<
b010100 >
#851
b000010 A
b000010 C
b000011 D
b000010 E
b000110 F
b000100 G
b000001 H
b000000 I
1<
#856
b01011 !
b10101 B
b011 #
b01101 &
b011 '
b01101 *
b1101 J
b101 ;
b00011 ,
0<
b010101 >
#861
b000011 A
b000011 C
b000100 D
b000011 E
b000000 F
b000110 G
b000010 H
b000001 I
1<
#866
b01100 !
b10100 B
b100 #
b01110 &
b100 '
b01110 *
b1110 J
b110 ;
b00100 ,
0<
b010110 >
#871
b000100 A
b000100 C
b000110 D
b000100 E
b000001 F
b000000 G
b000011 H
b000010 I
1<
#876
b01101 !
b10011 B
b101 #
b01111 &
b101 '
b01111 *
b1111 J
b111 ;
b00101 ,
0<
b010111 >
#881
b000110 A
b000101 C
b000000 D
b000110 E
b000010 F
b000001 G
b000100 H
b000011 I
1<
#886
b00111 !
b11001 B
b110 #
b01000 &
b110 '
b00001 (
b01000 *
b1000 J
b00110 ,
b00001 L
b11 .
b010 9
b11 :
b000 ;
0<
b11 =
b011000 >
#891
b000000 A
b000110 C
b000001 D
b000000 E
b000011 F
b000010 G
b000101 H
b000100 I
1<
#896
b01000 !
b11000 B
b000 #
b01001 &
b000 '
b01001 *
b1001 J
b00000 ,
b110 1
b001 9
b001 ;
0<
b011001 >
#901
b000001 A
b000000 C
b000010 D
b000001 E
b000100 F
b000011 G
b000110 H
b000101 I
1<
#906
b01001 !
b10111 B
b001 #
b01010 &
b001 '
b01010 *
b1010 J
b010 ;
b00001 ,
0<
b011010 >
#911
b000010 A
b000001 C
b000011 D
b000010 E
b000101 F
b000100 G
b000000 H
b000110 I
1<
#916
b01010 !
b10110 B
b010 #
b01011 &
b010 '
b01011 *
b1011 J
b011 ;
b00010 ,
0<
b011011 >
#921
b000011 A
b000010 C
b000100 D
b000011 E
b000110 F
b000101 G
b000001 H
b000000 I
1<
#926
b01011 !
b10101 B
b011 #
b01100 &
b011 '
b01100 *
b1100 J
b100 ;
b00011 ,
0<
b011100 >
#931
b000100 A
b000011 C
b000101 D
b000100 E
b000000 F
b000110 G
b000010 H
b000001 I
1<
#936
b01100 !
b10100 B
b100 #
b01101 &
b100 '
b01101 *
b1101 J
b101 ;
b00100 ,
0<
b011101 >
#941
b000101 A
b000100 C
b000110 D
b000101 E
b000001 F
b000000 G
b000011 H
b000010 I
1<
#946
b01101 !
b10011 B
b101 #
b01110 &
b101 '
b01110 *
b1110 J
b110 ;
b00101 ,
0<
b011110 >
#951
b000110 A
b000101 C
b000000 D
b000110 E
b000010 F
b000001 G
b000100 H
b000011 I
1<
#956
b01110 !
b10010 B
b110 #
b01111 &
b110 '
b01111 *
b1111 J
b111 ;
b00110 ,
0<
b011111 >
#961
b000000 A
b000110 C
b000001 D
b000000 E
b000011 F
b000010 G
b000101 H
b000100 I
1<
#966
b00001 !
1"
b00001 B
b000 #
b01000 &
b000 '
b01001 (
b01000 *
b1000 J
b00000 ,
b01001 L
b00 .
b100 1
b100 9
b00 :
b000 ;
0<
b00 =
b100000 >
#971
b000001 A
b000000 C
b000010 D
b000001 E
b000100 F
b000011 G
b000110 H
b000101 I
1<
#976
b00000 !
b00000 B
b01001 &
b01001 *
b1001 J
b001 ;
0<
b100001 >
#981
b000010 A
b000011 D
b000010 E
b000101 F
b000100 G
b000000 H
b000110 I
1<
#986
b00001 !
b11111 B
b01010 &
b01010 *
b1010 J
b010 ;
0<
b100010 >
#991
b000011 A
b000100 D
b000011 E
b000110 F
b000101 G
b000000 I
1<
#996
b00010 !
b101 1
b11110 B
b01011 &
b011 9
b01011 *
b1011 J
b011 ;
0<
b100011 >
#1001
b000100 A
b000101 D
b000100 E
b000000 F
b000110 G
1<
#1006
b00011 !
b11101 B
b100 #
b01100 &
b100 '
b01100 *
b1100 J
b100 ;
b00100 ,
0<
b100100 >
#1011
b000101 A
b000100 C
b000110 D
b000101 E
b000000 G
1<
#1016
b00100 !
b11100 B
b000 #
b01101 &
b000 '
b01101 *
b1101 J
b00000 ,
b110 1
b010 9
b101 ;
0<
b100101 >
#1021
b000110 A
b000000 C
b000000 D
b000110 E
b000100 H
1<
#1026
b00101 !
b11011 B
b010 #
b01110 &
b010 '
b01110 *
b1110 J
b110 ;
b00010 ,
0<
b100110 >
#1031
b000000 A
b000010 C
b000000 E
b000000 H
b000100 I
1<
#1036
b00110 !
b11010 B
b100 #
b01111 &
b100 '
b01111 *
b1111 J
b111 ;
b00100 ,
0<
b100111 >
#1041
b000100 C
b000100 F
b000010 H
b000000 I
1<
#1046
b00100 !
0"
b11100 B
b000 #
b01000 &
b000 '
b00100 (
b01000 *
b1000 J
b00000 ,
b00100 L
b01 .
b111 1
b01 :
b000 ;
0<
b01 =
b101000 >
#1051
b000000 C
b000000 F
b000100 G
b000100 H
b000010 I
1<
#1056
b00101 !
b11011 B
b010 #
b01001 &
b010 '
b01001 *
b1001 J
b001 ;
b00010 ,
0<
b101001 >
#1061
b000010 C
b000100 D
b000010 F
b000000 G
b000000 H
b000100 I
1<
#1066
b00110 !
b11010 B
b100 #
b01010 &
b100 '
b01010 *
b1010 J
b010 ;
b00100 ,
0<
b101010 >
#1071
b000100 A
b000100 C
b000000 D
b000100 E
b000100 F
b000010 G
b000010 H
b000000 I
1<
#1076
b00111 !
b11001 B
b110 #
b01011 &
b110 '
b01011 *
b1011 J
b011 ;
b00110 ,
0<
b101011 >
#1081
b000000 A
b000110 C
b000010 D
b000000 E
b000000 F
b000100 G
b000100 H
b000010 I
1<
#1086
b01000 !
b11000 B
b000 #
b01100 &
b000 '
b01100 *
b1100 J
b00000 ,
b000 1
b001 9
b100 ;
0<
b101100 >
#1091
b000010 A
b000000 C
b000100 D
b000010 E
b000010 F
b000000 G
b000110 H
b000100 I
1<
#1096
b01001 !
b10111 B
b001 #
b01101 &
b001 '
b01101 *
b1101 J
b101 ;
b00001 ,
0<
b101101 >
#1101
b000100 A
b000001 C
b000000 D
b000100 E
b000100 F
b000010 G
b000000 H
b000110 I
1<
#1106
b01010 !
b10110 B
b010 #
b01110 &
b010 '
b01110 *
b1110 J
b110 ;
b00010 ,
0<
b101110 >
#1111
b000000 A
b000010 C
b000010 D
b000000 E
b000110 F
b000100 G
b000001 H
b000000 I
1<
#1116
b01011 !
b10101 B
b011 #
b01111 &
b011 '
b01111 *
b1111 J
b111 ;
b00011 ,
0<
b101111 >
#1121
b000010 A
b000011 C
b000100 D
b000010 E
b000000 F
b000110 G
b000010 H
b000001 I
1<
#1126
b00110 !
b11010 B
b100 #
b01000 &
b100 '
b00010 (
b01000 *
b1000 J
b00100 ,
b00010 L
b10 .
b100 1
b010 9
b10 :
b000 ;
0<
b10 =
b110000 >
#1131
b000100 A
b000100 C
b000110 D
b000100 E
b000001 F
b000000 G
b000011 H
b000010 I
1<
#1136
b00111 !
b11001 B
b110 #
b01001 &
b110 '
b01001 *
b1001 J
b001 ;
b00110 ,
0<
b110001 >
#1141
b000110 A
b000110 C
b000000 D
b000110 E
b000010 F
b000001 G
b000100 H
b000011 I
1<
#1146
b01000 !
b11000 B
b000 #
b01010 &
b000 '
b01010 *
b1010 J
b00000 ,
b101 1
b001 9
b010 ;
0<
b110010 >
#1151
b000000 A
b000000 C
b000001 D
b000000 E
b000011 F
b000010 G
b000110 H
b000100 I
1<
#1156
b01001 !
b10111 B
b001 #
b01011 &
b001 '
b01011 *
b1011 J
b011 ;
b00001 ,
0<
b110011 >
#1161
b000001 A
b000001 C
b000010 D
b000001 E
b000100 F
b000011 G
b000000 H
b000110 I
1<
#1166
b01010 !
b10110 B
b010 #
b01100 &
b010 '
b01100 *
b1100 J
b100 ;
b00010 ,
0<
b110100 >
#1171
b000010 A
b000010 C
b000011 D
b000010 E
b000110 F
b000100 G
b000001 H
b000000 I
1<
