test_run_dir/FP5Subtractor_pipeline_depth__3_should_correctly_subtract_all_FP5_input_combinations_with_pd__3/FP4Subtractor.vcd
$date
2025-07-24T17:50+0000
$end
$version
0.2
$end
$comment

$end
$timescale 1ns  $end
$scope module FP4Subtractor $end
 $var wire 4 ! diff_abs $end
 $var wire 1 " a_bigger $end
 $var wire 2 # shifted_man $end
 $var wire 1 $ io_out_valid $end
 $var wire 2 % adjusted_exp $end
 $var wire 4 & aligned_b $end
 $var wire 2 ' norm_man $end
 $var wire 4 ( aligned_a $end
 $var wire 1 ) reset $end
 $var wire 4 * aligned_b_sint $end
 $var wire 1 + io_in_valid $end
 $var wire 4 , result $end
 $var wire 2 - norm_exp $end
 $var wire 2 . b_exp $end
 $var wire 2 / man $end
 $var wire 3 0 a_full $end
 $var wire 2 1 adjusted_exp_raw $end
 $var wire 1 2 valid_0 $end
 $var wire 1 3 valid_1 $end
 $var wire 1 4 valid_2 $end
 $var wire 2 5 leading_zeros $end
 $var wire 2 6 aligned_exp $end
 $var wire 2 7 man_1 $end
 $var wire 1 8 clock $end
 $var wire 2 9 exp_diff $end
 $var wire 5 : io_b $end
 $var wire 5 ; io_a $end
 $var wire 2 < a_exp $end
 $var wire 5 = io_out $end
 $var wire 4 > diff_full $end
 $var wire 5 ? stage_0 $end
 $var wire 5 @ stage_1 $end
 $var wire 5 A stage_2 $end
 $var wire 3 B b_full $end
 $var wire 1 C io_in_en $end
 $var wire 4 D aligned_a_sint $end
$upscope $end
$enddefinitions $end
$dumpvars
b0000 D
b00 9
02
b00 7
03
b00 6
04
b000 B
b00 <
b0000 >
08
b00 1
b00 /
b00 .
b00 5
b00 '
0C
b00 -
b00 %
b00 #
b0000 !
b0000 ,
b00000 ;
b00000 :
b0000 *
b00000 =
b000 0
b0000 (
b00000 ?
b0000 &
b00000 A
b00000 @
0"
0$
0)
0+
$end
#0
b100 0
b01 1
1"
b100 B
b0100 D
b01 %
b11 5
b0100 &
b0100 (
1)
b0100 *
#1
18
#6
1C
08
0)
1+
#11
12
18
#16
b0001 !
b101 B
b0101 &
b01 7
08
b0101 *
b00001 :
b0100 ,
b01 -
b1111 >
#21
13
18
b00100 ?
#26
b0010 !
b110 B
b00 %
b0110 &
b0110 *
b0000 ,
b00 -
b10 1
b10 5
b10 7
08
b00010 :
b1110 >
#31
b00100 @
1$
14
18
b00000 ?
#36
b0011 !
b111 B
b10 #
b0111 &
b10 '
b11 7
08
b0111 *
b00011 :
b0010 ,
b1101 >
#41
b00000 @
b00100 A
18
b00100 =
b00010 ?
#46
b0010 !
0"
b100 B
b00 #
b0010 D
b0100 &
b00 '
b0010 (
b0100 *
b0000 ,
b01 .
b11 1
b01 6
b00 7
08
b01 9
b00100 :
b1110 >
#51
b00010 @
b00000 A
18
b00000 =
b00000 ?
#56
b0011 !
b101 B
b10 #
b0101 &
b10 '
b01 7
08
b0101 *
b00101 :
b0010 ,
b1101 >
#61
b00000 @
b00010 A
18
b00010 =
b00010 ?
#66
b0100 !
b110 B
b00 #
b0110 &
b00 '
b0110 *
b0000 ,
b00 1
b01 5
b10 7
08
b00110 :
b1100 >
#71
b00010 @
b00000 A
18
b00000 =
b00000 ?
#76
b0101 !
b111 B
b01 #
b0111 &
b01 '
b11 7
08
b0111 *
b00111 :
b0001 ,
b1011 >
#81
b00000 @
b00010 A
18
b00010 =
b00001 ?
#86
b0011 !
b100 B
b10 #
b0001 D
b0100 &
b10 '
b0001 (
b0100 *
b0010 ,
b10 .
b10 5
b10 6
b00 7
08
b10 9
b01000 :
b1101 >
#91
b00001 @
b00000 A
18
b00000 =
b00010 ?
#96
b0100 !
b101 B
b00 #
b01 %
b0101 &
b00 '
b0101 *
b0100 ,
b01 -
b01 1
b01 5
b01 7
08
b01001 :
b1100 >
#101
b00010 @
b00001 A
18
b00001 =
b00100 ?
#106
b0101 !
b110 B
b01 #
b0110 &
b01 '
b10 7
08
b0110 *
b01010 :
b0101 ,
b1011 >
#111
b00100 @
b00010 A
18
b00010 =
b00101 ?
#116
b0110 !
b111 B
b10 #
b0111 &
b10 '
b11 7
08
b0111 *
b01011 :
b0110 ,
b1010 >
#121
b00101 @
b00100 A
18
b00100 =
b00110 ?
#126
b0100 !
b100 B
b00 #
b0000 D
b00 %
b0100 &
b00 '
b0000 (
b0100 *
b0000 ,
b00 -
b11 .
b10 1
b11 6
b00 7
08
b11 9
b01100 :
b1100 >
#131
b00110 @
b00101 A
18
b00101 =
b00000 ?
#136
b0101 !
b101 B
b01 #
b0101 &
b01 '
b01 7
08
b0101 *
b01101 :
b0001 ,
b1011 >
#141
b00000 @
b00110 A
18
b00110 =
b00001 ?
#146
b0110 !
b110 B
b10 #
b0110 &
b10 '
b10 7
08
b0110 *
b01110 :
b0010 ,
b1010 >
#151
b00001 @
b00000 A
18
b00000 =
b00010 ?
#156
b0111 !
b111 B
b11 #
b0111 &
b11 '
b11 7
08
b0111 *
b01111 :
b0011 ,
b1001 >
#161
b00010 @
b00001 A
18
b00001 =
b00011 ?
#166
b0000 !
1"
b100 B
b00 #
b0100 D
b01 %
b0100 &
b00 '
b0100 (
b0100 *
b0000 ,
b00 .
b01 1
b11 5
b00 6
b00 7
08
b00 9
b10000 :
b0000 >
#171
b00011 @
b00010 A
18
b00010 =
b00000 ?
#176
b0001 !
b101 B
b0101 &
b01 7
08
b0101 *
b10001 :
b0100 ,
b01 -
b1111 >
#181
b00000 @
b00011 A
18
b00011 =
b00100 ?
#186
b0010 !
b110 B
b00 %
b0110 &
b0110 *
b0000 ,
b00 -
b10 1
b10 5
b10 7
08
b10010 :
b1110 >
#191
b00100 @
b00000 A
18
b00000 =
b00000 ?
#196
b0011 !
b111 B
b10 #
b0111 &
b10 '
b11 7
08
b0111 *
b10011 :
b0010 ,
b1101 >
#201
b00000 @
b00100 A
18
b00100 =
b00010 ?
#206
b0010 !
0"
b100 B
b00 #
b0010 D
b0100 &
b00 '
b0010 (
b0100 *
b0000 ,
b01 .
b11 1
b01 6
b00 7
08
b01 9
b10100 :
b1110 >
#211
b00010 @
b00000 A
18
b00000 =
b00000 ?
#216
b0011 !
b101 B
b10 #
b0101 &
b10 '
b01 7
08
b0101 *
b10101 :
b0010 ,
b1101 >
#221
b00000 @
b00010 A
18
b00010 =
b00010 ?
#226
b0100 !
b110 B
b00 #
b0110 &
b00 '
b0110 *
b0000 ,
b00 1
b01 5
b10 7
08
b10110 :
b1100 >
#231
b00010 @
b00000 A
18
b00000 =
b00000 ?
#236
b0101 !
b111 B
b01 #
b0111 &
b01 '
b11 7
08
b0111 *
b10111 :
b0001 ,
b1011 >
#241
b00000 @
b00010 A
18
b00010 =
b00001 ?
#246
b0011 !
b100 B
b10 #
b0001 D
b0100 &
b10 '
b0001 (
b0100 *
b0010 ,
b10 .
b10 5
b10 6
b00 7
08
b10 9
b11000 :
b1101 >
#251
b00001 @
b00000 A
18
b00000 =
b00010 ?
#256
b0100 !
b101 B
b00 #
b01 %
b0101 &
b00 '
b0101 *
b0100 ,
b01 -
b01 1
b01 5
b01 7
08
b11001 :
b1100 >
#261
b00010 @
b00001 A
18
b00001 =
b00100 ?
#266
b0101 !
b110 B
b01 #
b0110 &
b01 '
b10 7
08
b0110 *
b11010 :
b0101 ,
b1011 >
#271
b00100 @
b00010 A
18
b00010 =
b00101 ?
#276
b0110 !
b111 B
b10 #
b0111 &
b10 '
b11 7
08
b0111 *
b11011 :
b0110 ,
b1010 >
#281
b00101 @
b00100 A
18
b00100 =
b00110 ?
#286
b0100 !
b100 B
b00 #
b0000 D
b00 %
b0100 &
b00 '
b0000 (
b0100 *
b0000 ,
b00 -
b11 .
b10 1
b11 6
b00 7
08
b11 9
b11100 :
b1100 >
#291
b00110 @
b00101 A
18
b00101 =
b00000 ?
#296
b0101 !
b101 B
b01 #
b0101 &
b01 '
b01 7
08
b0101 *
b11101 :
b0001 ,
b1011 >
#301
b00000 @
b00110 A
18
b00110 =
b00001 ?
#306
b0110 !
b110 B
b10 #
b0110 &
b10 '
b10 7
08
b0110 *
b11110 :
b0010 ,
b1010 >
#311
b00001 @
b00000 A
18
b00000 =
b00010 ?
#316
b0111 !
b111 B
b11 #
b0111 &
b11 '
b11 7
08
b0111 *
b11111 :
b0011 ,
b1001 >
#321
b00010 @
b00001 A
18
b00001 =
b00011 ?
#326
b100 B
b0101 D
b0001 !
1"
b00 #
b01 %
b0100 &
b00 '
b0101 (
b0100 *
b0100 ,
b01 -
b00 .
b01 /
b101 0
b01 1
b11 5
b00 6
b00 7
08
b00 9
b00000 :
b00001 ;
b0001 >
#331
b00011 @
b00010 A
18
b00010 =
b00100 ?
#336
b0000 !
b101 B
b0101 &
b01 7
08
b0101 *
b00001 :
b0000 ,
b00 -
b0000 >
#341
b00100 @
b00011 A
18
b00011 =
b00000 ?
#346
b0001 !
b110 B
b0110 &
b10 7
08
b0110 *
b00010 :
b0100 ,
b01 -
b1111 >
#351
b00000 @
b00100 A
18
b00100 =
b00100 ?
#356
b0010 !
b111 B
b00 %
b0111 &
b0111 *
b0000 ,
b00 -
b10 1
b10 5
b11 7
08
b00011 :
b1110 >
#361
b00100 @
b00000 A
18
b00000 =
b00000 ?
#366
0"
b100 B
b0010 D
b0100 &
b0010 (
b0100 *
b01 .
b11 1
b01 6
b00 7
08
b01 9
b00100 :
#371
b00000 @
b00100 A
18
b00100 =
#376
b0011 !
b101 B
b10 #
b0101 &
b10 '
b01 7
08
b0101 *
b00101 :
b0010 ,
b1101 >
#381
b00000 A
18
b00000 =
b00010 ?
#386
b0100 !
b110 B
b00 #
b0110 &
b00 '
b0110 *
b0000 ,
b00 1
b01 5
b10 7
08
b00110 :
b1100 >
#391
b00010 @
18
b00000 ?
#396
b0101 !
b111 B
b01 #
b0111 &
b01 '
b11 7
08
b0111 *
b00111 :
b0001 ,
b1011 >
#401
b00000 @
b00010 A
18
b00010 =
b00001 ?
#406
b0011 !
b100 B
b10 #
b0001 D
b0100 &
b10 '
b0001 (
b0100 *
b0010 ,
b10 .
b10 5
b10 6
b00 7
08
b10 9
b01000 :
b1101 >
#411
b00001 @
b00000 A
18
b00000 =
b00010 ?
#416
b0100 !
b101 B
b00 #
b01 %
b0101 &
b00 '
b0101 *
b0100 ,
b01 -
b01 1
b01 5
b01 7
08
b01001 :
b1100 >
#421
b00010 @
b00001 A
18
b00001 =
b00100 ?
#426
b0101 !
b110 B
b01 #
b0110 &
b01 '
b10 7
08
b0110 *
b01010 :
b0101 ,
b1011 >
#431
b00100 @
b00010 A
18
b00010 =
b00101 ?
#436
b0110 !
b111 B
b10 #
b0111 &
b10 '
b11 7
08
b0111 *
b01011 :
b0110 ,
b1010 >
#441
b00101 @
b00100 A
18
b00100 =
b00110 ?
#446
b0100 !
b100 B
b00 #
b0000 D
b00 %
b0100 &
b00 '
b0000 (
b0100 *
b0000 ,
b00 -
b11 .
b10 1
b11 6
b00 7
08
b11 9
b01100 :
b1100 >
#451
b00110 @
b00101 A
18
b00101 =
b00000 ?
#456
b0101 !
b101 B
b01 #
b0101 &
b01 '
b01 7
08
b0101 *
b01101 :
b0001 ,
b1011 >
#461
b00000 @
b00110 A
18
b00110 =
b00001 ?
#466
b0110 !
b110 B
b10 #
b0110 &
b10 '
b10 7
08
b0110 *
b01110 :
b0010 ,
b1010 >
#471
b00001 @
b00000 A
18
b00000 =
b00010 ?
#476
b0111 !
b111 B
b11 #
b0111 &
b11 '
b11 7
08
b0111 *
b01111 :
b0011 ,
b1001 >
#481
b00010 @
b00001 A
18
b00001 =
b00011 ?
#486
b0001 !
1"
b100 B
b00 #
b0101 D
b01 %
b0100 &
b00 '
b0101 (
b0100 *
b0100 ,
b01 -
b00 .
b01 1
b11 5
b00 6
b00 7
08
b00 9
b10000 :
b0001 >
#491
b00011 @
b00010 A
18
b00010 =
b00100 ?
#496
b0000 !
b101 B
b0101 &
b01 7
08
b0101 *
b10001 :
b0000 ,
b00 -
b0000 >
#501
b00100 @
b00011 A
18
b00011 =
b00000 ?
#506
b0001 !
b110 B
b0110 &
b10 7
08
b0110 *
b10010 :
b0100 ,
b01 -
b1111 >
#511
b00000 @
b00100 A
18
b00100 =
b00100 ?
#516
b0010 !
b111 B
b00 %
b0111 &
b0111 *
b0000 ,
b00 -
b10 1
b10 5
b11 7
08
b10011 :
b1110 >
#521
b00100 @
b00000 A
18
b00000 =
b00000 ?
#526
0"
b100 B
b0010 D
b0100 &
b0010 (
b0100 *
b01 .
b11 1
b01 6
b00 7
08
b01 9
b10100 :
#531
b00000 @
b00100 A
18
b00100 =
#536
b0011 !
b101 B
b10 #
b0101 &
b10 '
b01 7
08
b0101 *
b10101 :
b0010 ,
b1101 >
#541
b00000 A
18
b00000 =
b00010 ?
#546
b0100 !
b110 B
b00 #
b0110 &
b00 '
b0110 *
b0000 ,
b00 1
b01 5
b10 7
08
b10110 :
b1100 >
#551
b00010 @
18
b00000 ?
#556
b0101 !
b111 B
b01 #
b0111 &
b01 '
b11 7
08
b0111 *
b10111 :
b0001 ,
b1011 >
#561
b00000 @
b00010 A
18
b00010 =
b00001 ?
#566
b0011 !
b100 B
b10 #
b0001 D
b0100 &
b10 '
b0001 (
b0100 *
b0010 ,
b10 .
b10 5
b10 6
b00 7
08
b10 9
b11000 :
b1101 >
#571
b00001 @
b00000 A
18
b00000 =
b00010 ?
#576
b0100 !
b101 B
b00 #
b01 %
b0101 &
b00 '
b0101 *
b0100 ,
b01 -
b01 1
b01 5
b01 7
08
b11001 :
b1100 >
#581
b00010 @
b00001 A
18
b00001 =
b00100 ?
#586
b0101 !
b110 B
b01 #
b0110 &
b01 '
b10 7
08
b0110 *
b11010 :
b0101 ,
b1011 >
#591
b00100 @
b00010 A
18
b00010 =
b00101 ?
#596
b0110 !
b111 B
b10 #
b0111 &
b10 '
b11 7
08
b0111 *
b11011 :
b0110 ,
b1010 >
#601
b00101 @
b00100 A
18
b00100 =
b00110 ?
#606
b0100 !
b100 B
b00 #
b0000 D
b00 %
b0100 &
b00 '
b0000 (
b0100 *
b0000 ,
b00 -
b11 .
b10 1
b11 6
b00 7
08
b11 9
b11100 :
b1100 >
#611
b00110 @
b00101 A
18
b00101 =
b00000 ?
#616
b0101 !
b101 B
b01 #
b0101 &
b01 '
b01 7
08
b0101 *
b11101 :
b0001 ,
b1011 >
#621
b00000 @
b00110 A
18
b00110 =
b00001 ?
#626
b0110 !
b110 B
b10 #
b0110 &
b10 '
b10 7
08
b0110 *
b11110 :
b0010 ,
b1010 >
#631
b00001 @
b00000 A
18
b00000 =
b00010 ?
#636
b0111 !
b111 B
b11 #
b0111 &
b11 '
b11 7
08
b0111 *
b11111 :
b0011 ,
b1001 >
#641
b00010 @
b00001 A
18
b00001 =
b00011 ?
#646
b0010 !
1"
b100 B
b00 #
b0110 D
b0100 &
b00 '
b0110 (
b0100 *
b0000 ,
b00 .
b10 /
b110 0
b10 5
b00 6
b00 7
08
b00 9
b00000 :
b00010 ;
b0010 >
#651
b00011 @
b00010 A
18
b00010 =
b00000 ?
#656
b0001 !
b101 B
b01 %
b0101 &
b0101 *
b0100 ,
b01 -
b01 1
b11 5
b01 7
08
b00001 :
b0001 >
#661
b00000 @
b00011 A
18
b00011 =
b00100 ?
#666
b0000 !
b110 B
b0110 &
b10 7
08
b0110 *
b00010 :
b0000 ,
b00 -
b0000 >
#671
b00100 @
b00000 A
18
b00000 =
b00000 ?
#676
b0001 !
b111 B
b0111 &
b11 7
08
b0111 *
b00011 :
b0100 ,
b01 -
b1111 >
#681
b00000 @
b00100 A
18
b00100 =
b00100 ?
#686
0"
b100 B
b0011 D
b00 %
b0100 &
b0011 (
b0100 *
b0000 ,
b00 -
b01 .
b10 1
b01 6
b00 7
08
b01 9
b00100 :
#691
b00100 @
b00000 A
18
b00000 =
b00000 ?
#696
b0010 !
b11 1
b101 B
b10 5
b0101 &
b01 7
08
b0101 *
b00101 :
b1110 >
#701
b00000 @
b00100 A
18
b00100 =
#706
b0011 !
b110 B
b10 #
b0110 &
b10 '
b10 7
08
b0110 *
b00110 :
b0010 ,
b1101 >
#711
b00000 A
18
b00000 =
b00010 ?
#716
b0100 !
b111 B
b00 #
b0111 &
b00 '
b0111 *
b0000 ,
b00 1
b01 5
b11 7
08
b00111 :
b1100 >
#721
b00010 @
18
b00000 ?
#726
b0011 !
b100 B
b10 #
b0001 D
b0100 &
b10 '
b0001 (
b0100 *
b0010 ,
b10 .
b10 5
b10 6
b00 7
08
b10 9
b01000 :
b1101 >
#731
b00000 @
b00010 A
18
b00010 =
b00010 ?
#736
b0100 !
b101 B
b00 #
b01 %
b0101 &
b00 '
b0101 *
b0100 ,
b01 -
b01 1
b01 5
b01 7
08
b01001 :
b1100 >
#741
b00010 @
b00000 A
18
b00000 =
b00100 ?
#746
b0101 !
b110 B
b01 #
b0110 &
b01 '
b10 7
08
b0110 *
b01010 :
b0101 ,
b1011 >
#751
b00100 @
b00010 A
18
b00010 =
b00101 ?
#756
b0110 !
b111 B
b10 #
b0111 &
b10 '
b11 7
08
b0111 *
b01011 :
b0110 ,
b1010 >
#761
b00101 @
b00100 A
18
b00100 =
b00110 ?
#766
b0100 !
b100 B
b00 #
b0000 D
b00 %
b0100 &
b00 '
b0000 (
b0100 *
b0000 ,
b00 -
b11 .
b10 1
b11 6
b00 7
08
b11 9
b01100 :
b1100 >
#771
b00110 @
b00101 A
18
b00101 =
b00000 ?
#776
b0101 !
b101 B
b01 #
b0101 &
b01 '
b01 7
08
b0101 *
b01101 :
b0001 ,
b1011 >
#781
b00000 @
b00110 A
18
b00110 =
b00001 ?
#786
b0110 !
b110 B
b10 #
b0110 &
b10 '
b10 7
08
b0110 *
b01110 :
b0010 ,
b1010 >
#791
b00001 @
b00000 A
18
b00000 =
b00010 ?
#796
b0111 !
b111 B
b11 #
b0111 &
b11 '
b11 7
08
b0111 *
b01111 :
b0011 ,
b1001 >
#801
b00010 @
b00001 A
18
b00001 =
b00011 ?
#806
b0010 !
1"
b100 B
b00 #
b0110 D
b0100 &
b00 '
b0110 (
b0100 *
b0000 ,
b00 .
b10 5
b00 6
b00 7
08
b00 9
b10000 :
b0010 >
#811
b00011 @
b00010 A
18
b00010 =
b00000 ?
#816
b0001 !
b101 B
b01 %
b0101 &
b0101 *
b0100 ,
b01 -
b01 1
b11 5
b01 7
08
b10001 :
b0001 >
#821
b00000 @
b00011 A
18
b00011 =
b00100 ?
#826
b0000 !
b110 B
b0110 &
b10 7
08
b0110 *
b10010 :
b0000 ,
b00 -
b0000 >
#831
b00100 @
b00000 A
18
b00000 =
b00000 ?
#836
b0001 !
b111 B
b0111 &
b11 7
08
b0111 *
b10011 :
b0100 ,
b01 -
b1111 >
#841
b00000 @
b00100 A
18
b00100 =
b00100 ?
#846
0"
b100 B
b0011 D
b00 %
b0100 &
b0011 (
b0100 *
b0000 ,
b00 -
b01 .
b10 1
b01 6
b00 7
08
b01 9
b10100 :
#851
b00100 @
b00000 A
18
b00000 =
b00000 ?
#856
b0010 !
b11 1
b101 B
b10 5
b0101 &
b01 7
08
b0101 *
b10101 :
b1110 >
#861
b00000 @
b00100 A
18
b00100 =
#866
b0011 !
b110 B
b10 #
b0110 &
b10 '
b10 7
08
b0110 *
b10110 :
b0010 ,
b1101 >
#871
b00000 A
18
b00000 =
b00010 ?
#876
b0100 !
b111 B
b00 #
b0111 &
b00 '
b0111 *
b0000 ,
b00 1
b01 5
b11 7
08
b10111 :
b1100 >
#881
b00010 @
18
b00000 ?
#886
b0011 !
b100 B
b10 #
b0001 D
b0100 &
b10 '
b0001 (
b0100 *
b0010 ,
b10 .
b10 5
b10 6
b00 7
08
b10 9
b11000 :
b1101 >
#891
b00000 @
b00010 A
18
b00010 =
b00010 ?
#896
b0100 !
b101 B
b00 #
b01 %
b0101 &
b00 '
b0101 *
b0100 ,
b01 -
b01 1
b01 5
b01 7
08
b11001 :
b1100 >
#901
b00010 @
b00000 A
18
b00000 =
b00100 ?
#906
b0101 !
b110 B
b01 #
b0110 &
b01 '
b10 7
08
b0110 *
b11010 :
b0101 ,
b1011 >
#911
b00100 @
b00010 A
18
b00010 =
b00101 ?
#916
b0110 !
b111 B
b10 #
b0111 &
b10 '
b11 7
08
b0111 *
b11011 :
b0110 ,
b1010 >
#921
b00101 @
b00100 A
18
b00100 =
b00110 ?
#926
b0100 !
b100 B
b00 #
b0000 D
b00 %
b0100 &
b00 '
b0000 (
b0100 *
b0000 ,
b00 -
b11 .
b10 1
b11 6
b00 7
08
b11 9
b11100 :
b1100 >
#931
b00110 @
b00101 A
18
b00101 =
b00000 ?
#936
b0101 !
b101 B
b01 #
b0101 &
b01 '
b01 7
08
b0101 *
b11101 :
b0001 ,
b1011 >
#941
b00000 @
b00110 A
18
b00110 =
b00001 ?
#946
b0110 !
b110 B
b10 #
b0110 &
b10 '
b10 7
08
b0110 *
b11110 :
b0010 ,
b1010 >
#951
b00001 @
b00000 A
18
b00000 =
b00010 ?
#956
b0111 !
b111 B
b11 #
b0111 &
b11 '
b11 7
08
b0111 *
b11111 :
b0011 ,
b1001 >
#961
b00010 @
b00001 A
18
b00001 =
b00011 ?
#966
b0011 !
1"
b100 B
b10 #
b0111 D
b0100 &
b10 '
b0111 (
b0100 *
b0010 ,
b00 .
b11 /
b111 0
b10 5
b00 6
b00 7
08
b00 9
b00000 :
b00011 ;
b0011 >
#971
b00011 @
b00010 A
18
b00010 =
b00010 ?
#976
b0010 !
b101 B
b00 #
b0101 &
b00 '
b01 7
08
b0101 *
b00001 :
b0000 ,
b0010 >
#981
b00010 @
b00011 A
18
b00011 =
b00000 ?
#986
b0001 !
b110 B
b01 %
b0110 &
b0110 *
b0100 ,
b01 -
b01 1
b11 5
b10 7
08
b00010 :
b0001 >
#991
b00000 @
b00010 A
18
b00010 =
b00100 ?
#996
b0000 !
b111 B
b0111 &
b11 7
08
b0111 *
b00011 :
b0000 ,
b00 -
b0000 >
#1001
b00100 @
b00000 A
18
b00000 =
b00000 ?
#1006
b0001 !
0"
b100 B
b0011 D
b00 %
b0100 &
b0011 (
b0100 *
b01 .
b10 1
b01 6
b00 7
08
b01 9
b00100 :
b1111 >
#1011
b00000 @
b00100 A
18
b00100 =
#1016
b0010 !
b11 1
b101 B
b10 5
b0101 &
b01 7
08
b0101 *
b00101 :
b1110 >
#1021
b00000 A
18
b00000 =
#1026
b0011 !
b110 B
b10 #
b0110 &
b10 '
b10 7
08
b0110 *
b00110 :
b0010 ,
b1101 >
#1031
18
b00010 ?
#1036
b0100 !
b111 B
b00 #
b0111 &
b00 '
b0111 *
b0000 ,
b00 1
b01 5
b11 7
08
b00111 :
b1100 >
#1041
b00010 @
18
b00000 ?
#1046
b0011 !
b100 B
b10 #
b0001 D
b0100 &
b10 '
b0001 (
b0100 *
b0010 ,
b10 .
b10 5
b10 6
b00 7
08
b10 9
b01000 :
b1101 >
#1051
b00000 @
b00010 A
18
b00010 =
b00010 ?
#1056
b0100 !
b101 B
b00 #
b01 %
b0101 &
b00 '
b0101 *
b0100 ,
b01 -
b01 1
b01 5
b01 7
08
b01001 :
b1100 >
#1061
b00010 @
b00000 A
18
b00000 =
b00100 ?
#1066
b0101 !
b110 B
b01 #
b0110 &
b01 '
b10 7
08
b0110 *
b01010 :
b0101 ,
b1011 >
#1071
b00100 @
b00010 A
18
b00010 =
b00101 ?
#1076
b0110 !
b111 B
b10 #
b0111 &
b10 '
b11 7
08
b0111 *
b01011 :
b0110 ,
b1010 >
#1081
b00101 @
b00100 A
18
b00100 =
b00110 ?
#1086
b0100 !
b100 B
b00 #
b0000 D
b00 %
b0100 &
b00 '
b0000 (
b0100 *
b0000 ,
b00 -
b11 .
b10 1
b11 6
b00 7
08
b11 9
b01100 :
b1100 >
#1091
b00110 @
b00101 A
18
b00101 =
b00000 ?
#1096
b0101 !
b101 B
b01 #
b0101 &
b01 '
b01 7
08
b0101 *
b01101 :
b0001 ,
b1011 >
#1101
b00000 @
b00110 A
18
b00110 =
b00001 ?
#1106
b0110 !
b110 B
b10 #
b0110 &
b10 '
b10 7
08
b0110 *
b01110 :
b0010 ,
b1010 >
#1111
b00001 @
b00000 A
18
b00000 =
b00010 ?
#1116
b0111 !
b111 B
b11 #
b0111 &
b11 '
b11 7
08
b0111 *
b01111 :
b0011 ,
b1001 >
#1121
b00010 @
b00001 A
18
b00001 =
b00011 ?
#1126
b0011 !
1"
b100 B
b10 #
b0111 D
b0100 &
b10 '
b0111 (
b0100 *
b0010 ,
b00 .
b10 5
b00 6
b00 7
08
b00 9
b10000 :
b0011 >
#1131
b00011 @
b00010 A
18
b00010 =
b00010 ?
#1136
b0010 !
b101 B
b00 #
b0101 &
b00 '
b01 7
08
b0101 *
b10001 :
b0000 ,
b0010 >
#1141
b00010 @
b00011 A
18
b00011 =
b00000 ?
#1146
b0001 !
b110 B
b01 %
b0110 &
b0110 *
b0100 ,
b01 -
b01 1
b11 5
b10 7
08
b10010 :
b0001 >
#1151
b00000 @
b00010 A
18
b00010 =
b00100 ?
#1156
b0000 !
b111 B
b0111 &
b11 7
08
b0111 *
b10011 :
b0000 ,
b00 -
b0000 >
#1161
b00100 @
b00000 A
18
b00000 =
b00000 ?
#1166
b0001 !
0"
b100 B
b0011 D
b00 %
b0100 &
b0011 (
b0100 *
b01 .
b10 1
b01 6
b00 7
08
b01 9
b10100 :
b1111 >
#1171
b00000 @
b00100 A
18
b00100 =
#1176
b0010 !
b11 1
b101 B
b10 5
b0101 &
b01 7
08
b0101 *
b10101 :
b1110 >
#1181
b00000 A
18
b00000 =
#1186
b0011 !
b110 B
b10 #
b0110 &
b10 '
b10 7
08
b0110 *
b10110 :
b0010 ,
b1101 >
#1191
18
b00010 ?
#1196
b0100 !
b111 B
b00 #
b0111 &
b00 '
b0111 *
b0000 ,
b00 1
b01 5
b11 7
08
b10111 :
b1100 >
#1201
b00010 @
18
b00000 ?
#1206
b0011 !
b100 B
b10 #
b0001 D
b0100 &
b10 '
b0001 (
b0100 *
b0010 ,
b10 .
b10 5
b10 6
b00 7
08
b10 9
b11000 :
b1101 >
#1211
b00000 @
b00010 A
18
b00010 =
b00010 ?
#1216
b0100 !
b101 B
b00 #
b01 %
b0101 &
b00 '
b0101 *
b0100 ,
b01 -
b01 1
b01 5
b01 7
08
b11001 :
b1100 >
#1221
b00010 @
b00000 A
18
b00000 =
b00100 ?
#1226
b0101 !
b110 B
b01 #
b0110 &
b01 '
b10 7
08
b0110 *
b11010 :
b0101 ,
b1011 >
#1231
b00100 @
b00010 A
18
b00010 =
b00101 ?
#1236
b0110 !
b111 B
b10 #
b0111 &
b10 '
b11 7
08
b0111 *
b11011 :
b0110 ,
b1010 >
#1241
b00101 @
b00100 A
18
b00100 =
b00110 ?
#1246
b0100 !
b100 B
b00 #
b0000 D
b00 %
b0100 &
b00 '
b0000 (
b0100 *
b0000 ,
b00 -
b11 .
b10 1
b11 6
b00 7
08
b11 9
b11100 :
b1100 >
#1251
b00110 @
b00101 A
18
b00101 =
b00000 ?
#1256
b0101 !
b101 B
b01 #
b0101 &
b01 '
b01 7
08
b0101 *
b11101 :
b0001 ,
b1011 >
#1261
b00000 @
b00110 A
18
b00110 =
b00001 ?
#1266
b0110 !
b110 B
b10 #
b0110 &
b10 '
b10 7
08
b0110 *
b11110 :
b0010 ,
b1010 >
#1271
b00001 @
b00000 A
18
b00000 =
b00010 ?
#1276
b0111 !
b111 B
b11 #
b0111 &
b11 '
b11 7
08
b0111 *
b11111 :
b0011 ,
b1001 >
#1281
b00010 @
b00001 A
18
b00001 =
b00011 ?
#1286
b0010 !
1"
b100 B
b00 #
b0100 D
b0010 &
b00 '
b0100 (
b0010 *
b0000 ,
b00 .
b00 /
b100 0
b11 1
b10 5
b01 6
b00 7
08
b01 9
b00000 :
b00100 ;
b01 <
b0010 >
#1291
b00011 @
b00010 A
18
b00010 =
b00000 ?
#1296
b101 B
b01 7
08
b00001 :
#1301
b00000 @
b00011 A
18
b00011 =
#1306
b0001 !
b10 1
b110 B
b11 5
b0011 &
b10 7
08
b0011 *
b00010 :
b0001 >
#1311
b00000 A
18
b00000 =
#1316
b111 B
b11 7
08
b00011 :
#1321
18
#1326
b0000 !
b100 B
b0100 &
b00 7
08
b00 9
b0100 *
b00100 :
b01 .
b0000 >
#1331
18
#1336
b0001 !
b101 B
b0101 &
b01 7
08
b0101 *
b00101 :
b1111 >
#1341
18
#1346
b0010 !
b11 1
b110 B
b10 5
b0110 &
b10 7
08
b0110 *
b00110 :
b1110 >
#1351
18
#1356
b0011 !
b111 B
b10 #
b0111 &
b10 '
b11 7
08
b0111 *
b00111 :
b0010 ,
b1101 >
#1361
18
b00010 ?
#1366
b0010 !
0"
b100 B
b00 #
b0010 D
b0100 &
b00 '
b0010 (
b0100 *
b0000 ,
b10 .
b00 1
b10 6
b00 7
08
b01 9
b01000 :
b1110 >
#1371
b00010 @
18
b00000 ?
#1376
b0011 !
b101 B
b10 #
b0101 &
b10 '
b01 7
08
b0101 *
b01001 :
b0010 ,
b1101 >
#1381
b00000 @
b00010 A
18
b00010 =
b00010 ?
#1386
b0100 !
b110 B
b00 #
b01 %
b0110 &
b00 '
b0110 *
b0100 ,
b01 -
b01 1
b01 5
b10 7
08
b01010 :
b1100 >
#1391
b00010 @
b00000 A
18
b00000 =
b00100 ?
#1396
b0101 !
b111 B
b01 #
b0111 &
b01 '
b11 7
08
b0111 *
b01011 :
b0101 ,
b1011 >
#1401
b00100 @
b00010 A
18
b00010 =
b00101 ?
#1406
b0011 !
b100 B
b10 #
b0001 D
b0100 &
b10 '
b0001 (
b0100 *
b0110 ,
b11 .
b10 5
b11 6
b00 7
08
b10 9
b01100 :
b1101 >
#1411
b00101 @
b00100 A
18
b00100 =
b00110 ?
