test_run_dir/should_test_all_additions_for_FPAdder_with_bw6_pd3/FPAdder.vcd
$date
2025-07-28T20:46+0000
$end
$version
0.2
$end
$comment

$end
$timescale 1ns  $end
$scope module FPAdder $end
 $var wire 1 ! sr_valid_2 $end
 $var wire 1 " sr_valid_1 $end
 $var wire 4 # baseA $end
 $var wire 1 $ sr_valid_0 $end
 $var wire 6 % sr_b_0 $end
 $var wire 4 & baseB $end
 $var wire 6 ' sr_b_1 $end
 $var wire 6 ( io_in_a $end
 $var wire 6 ) sr_b_2 $end
 $var wire 6 * io_in_b $end
 $var wire 2 + normExp $end
 $var wire 1 , io_valid_in $end
 $var wire 1 - io_valid_out $end
 $var wire 1 . clock $end
 $var wire 4 / alignedFracB $end
 $var wire 4 0 alignedFracA $end
 $var wire 3 1 shiftAmount $end
 $var wire 1 2 reset $end
 $var wire 6 3 io_out $end
 $var wire 1 4 aBigger $end
 $var wire 3 5 fracA $end
 $var wire 2 6 commonExp $end
 $var wire 6 7 sr_a_0 $end
 $var wire 6 8 sr_a_1 $end
 $var wire 6 9 sr_a_2 $end
 $var wire 3 : fracB $end
 $var wire 5 ; sum $end
 $var wire 2 < expB $end
 $var wire 2 = expA $end
 $var wire 3 > normFrac $end
$upscope $end
$enddefinitions $end
$dumpvars
b000000 7
02
b000000 9
b00 6
b000000 8
04
b00 =
b00 <
b000000 3
b000000 '
b000000 )
b000000 (
b000000 *
b000 5
b00 +
b000 >
b000 :
b000000 %
b0000 #
b00000 ;
b000 1
b0000 &
0!
0"
b0000 0
0$
b0000 /
0,
0-
0.
$end
#0
b1000 0
12
b1000 #
b001000 3
14
b1000 &
b01 +
b10000 ;
b1000 /
#1
1.
#6
02
1,
0.
#11
1$
1.
#16
b000001 *
0.
#21
1"
b000001 %
1.
#26
b000010 *
0.
#31
1!
b000010 %
b000001 '
1-
1.
#36
b000011 *
0.
#41
b000011 %
b1001 &
b000010 '
b000001 )
b001 :
b10001 ;
1.
b1001 /
#46
b000100 *
0.
#51
b001001 3
b000100 %
b1010 &
b000011 '
b000010 )
b010 :
b10010 ;
1.
b001 >
b1010 /
#56
b000101 *
0.
#61
b000101 %
b1011 &
b000100 '
b000011 )
b011 :
b10011 ;
1.
b1011 /
#66
b000110 *
0.
#71
b001010 3
b000110 %
b1100 &
b000101 '
b000100 )
b100 :
b10100 ;
1.
b010 >
b1100 /
#76
b000111 *
0.
#81
b000111 %
b1101 &
b000110 '
b000101 )
b101 :
b10101 ;
1.
b1101 /
#86
b001000 *
0.
#91
b001011 3
b001000 %
b1110 &
b000111 '
b000110 )
b110 :
b10110 ;
1.
b011 >
b1110 /
#96
b001001 *
0.
#101
b001001 %
b1111 &
b001000 '
b000111 )
b111 :
b10111 ;
1.
b1111 /
#106
b001010 *
0.
#111
b001010 %
b1000 &
b001001 '
b001000 )
1.
b1000 /
b0100 0
b001 1
b001100 3
04
b01 6
b000 :
b01100 ;
b01 <
b100 >
#116
b001011 *
0.
#121
b001101 3
b001011 %
b1001 &
b001010 '
b001001 )
b001 :
b01101 ;
1.
b101 >
b1001 /
#126
b001100 *
0.
#131
b001110 3
b001100 %
b1010 &
b001011 '
b001010 )
b010 :
b01110 ;
1.
b110 >
b1010 /
#136
b001101 *
0.
#141
b001111 3
b001101 %
b1011 &
b001100 '
b001011 )
b011 :
b01111 ;
1.
b111 >
b1011 /
#146
b001110 *
0.
#151
b010000 3
b001110 %
b1100 &
b001101 '
b001100 )
b100 :
b10 +
b10000 ;
1.
b000 >
b1100 /
#156
b001111 *
0.
#161
b001111 %
b1101 &
b001110 '
b001101 )
b101 :
b10001 ;
1.
b1101 /
#166
b010000 *
0.
#171
b010001 3
b010000 %
b1110 &
b001111 '
b001110 )
b110 :
b10010 ;
1.
b001 >
b1110 /
#176
b010001 *
0.
#181
b010001 %
b1111 &
b010000 '
b001111 )
b111 :
b10011 ;
1.
b1111 /
#186
b010010 *
0.
#191
b010010 %
b1000 &
b010001 '
b010000 )
1.
b1000 /
b0010 0
b010 1
b010010 3
b10 6
b000 :
b01010 ;
b10 <
b010 >
#196
b010011 *
0.
#201
b010011 3
b010011 %
b1001 &
b010010 '
b010001 )
b001 :
b01011 ;
1.
b011 >
b1001 /
#206
b010100 *
0.
#211
b010100 3
b010100 %
b1010 &
b010011 '
b010010 )
b010 :
b01100 ;
1.
b100 >
b1010 /
#216
b010101 *
0.
#221
b010101 3
b010101 %
b1011 &
b010100 '
b010011 )
b011 :
b01101 ;
1.
b101 >
b1011 /
#226
b010110 *
0.
#231
b010110 3
b010110 %
b1100 &
b010101 '
b010100 )
b100 :
b01110 ;
1.
b110 >
b1100 /
#236
b010111 *
0.
#241
b010111 3
b010111 %
b1101 &
b010110 '
b010101 )
b101 :
b01111 ;
1.
b111 >
b1101 /
#246
b011000 *
0.
#251
b011000 3
b011000 %
b1110 &
b010111 '
b010110 )
b110 :
b11 +
b10000 ;
1.
b000 >
b1110 /
#256
b011001 *
0.
#261
b011001 %
b1111 &
b011000 '
b010111 )
b111 :
b10001 ;
1.
b1111 /
#266
b011010 *
0.
#271
b011010 %
b1000 &
b011001 '
b011000 )
1.
b1000 /
b0001 0
b011 1
b011001 3
b11 6
b000 :
b01001 ;
b11 <
b001 >
#276
b011011 *
0.
#281
b011010 3
b011011 %
b1001 &
b011010 '
b011001 )
b001 :
b01010 ;
1.
b010 >
b1001 /
#286
b011100 *
0.
#291
b011011 3
b011100 %
b1010 &
b011011 '
b011010 )
b010 :
b01011 ;
1.
b011 >
b1010 /
#296
b011101 *
0.
#301
b011100 3
b011101 %
b1011 &
b011100 '
b011011 )
b011 :
b01100 ;
1.
b100 >
b1011 /
#306
b011110 *
0.
#311
b011101 3
b011110 %
b1100 &
b011101 '
b011100 )
b100 :
b01101 ;
1.
b101 >
b1100 /
#316
b011111 *
0.
#321
b011110 3
b011111 %
b1101 &
b011110 '
b011101 )
b101 :
b01110 ;
1.
b110 >
b1101 /
#326
b100000 *
0.
#331
b011111 3
b100000 %
b1110 &
b011111 '
b011110 )
b110 :
b01111 ;
1.
b111 >
b1110 /
#336
b100001 *
0.
#341
b000000 3
b100001 %
b1111 &
b100000 '
b011111 )
b111 :
b00 +
b10000 ;
1.
b000 >
b1111 /
#346
b100010 *
0.
#351
b100010 %
b1000 &
b100001 '
b100000 )
b01 +
1.
b1000 /
b1000 0
b000 1
b001000 3
14
b00 6
b000 :
b00 <
#356
b100011 *
0.
#361
b100011 %
b1001 &
b100010 '
b100001 )
b001 :
b10001 ;
1.
b1001 /
#366
b100100 *
0.
#371
b001001 3
b100100 %
b1010 &
b100011 '
b100010 )
b010 :
b10010 ;
1.
b001 >
b1010 /
#376
b100101 *
0.
#381
b100101 %
b1011 &
b100100 '
b100011 )
b011 :
b10011 ;
1.
b1011 /
#386
b100110 *
0.
#391
b001010 3
b100110 %
b1100 &
b100101 '
b100100 )
b100 :
b10100 ;
1.
b010 >
b1100 /
#396
b100111 *
0.
#401
b100111 %
b1101 &
b100110 '
b100101 )
b101 :
b10101 ;
1.
b1101 /
#406
b101000 *
0.
#411
b001011 3
b101000 %
b1110 &
b100111 '
b100110 )
b110 :
b10110 ;
1.
b011 >
b1110 /
#416
b101001 *
0.
#421
b101001 %
b1111 &
b101000 '
b100111 )
b111 :
b10111 ;
1.
b1111 /
#426
b101010 *
0.
#431
b101010 %
b1000 &
b101001 '
b101000 )
1.
b1000 /
b0100 0
b001 1
b001100 3
04
b01 6
b000 :
b01100 ;
b01 <
b100 >
#436
b101011 *
0.
#441
b001101 3
b101011 %
b1001 &
b101010 '
b101001 )
b001 :
b01101 ;
1.
b101 >
b1001 /
#446
b101100 *
0.
#451
b001110 3
b101100 %
b1010 &
b101011 '
b101010 )
b010 :
b01110 ;
1.
b110 >
b1010 /
#456
b101101 *
0.
#461
b001111 3
b101101 %
b1011 &
b101100 '
b101011 )
b011 :
b01111 ;
1.
b111 >
b1011 /
#466
b101110 *
0.
#471
b010000 3
b101110 %
b1100 &
b101101 '
b101100 )
b100 :
b10 +
b10000 ;
1.
b000 >
b1100 /
#476
b101111 *
0.
#481
b101111 %
b1101 &
b101110 '
b101101 )
b101 :
b10001 ;
1.
b1101 /
#486
b110000 *
0.
#491
b010001 3
b110000 %
b1110 &
b101111 '
b101110 )
b110 :
b10010 ;
1.
b001 >
b1110 /
#496
b110001 *
0.
#501
b110001 %
b1111 &
b110000 '
b101111 )
b111 :
b10011 ;
1.
b1111 /
#506
b110010 *
0.
#511
b110010 %
b1000 &
b110001 '
b110000 )
1.
b1000 /
b0010 0
b010 1
b010010 3
b10 6
b000 :
b01010 ;
b10 <
b010 >
#516
b110011 *
0.
#521
b010011 3
b110011 %
b1001 &
b110010 '
b110001 )
b001 :
b01011 ;
1.
b011 >
b1001 /
#526
b110100 *
0.
#531
b010100 3
b110100 %
b1010 &
b110011 '
b110010 )
b010 :
b01100 ;
1.
b100 >
b1010 /
#536
b110101 *
0.
#541
b010101 3
b110101 %
b1011 &
b110100 '
b110011 )
b011 :
b01101 ;
1.
b101 >
b1011 /
#546
b110110 *
0.
#551
b010110 3
b110110 %
b1100 &
b110101 '
b110100 )
b100 :
b01110 ;
1.
b110 >
b1100 /
#556
b110111 *
0.
#561
b010111 3
b110111 %
b1101 &
b110110 '
b110101 )
b101 :
b01111 ;
1.
b111 >
b1101 /
#566
b111000 *
0.
#571
b011000 3
b111000 %
b1110 &
b110111 '
b110110 )
b110 :
b11 +
b10000 ;
1.
b000 >
b1110 /
#576
b111001 *
0.
#581
b111001 %
b1111 &
b111000 '
b110111 )
b111 :
b10001 ;
1.
b1111 /
#586
b111010 *
0.
#591
b111010 %
b1000 &
b111001 '
b111000 )
1.
b1000 /
b0001 0
b011 1
b011001 3
b11 6
b000 :
b01001 ;
b11 <
b001 >
#596
b111011 *
0.
#601
b011010 3
b111011 %
b1001 &
b111010 '
b111001 )
b001 :
b01010 ;
1.
b010 >
b1001 /
#606
b111100 *
0.
#611
b011011 3
b111100 %
b1010 &
b111011 '
b111010 )
b010 :
b01011 ;
1.
b011 >
b1010 /
#616
b111101 *
0.
#621
b011100 3
b111101 %
b1011 &
b111100 '
b111011 )
b011 :
b01100 ;
1.
b100 >
b1011 /
#626
b111110 *
0.
#631
b011101 3
b111110 %
b1100 &
b111101 '
b111100 )
b100 :
b01101 ;
1.
b101 >
b1100 /
#636
b111111 *
0.
#641
b011110 3
b111111 %
b1101 &
b111110 '
b111101 )
b101 :
b01110 ;
1.
b110 >
b1101 /
#646
b000001 (
b000000 *
0.
#651
b011111 3
b000000 %
b1110 &
b111111 '
b000001 7
b111110 )
b110 :
b01111 ;
1.
b111 >
b1110 /
#656
b000001 *
0.
#661
b000001 %
b1111 &
b000000 '
b111111 )
b00 +
1.
b1111 /
b000000 3
b000001 8
b111 :
b10000 ;
b000 >
#666
b000010 *
0.
#671
b1001 #
b000010 %
b1000 &
b000001 '
b000000 )
b01 +
1.
b1000 /
b1001 0
b000 1
b001000 3
14
b001 5
b00 6
b000001 9
b000 :
b10001 ;
b00 <
#676
b000011 *
0.
#681
b001001 3
b000011 %
b1001 &
b000010 '
b000001 )
b001 :
b10010 ;
1.
b001 >
b1001 /
#686
b000100 *
0.
#691
b000100 %
b1010 &
b000011 '
b000010 )
b010 :
b10011 ;
1.
b1010 /
#696
b000101 *
0.
#701
b001010 3
b000101 %
b1011 &
b000100 '
b000011 )
b011 :
b10100 ;
1.
b010 >
b1011 /
#706
b000110 *
0.
#711
b000110 %
b1100 &
b000101 '
b000100 )
b100 :
b10101 ;
1.
b1100 /
#716
b000111 *
0.
#721
b001011 3
b000111 %
b1101 &
b000110 '
b000101 )
b101 :
b10110 ;
1.
b011 >
b1101 /
#726
b001000 *
0.
#731
b001000 %
b1110 &
b000111 '
b000110 )
b110 :
b10111 ;
1.
b1110 /
#736
b001001 *
0.
#741
b001100 3
b001001 %
b1111 &
b001000 '
b000111 )
b111 :
b11000 ;
1.
b100 >
b1111 /
#746
b001010 *
0.
#751
b001010 %
b1000 &
b001001 '
b001000 )
1.
b1000 /
b0100 0
b001 1
04
b01 6
b000 :
b01100 ;
b01 <
#756
b001011 *
0.
#761
b001101 3
b001011 %
b1001 &
b001010 '
b001001 )
b001 :
b01101 ;
1.
b101 >
b1001 /
#766
b001100 *
0.
#771
b001110 3
b001100 %
b1010 &
b001011 '
b001010 )
b010 :
b01110 ;
1.
b110 >
b1010 /
#776
b001101 *
0.
#781
b001111 3
b001101 %
b1011 &
b001100 '
b001011 )
b011 :
b01111 ;
1.
b111 >
b1011 /
#786
b001110 *
0.
#791
b010000 3
b001110 %
b1100 &
b001101 '
b001100 )
b100 :
b10 +
b10000 ;
1.
b000 >
b1100 /
#796
b001111 *
0.
#801
b001111 %
b1101 &
b001110 '
b001101 )
b101 :
b10001 ;
1.
b1101 /
#806
b010000 *
0.
#811
b010001 3
b010000 %
b1110 &
b001111 '
b001110 )
b110 :
b10010 ;
1.
b001 >
b1110 /
#816
b010001 *
0.
#821
b010001 %
b1111 &
b010000 '
b001111 )
b111 :
b10011 ;
1.
b1111 /
#826
b010010 *
0.
#831
b010010 %
b1000 &
b010001 '
b010000 )
1.
b1000 /
b0010 0
b010 1
b010010 3
b10 6
b000 :
b01010 ;
b10 <
b010 >
#836
b010011 *
0.
#841
b010011 3
b010011 %
b1001 &
b010010 '
b010001 )
b001 :
b01011 ;
1.
b011 >
b1001 /
#846
b010100 *
0.
#851
b010100 3
b010100 %
b1010 &
b010011 '
b010010 )
b010 :
b01100 ;
1.
b100 >
b1010 /
#856
b010101 *
0.
#861
b010101 3
b010101 %
b1011 &
b010100 '
b010011 )
b011 :
b01101 ;
1.
b101 >
b1011 /
#866
b010110 *
0.
#871
b010110 3
b010110 %
b1100 &
b010101 '
b010100 )
b100 :
b01110 ;
1.
b110 >
b1100 /
#876
b010111 *
0.
#881
b010111 3
b010111 %
b1101 &
b010110 '
b010101 )
b101 :
b01111 ;
1.
b111 >
b1101 /
#886
b011000 *
0.
#891
b011000 3
b011000 %
b1110 &
b010111 '
b010110 )
b110 :
b11 +
b10000 ;
1.
b000 >
b1110 /
#896
b011001 *
0.
#901
b011001 %
b1111 &
b011000 '
b010111 )
b111 :
b10001 ;
1.
b1111 /
#906
b011010 *
0.
#911
b011010 %
b1000 &
b011001 '
b011000 )
1.
b1000 /
b0001 0
b011 1
b011001 3
b11 6
b000 :
b01001 ;
b11 <
b001 >
#916
b011011 *
0.
#921
b011010 3
b011011 %
b1001 &
b011010 '
b011001 )
b001 :
b01010 ;
1.
b010 >
b1001 /
#926
b011100 *
0.
#931
b011011 3
b011100 %
b1010 &
b011011 '
b011010 )
b010 :
b01011 ;
1.
b011 >
b1010 /
#936
b011101 *
0.
#941
b011100 3
b011101 %
b1011 &
b011100 '
b011011 )
b011 :
b01100 ;
1.
b100 >
b1011 /
#946
b011110 *
0.
#951
b011101 3
b011110 %
b1100 &
b011101 '
b011100 )
b100 :
b01101 ;
1.
b101 >
b1100 /
#956
b011111 *
0.
#961
b011110 3
b011111 %
b1101 &
b011110 '
b011101 )
b101 :
b01110 ;
1.
b110 >
b1101 /
#966
b100000 *
0.
#971
b011111 3
b100000 %
b1110 &
b011111 '
b011110 )
b110 :
b01111 ;
1.
b111 >
b1110 /
#976
b100001 *
0.
#981
b000000 3
b100001 %
b1111 &
b100000 '
b011111 )
b111 :
b00 +
b10000 ;
1.
b000 >
b1111 /
#986
b100010 *
0.
#991
b100010 %
b1000 &
b100001 '
b100000 )
b01 +
1.
b1000 /
b1001 0
b000 1
b001000 3
14
b00 6
b000 :
b10001 ;
b00 <
#996
b100011 *
0.
#1001
b001001 3
b100011 %
b1001 &
b100010 '
b100001 )
b001 :
b10010 ;
1.
b001 >
b1001 /
#1006
b100100 *
0.
#1011
b100100 %
b1010 &
b100011 '
b100010 )
b010 :
b10011 ;
1.
b1010 /
#1016
b100101 *
0.
#1021
b001010 3
b100101 %
b1011 &
b100100 '
b100011 )
b011 :
b10100 ;
1.
b010 >
b1011 /
#1026
b100110 *
0.
#1031
b100110 %
b1100 &
b100101 '
b100100 )
b100 :
b10101 ;
1.
b1100 /
#1036
b100111 *
0.
#1041
b001011 3
b100111 %
b1101 &
b100110 '
b100101 )
b101 :
b10110 ;
1.
b011 >
b1101 /
#1046
b101000 *
0.
#1051
b101000 %
b1110 &
b100111 '
b100110 )
b110 :
b10111 ;
1.
b1110 /
#1056
b101001 *
0.
#1061
b001100 3
b101001 %
b1111 &
b101000 '
b100111 )
b111 :
b11000 ;
1.
b100 >
b1111 /
#1066
b101010 *
0.
#1071
b101010 %
b1000 &
b101001 '
b101000 )
1.
b1000 /
b0100 0
b001 1
04
b01 6
b000 :
b01100 ;
b01 <
#1076
b101011 *
0.
#1081
b001101 3
b101011 %
b1001 &
b101010 '
b101001 )
b001 :
b01101 ;
1.
b101 >
b1001 /
#1086
b101100 *
0.
#1091
b001110 3
b101100 %
b1010 &
b101011 '
b101010 )
b010 :
b01110 ;
1.
b110 >
b1010 /
#1096
b101101 *
0.
#1101
b001111 3
b101101 %
b1011 &
b101100 '
b101011 )
b011 :
b01111 ;
1.
b111 >
b1011 /
#1106
b101110 *
0.
#1111
b010000 3
b101110 %
b1100 &
b101101 '
b101100 )
b100 :
b10 +
b10000 ;
1.
b000 >
b1100 /
#1116
b101111 *
0.
#1121
b101111 %
b1101 &
b101110 '
b101101 )
b101 :
b10001 ;
1.
b1101 /
#1126
b110000 *
0.
#1131
b010001 3
b110000 %
b1110 &
b101111 '
b101110 )
b110 :
b10010 ;
1.
b001 >
b1110 /
#1136
b110001 *
0.
#1141
b110001 %
b1111 &
b110000 '
b101111 )
b111 :
b10011 ;
1.
b1111 /
#1146
b110010 *
0.
#1151
b110010 %
b1000 &
b110001 '
b110000 )
1.
b1000 /
b0010 0
b010 1
b010010 3
b10 6
b000 :
b01010 ;
b10 <
b010 >
#1156
b110011 *
0.
#1161
b010011 3
b110011 %
b1001 &
b110010 '
b110001 )
b001 :
b01011 ;
1.
b011 >
b1001 /
#1166
b110100 *
0.
#1171
b010100 3
b110100 %
b1010 &
b110011 '
b110010 )
b010 :
b01100 ;
1.
b100 >
b1010 /
#1176
b110101 *
0.
#1181
b010101 3
b110101 %
b1011 &
b110100 '
b110011 )
b011 :
b01101 ;
1.
b101 >
b1011 /
#1186
b110110 *
0.
#1191
b010110 3
b110110 %
b1100 &
b110101 '
b110100 )
b100 :
b01110 ;
1.
b110 >
b1100 /
#1196
b110111 *
0.
#1201
b010111 3
b110111 %
b1101 &
b110110 '
b110101 )
b101 :
b01111 ;
1.
b111 >
b1101 /
#1206
b111000 *
0.
#1211
b011000 3
b111000 %
b1110 &
b110111 '
b110110 )
b110 :
b11 +
b10000 ;
1.
b000 >
b1110 /
#1216
b111001 *
0.
#1221
b111001 %
b1111 &
b111000 '
b110111 )
b111 :
b10001 ;
1.
b1111 /
#1226
b111010 *
0.
#1231
b111010 %
b1000 &
b111001 '
b111000 )
1.
b1000 /
b0001 0
b011 1
b011001 3
b11 6
b000 :
b01001 ;
b11 <
b001 >
#1236
b111011 *
0.
#1241
b011010 3
b111011 %
b1001 &
b111010 '
b111001 )
b001 :
b01010 ;
1.
b010 >
b1001 /
#1246
b111100 *
0.
#1251
b011011 3
b111100 %
b1010 &
b111011 '
b111010 )
b010 :
b01011 ;
1.
b011 >
b1010 /
#1256
b111101 *
0.
#1261
b011100 3
b111101 %
b1011 &
b111100 '
b111011 )
b011 :
b01100 ;
1.
b100 >
b1011 /
#1266
b111110 *
0.
#1271
b011101 3
b111110 %
b1100 &
b111101 '
b111100 )
b100 :
b01101 ;
1.
b101 >
b1100 /
#1276
b111111 *
0.
#1281
b011110 3
b111111 %
b1101 &
b111110 '
b111101 )
b101 :
b01110 ;
1.
b110 >
b1101 /
#1286
b000010 (
b000000 *
0.
#1291
b011111 3
b000000 %
b1110 &
b111111 '
b000010 7
b111110 )
b110 :
b01111 ;
1.
b111 >
b1110 /
#1296
b000001 *
0.
#1301
b000001 %
b1111 &
b000000 '
b111111 )
b00 +
1.
b1111 /
b000000 3
b000010 8
b111 :
b10000 ;
b000 >
#1306
b000010 *
0.
#1311
b1010 #
b000010 %
b1000 &
b000001 '
b000000 )
b01 +
1.
b1000 /
b1010 0
b000 1
b001001 3
14
b010 5
b00 6
b000010 9
b000 :
b10010 ;
b00 <
b001 >
#1316
b000011 *
0.
#1321
b000011 %
b1001 &
b000010 '
b000001 )
b001 :
b10011 ;
1.
b1001 /
#1326
b000100 *
0.
#1331
b001010 3
b000100 %
b1010 &
b000011 '
b000010 )
b010 :
b10100 ;
1.
b010 >
b1010 /
#1336
b000101 *
0.
#1341
b000101 %
b1011 &
b000100 '
b000011 )
b011 :
b10101 ;
1.
b1011 /
#1346
b000110 *
0.
#1351
b001011 3
b000110 %
b1100 &
b000101 '
b000100 )
b100 :
b10110 ;
1.
b011 >
b1100 /
#1356
b000111 *
0.
#1361
b000111 %
b1101 &
b000110 '
b000101 )
b101 :
b10111 ;
1.
b1101 /
#1366
b001000 *
0.
#1371
b001100 3
b001000 %
b1110 &
b000111 '
b000110 )
b110 :
b11000 ;
1.
b100 >
b1110 /
#1376
b001001 *
0.
#1381
b001001 %
b1111 &
b001000 '
b000111 )
b111 :
b11001 ;
1.
b1111 /
#1386
b001010 *
0.
#1391
b001010 %
b1000 &
b001001 '
b001000 )
1.
b1000 /
b0101 0
b001 1
b001101 3
04
b01 6
b000 :
b01101 ;
b01 <
b101 >
#1396
b001011 *
0.
#1401
b001110 3
b001011 %
b1001 &
b001010 '
b001001 )
b001 :
b01110 ;
1.
b110 >
b1001 /
#1406
b001100 *
0.
#1411
b001111 3
b001100 %
b1010 &
b001011 '
b001010 )
b010 :
b01111 ;
1.
b111 >
b1010 /
#1416
b001101 *
0.
#1421
b010000 3
b001101 %
b1011 &
b001100 '
b001011 )
b011 :
b10 +
b10000 ;
1.
b000 >
b1011 /
#1426
b001110 *
0.
#1431
b001110 %
b1100 &
b001101 '
b001100 )
b100 :
b10001 ;
1.
b1100 /
#1436
b001111 *
0.
#1441
b010001 3
b001111 %
b1101 &
b001110 '
b001101 )
b101 :
b10010 ;
1.
b001 >
b1101 /
#1446
b010000 *
0.
#1451
b010000 %
b1110 &
b001111 '
b001110 )
b110 :
b10011 ;
1.
b1110 /
#1456
b010001 *
0.
#1461
b010010 3
b010001 %
b1111 &
b010000 '
b001111 )
b111 :
b10100 ;
1.
b010 >
b1111 /
#1466
b010010 *
0.
#1471
b010010 %
b1000 &
b010001 '
b010000 )
1.
b1000 /
b0010 0
b010 1
b10 6
b000 :
b01010 ;
b10 <
#1476
b010011 *
0.
#1481
b010011 3
b010011 %
b1001 &
b010010 '
b010001 )
b001 :
b01011 ;
1.
b011 >
b1001 /
#1486
b010100 *
0.
#1491
b010100 3
b010100 %
b1010 &
b010011 '
b010010 )
b010 :
b01100 ;
1.
b100 >
b1010 /
#1496
b010101 *
0.
#1501
b010101 3
b010101 %
b1011 &
b010100 '
b010011 )
b011 :
b01101 ;
1.
b101 >
b1011 /
#1506
b010110 *
0.
#1511
b010110 3
b010110 %
b1100 &
b010101 '
b010100 )
b100 :
b01110 ;
1.
b110 >
b1100 /
#1516
b010111 *
0.
#1521
b010111 3
b010111 %
b1101 &
b010110 '
b010101 )
b101 :
b01111 ;
1.
b111 >
b1101 /
#1526
b011000 *
0.
#1531
b011000 3
b011000 %
b1110 &
b010111 '
b010110 )
b110 :
b11 +
b10000 ;
1.
b000 >
b1110 /
#1536
b011001 *
0.
#1541
b011001 %
b1111 &
b011000 '
b010111 )
b111 :
b10001 ;
1.
b1111 /
#1546
b011010 *
0.
#1551
b011010 %
b1000 &
b011001 '
b011000 )
1.
b1000 /
b0001 0
b011 1
b011001 3
b11 6
b000 :
b01001 ;
b11 <
b001 >
#1556
b011011 *
0.
#1561
b011010 3
b011011 %
b1001 &
b011010 '
b011001 )
b001 :
b01010 ;
1.
b010 >
b1001 /
#1566
b011100 *
0.
#1571
b011011 3
b011100 %
b1010 &
b011011 '
b011010 )
b010 :
b01011 ;
1.
b011 >
b1010 /
#1576
b011101 *
0.
#1581
b011100 3
b011101 %
b1011 &
b011100 '
b011011 )
b011 :
b01100 ;
1.
b100 >
b1011 /
#1586
b011110 *
0.
#1591
b011101 3
b011110 %
b1100 &
b011101 '
b011100 )
b100 :
b01101 ;
1.
b101 >
b1100 /
#1596
b011111 *
0.
#1601
b011110 3
b011111 %
b1101 &
b011110 '
b011101 )
b101 :
b01110 ;
1.
b110 >
b1101 /
#1606
b100000 *
0.
#1611
b011111 3
b100000 %
b1110 &
b011111 '
b011110 )
b110 :
b01111 ;
1.
b111 >
b1110 /
#1616
b100001 *
0.
#1621
b000000 3
b100001 %
b1111 &
b100000 '
b011111 )
b111 :
b00 +
b10000 ;
1.
b000 >
b1111 /
#1626
b100010 *
0.
#1631
b100010 %
b1000 &
b100001 '
b100000 )
b01 +
1.
b1000 /
b1010 0
b000 1
b001001 3
14
b00 6
b000 :
b10010 ;
b00 <
b001 >
#1636
b100011 *
0.
#1641
b100011 %
b1001 &
b100010 '
b100001 )
b001 :
b10011 ;
1.
b1001 /
#1646
b100100 *
0.
#1651
b001010 3
b100100 %
b1010 &
b100011 '
b100010 )
b010 :
b10100 ;
1.
b010 >
b1010 /
#1656
b100101 *
0.
#1661
b100101 %
b1011 &
b100100 '
b100011 )
b011 :
b10101 ;
1.
b1011 /
#1666
b100110 *
0.
#1671
b001011 3
b100110 %
b1100 &
b100101 '
b100100 )
b100 :
b10110 ;
1.
b011 >
b1100 /
#1676
b100111 *
0.
#1681
b100111 %
b1101 &
b100110 '
b100101 )
b101 :
b10111 ;
1.
b1101 /
#1686
b101000 *
0.
#1691
b001100 3
b101000 %
b1110 &
b100111 '
b100110 )
b110 :
b11000 ;
1.
b100 >
b1110 /
#1696
b101001 *
0.
#1701
b101001 %
b1111 &
b101000 '
b100111 )
b111 :
b11001 ;
1.
b1111 /
#1706
b101010 *
0.
#1711
b101010 %
b1000 &
b101001 '
b101000 )
1.
b1000 /
b0101 0
b001 1
b001101 3
04
b01 6
b000 :
b01101 ;
b01 <
b101 >
#1716
b101011 *
0.
#1721
b001110 3
b101011 %
b1001 &
b101010 '
b101001 )
b001 :
b01110 ;
1.
b110 >
b1001 /
#1726
b101100 *
0.
#1731
b001111 3
b101100 %
b1010 &
b101011 '
b101010 )
b010 :
b01111 ;
1.
b111 >
b1010 /
#1736
b101101 *
0.
#1741
b010000 3
b101101 %
b1011 &
b101100 '
b101011 )
b011 :
b10 +
b10000 ;
1.
b000 >
b1011 /
#1746
b101110 *
0.
#1751
b101110 %
b1100 &
b101101 '
b101100 )
b100 :
b10001 ;
1.
b1100 /
#1756
b101111 *
0.
#1761
b010001 3
b101111 %
b1101 &
b101110 '
b101101 )
b101 :
b10010 ;
1.
b001 >
b1101 /
#1766
b110000 *
0.
#1771
b110000 %
b1110 &
b101111 '
b101110 )
b110 :
b10011 ;
1.
b1110 /
#1776
b110001 *
0.
#1781
b010010 3
b110001 %
b1111 &
b110000 '
b101111 )
b111 :
b10100 ;
1.
b010 >
b1111 /
#1786
b110010 *
0.
#1791
b110010 %
b1000 &
b110001 '
b110000 )
1.
b1000 /
b0010 0
b010 1
b10 6
b000 :
b01010 ;
b10 <
#1796
b110011 *
0.
#1801
b010011 3
b110011 %
b1001 &
b110010 '
b110001 )
b001 :
b01011 ;
1.
b011 >
b1001 /
#1806
b110100 *
0.
#1811
b010100 3
b110100 %
b1010 &
b110011 '
b110010 )
b010 :
b01100 ;
1.
b100 >
b1010 /
#1816
b110101 *
0.
#1821
b010101 3
b110101 %
b1011 &
b110100 '
b110011 )
b011 :
b01101 ;
1.
b101 >
b1011 /
#1826
b110110 *
0.
#1831
b010110 3
b110110 %
b1100 &
b110101 '
b110100 )
b100 :
b01110 ;
1.
b110 >
b1100 /
#1836
b110111 *
0.
#1841
b010111 3
b110111 %
b1101 &
b110110 '
b110101 )
b101 :
b01111 ;
1.
b111 >
b1101 /
#1846
b111000 *
0.
#1851
b011000 3
b111000 %
b1110 &
b110111 '
b110110 )
b110 :
b11 +
b10000 ;
1.
b000 >
b1110 /
#1856
b111001 *
0.
#1861
b111001 %
b1111 &
b111000 '
b110111 )
b111 :
b10001 ;
1.
b1111 /
#1866
b111010 *
0.
#1871
b111010 %
b1000 &
b111001 '
b111000 )
1.
b1000 /
b0001 0
b011 1
b011001 3
b11 6
b000 :
b01001 ;
b11 <
b001 >
#1876
b111011 *
0.
#1881
b011010 3
b111011 %
b1001 &
b111010 '
b111001 )
b001 :
b01010 ;
1.
b010 >
b1001 /
#1886
b111100 *
0.
#1891
b011011 3
b111100 %
b1010 &
b111011 '
b111010 )
b010 :
b01011 ;
1.
b011 >
b1010 /
#1896
b111101 *
0.
#1901
b011100 3
b111101 %
b1011 &
b111100 '
b111011 )
b011 :
b01100 ;
1.
b100 >
b1011 /
#1906
b111110 *
0.
#1911
b011101 3
b111110 %
b1100 &
b111101 '
b111100 )
b100 :
b01101 ;
1.
b101 >
b1100 /
#1916
b111111 *
0.
#1921
b011110 3
b111111 %
b1101 &
b111110 '
b111101 )
b101 :
b01110 ;
1.
b110 >
b1101 /
#1926
b000011 (
b000000 *
0.
#1931
b011111 3
b000000 %
b1110 &
b111111 '
b000011 7
b111110 )
b110 :
b01111 ;
1.
b111 >
b1110 /
#1936
b000001 *
0.
#1941
b000001 %
b1111 &
b000000 '
b111111 )
b00 +
1.
b1111 /
b000000 3
b000011 8
b111 :
b10000 ;
b000 >
#1946
b000010 *
0.
