test_run_dir/should_exhaustively_test_FPAdder_for_bw5_pd1/FPAdder.vcd
$date
2025-07-28T20:16+0000
$end
$version
0.2
$end
$comment

$end
$timescale 1ns  $end
$scope module FPAdder $end
 $var wire 5 ! io_out $end
 $var wire 5 " io_in_a $end
 $var wire 5 # io_in_b $end
 $var wire 1 $ reset $end
 $var wire 1 % clock $end
$upscope $end
$enddefinitions $end
$dumpvars
b00000 #
b00000 "
0$
0%
b00000 !
$end
#0
1$
#1
1%
#6
0$
0%
#11
1%
#16
b00001 !
b00001 #
0%
#21
1%
#26
b00010 !
b00010 #
0%
#31
1%
#36
b00011 !
b00011 #
0%
#41
1%
#46
b00100 !
b00100 #
0%
#51
1%
#56
b00101 !
b00101 #
0%
#61
1%
#66
b00110 !
b00110 #
0%
#71
1%
#76
b00111 !
b00111 #
0%
#81
1%
#86
b01000 !
b01000 #
0%
#91
1%
#96
b01001 !
b01001 #
0%
#101
1%
#106
b01010 !
b01010 #
0%
#111
1%
#116
b01011 !
b01011 #
0%
#121
1%
#126
b01100 !
b01100 #
0%
#131
1%
#136
b01101 !
b01101 #
0%
#141
1%
#146
b01110 !
b01110 #
0%
#151
1%
#156
b01111 !
b01111 #
0%
#161
1%
#166
b10000 !
b10000 #
0%
#171
1%
#176
b10001 !
b10001 #
0%
#181
1%
#186
b10010 !
b10010 #
0%
#191
1%
#196
b10011 !
b10011 #
0%
#201
1%
#206
b10100 !
b10100 #
0%
#211
1%
#216
b10101 !
b10101 #
0%
#221
1%
#226
b10110 !
b10110 #
0%
#231
1%
#236
b10111 !
b10111 #
0%
#241
1%
#246
b11000 !
b11000 #
0%
#251
1%
#256
b11001 !
b11001 #
0%
#261
1%
#266
b11010 !
b11010 #
0%
#271
1%
#276
b11011 !
b11011 #
0%
#281
1%
#286
b11100 !
b11100 #
0%
#291
1%
#296
b11101 !
b11101 #
0%
#301
1%
#306
b11110 !
b11110 #
0%
#311
1%
#316
b11111 !
b11111 #
0%
#321
1%
#326
b00001 !
b00001 "
b00000 #
0%
#331
1%
#336
b00010 !
b00001 #
0%
#341
1%
#346
b00011 !
b00010 #
0%
#351
1%
#356
b00100 !
b00011 #
0%
#361
1%
#366
b00101 !
b00100 #
0%
#371
1%
#376
b00110 !
b00101 #
0%
#381
1%
#386
b00111 !
b00110 #
0%
#391
1%
#396
b01000 !
b00111 #
0%
#401
1%
#406
b01001 !
b01000 #
0%
#411
1%
#416
b01010 !
b01001 #
0%
#421
1%
#426
b01011 !
b01010 #
0%
#431
1%
#436
b01100 !
b01011 #
0%
#441
1%
#446
b01101 !
b01100 #
0%
#451
1%
#456
b01110 !
b01101 #
0%
#461
1%
#466
b01111 !
b01110 #
0%
#471
1%
#476
b10000 !
b01111 #
0%
#481
1%
#486
b10001 !
b10000 #
0%
#491
1%
#496
b10010 !
b10001 #
0%
#501
1%
#506
b10011 !
b10010 #
0%
#511
1%
#516
b10100 !
b10011 #
0%
#521
1%
#526
b10101 !
b10100 #
0%
#531
1%
#536
b10110 !
b10101 #
0%
#541
1%
#546
b10111 !
b10110 #
0%
#551
1%
#556
b11000 !
b10111 #
0%
#561
1%
#566
b11001 !
b11000 #
0%
#571
1%
#576
b11010 !
b11001 #
0%
#581
1%
#586
b11011 !
b11010 #
0%
#591
1%
#596
b11100 !
b11011 #
0%
#601
1%
#606
b11101 !
b11100 #
0%
#611
1%
#616
b11110 !
b11101 #
0%
#621
1%
#626
b11111 !
b11110 #
0%
#631
1%
#636
b00000 !
b11111 #
0%
#641
1%
#646
b00010 !
b00010 "
b00000 #
0%
#651
1%
#656
b00011 !
b00001 #
0%
#661
1%
#666
b00100 !
b00010 #
0%
#671
1%
#676
b00101 !
b00011 #
0%
#681
1%
#686
b00110 !
b00100 #
0%
#691
1%
#696
b00111 !
b00101 #
0%
#701
1%
#706
b01000 !
b00110 #
0%
#711
1%
#716
b01001 !
b00111 #
0%
#721
1%
#726
b01010 !
b01000 #
0%
#731
1%
#736
b01011 !
b01001 #
0%
#741
1%
#746
b01100 !
b01010 #
0%
#751
1%
#756
b01101 !
b01011 #
0%
#761
1%
#766
b01110 !
b01100 #
0%
#771
1%
#776
b01111 !
b01101 #
0%
#781
1%
#786
b10000 !
b01110 #
0%
#791
1%
#796
b10001 !
b01111 #
0%
#801
1%
#806
b10010 !
b10000 #
0%
#811
1%
#816
b10011 !
b10001 #
0%
#821
1%
#826
b10100 !
b10010 #
0%
#831
1%
#836
b10101 !
b10011 #
0%
#841
1%
#846
b10110 !
b10100 #
0%
#851
1%
#856
b10111 !
b10101 #
0%
#861
1%
#866
b11000 !
b10110 #
0%
#871
1%
#876
b11001 !
b10111 #
0%
#881
1%
#886
b11010 !
b11000 #
0%
#891
1%
#896
b11011 !
b11001 #
0%
#901
1%
#906
b11100 !
b11010 #
0%
#911
1%
#916
b11101 !
b11011 #
0%
#921
1%
#926
b11110 !
b11100 #
0%
#931
1%
#936
b11111 !
b11101 #
0%
#941
1%
#946
b00000 !
b11110 #
0%
#951
1%
#956
b00001 !
b11111 #
0%
#961
1%
#966
b00011 !
b00011 "
b00000 #
0%
#971
1%
#976
b00100 !
b00001 #
0%
#981
1%
#986
b00101 !
b00010 #
0%
#991
1%
#996
b00110 !
b00011 #
0%
#1001
1%
#1006
b00111 !
b00100 #
0%
#1011
1%
#1016
b01000 !
b00101 #
0%
#1021
1%
#1026
b01001 !
b00110 #
0%
#1031
1%
#1036
b01010 !
b00111 #
0%
#1041
1%
#1046
b01011 !
b01000 #
0%
#1051
1%
#1056
b01100 !
b01001 #
0%
#1061
1%
#1066
b01101 !
b01010 #
0%
#1071
1%
#1076
b01110 !
b01011 #
0%
#1081
1%
#1086
b01111 !
b01100 #
0%
#1091
1%
#1096
b10000 !
b01101 #
0%
#1101
1%
#1106
b10001 !
b01110 #
0%
#1111
1%
#1116
b10010 !
b01111 #
0%
#1121
1%
#1126
b10011 !
b10000 #
0%
#1131
1%
#1136
b10100 !
b10001 #
0%
#1141
1%
#1146
b10101 !
b10010 #
0%
#1151
1%
#1156
b10110 !
b10011 #
0%
#1161
1%
#1166
b10111 !
b10100 #
0%
#1171
1%
#1176
b11000 !
b10101 #
0%
#1181
1%
#1186
b11001 !
b10110 #
0%
#1191
1%
#1196
b11010 !
b10111 #
0%
#1201
1%
#1206
b11011 !
b11000 #
0%
#1211
1%
#1216
b11100 !
b11001 #
0%
#1221
1%
#1226
b11101 !
b11010 #
0%
#1231
1%
#1236
b11110 !
b11011 #
0%
#1241
1%
#1246
b11111 !
b11100 #
0%
#1251
1%
#1256
b00000 !
b11101 #
0%
#1261
1%
#1266
b00001 !
b11110 #
0%
#1271
1%
#1276
b00010 !
b11111 #
0%
#1281
1%
#1286
b00100 !
b00100 "
b00000 #
0%
#1291
1%
#1296
b00101 !
b00001 #
0%
#1301
1%
#1306
b00110 !
b00010 #
0%
#1311
1%
#1316
b00111 !
b00011 #
0%
#1321
1%
#1326
b01000 !
b00100 #
0%
#1331
1%
#1336
b01001 !
b00101 #
0%
#1341
1%
#1346
b01010 !
b00110 #
0%
#1351
1%
#1356
b01011 !
b00111 #
0%
#1361
1%
#1366
b01100 !
b01000 #
0%
#1371
1%
#1376
b01101 !
b01001 #
0%
#1381
1%
#1386
b01110 !
b01010 #
0%
#1391
1%
#1396
b01111 !
b01011 #
0%
#1401
1%
#1406
b10000 !
b01100 #
0%
#1411
1%
#1416
b10001 !
b01101 #
0%
#1421
1%
#1426
b10010 !
b01110 #
0%
#1431
1%
#1436
b10011 !
b01111 #
0%
#1441
1%
#1446
b10100 !
b10000 #
0%
#1451
1%
#1456
b10101 !
b10001 #
0%
#1461
1%
#1466
b10110 !
b10010 #
0%
#1471
1%
#1476
b10111 !
b10011 #
0%
#1481
1%
#1486
b11000 !
b10100 #
0%
#1491
1%
#1496
b11001 !
b10101 #
0%
#1501
1%
#1506
b11010 !
b10110 #
0%
#1511
1%
#1516
b11011 !
b10111 #
0%
#1521
1%
#1526
b11100 !
b11000 #
0%
#1531
1%
#1536
b11101 !
b11001 #
0%
#1541
1%
#1546
b11110 !
b11010 #
0%
#1551
1%
#1556
b11111 !
b11011 #
0%
#1561
1%
#1566
b00000 !
b11100 #
0%
#1571
1%
#1576
b00001 !
b11101 #
0%
#1581
1%
#1586
b00010 !
b11110 #
0%
#1591
1%
#1596
b00011 !
b11111 #
0%
#1601
1%
#1606
b00101 !
b00101 "
b00000 #
0%
#1611
1%
#1616
b00110 !
b00001 #
0%
#1621
1%
#1626
b00111 !
b00010 #
0%
#1631
1%
#1636
b01000 !
b00011 #
0%
#1641
1%
#1646
b01001 !
b00100 #
0%
#1651
1%
#1656
b01010 !
b00101 #
0%
#1661
1%
#1666
b01011 !
b00110 #
0%
#1671
1%
#1676
b01100 !
b00111 #
0%
#1681
1%
#1686
b01101 !
b01000 #
0%
#1691
1%
#1696
b01110 !
b01001 #
0%
#1701
1%
#1706
b01111 !
b01010 #
0%
#1711
1%
#1716
b10000 !
b01011 #
0%
#1721
1%
#1726
b10001 !
b01100 #
0%
#1731
1%
#1736
b10010 !
b01101 #
0%
#1741
1%
#1746
b10011 !
b01110 #
0%
#1751
1%
#1756
b10100 !
b01111 #
0%
#1761
1%
#1766
b10101 !
b10000 #
0%
#1771
1%
#1776
b10110 !
b10001 #
0%
#1781
1%
#1786
b10111 !
b10010 #
0%
#1791
1%
#1796
b11000 !
b10011 #
0%
#1801
1%
#1806
b11001 !
b10100 #
0%
#1811
1%
#1816
b11010 !
b10101 #
0%
#1821
1%
#1826
b11011 !
b10110 #
0%
#1831
1%
#1836
b11100 !
b10111 #
0%
#1841
1%
#1846
b11101 !
b11000 #
0%
#1851
1%
#1856
b11110 !
b11001 #
0%
#1861
1%
#1866
b11111 !
b11010 #
0%
#1871
1%
#1876
b00000 !
b11011 #
0%
#1881
1%
#1886
b00001 !
b11100 #
0%
#1891
1%
#1896
b00010 !
b11101 #
0%
#1901
1%
#1906
b00011 !
b11110 #
0%
#1911
1%
#1916
b00100 !
b11111 #
0%
#1921
1%
#1926
b00110 !
b00110 "
b00000 #
0%
#1931
1%
#1936
b00111 !
b00001 #
0%
#1941
1%
#1946
b01000 !
b00010 #
0%
#1951
1%
#1956
b01001 !
b00011 #
0%
#1961
1%
#1966
b01010 !
b00100 #
0%
#1971
1%
#1976
b01011 !
b00101 #
0%
#1981
1%
#1986
b01100 !
b00110 #
0%
#1991
1%
#1996
b01101 !
b00111 #
0%
#2001
1%
#2006
b01110 !
b01000 #
0%
#2011
1%
#2016
b01111 !
b01001 #
0%
#2021
1%
#2026
b10000 !
b01010 #
0%
#2031
1%
#2036
b10001 !
b01011 #
0%
#2041
1%
#2046
b10010 !
b01100 #
0%
#2051
1%
#2056
b10011 !
b01101 #
0%
#2061
1%
#2066
b10100 !
b01110 #
0%
#2071
1%
#2076
b10101 !
b01111 #
0%
#2081
1%
#2086
b10110 !
b10000 #
0%
#2091
1%
#2096
b10111 !
b10001 #
0%
#2101
1%
#2106
b11000 !
b10010 #
0%
#2111
1%
#2116
b11001 !
b10011 #
0%
#2121
1%
#2126
b11010 !
b10100 #
0%
#2131
1%
#2136
b11011 !
b10101 #
0%
#2141
1%
#2146
b11100 !
b10110 #
0%
#2151
1%
#2156
b11101 !
b10111 #
0%
#2161
1%
#2166
b11110 !
b11000 #
0%
#2171
1%
#2176
b11111 !
b11001 #
0%
#2181
1%
#2186
b00000 !
b11010 #
0%
#2191
1%
#2196
b00001 !
b11011 #
0%
#2201
1%
#2206
b00010 !
b11100 #
0%
#2211
1%
#2216
b00011 !
b11101 #
0%
#2221
1%
#2226
b00100 !
b11110 #
0%
#2231
1%
#2236
b00101 !
b11111 #
0%
#2241
1%
#2246
b00111 !
b00111 "
b00000 #
0%
#2251
1%
#2256
b01000 !
b00001 #
0%
#2261
1%
#2266
b01001 !
b00010 #
0%
#2271
1%
#2276
b01010 !
b00011 #
0%
#2281
1%
#2286
b01011 !
b00100 #
0%
#2291
1%
#2296
b01100 !
b00101 #
0%
#2301
1%
#2306
b01101 !
b00110 #
0%
#2311
1%
#2316
b01110 !
b00111 #
0%
#2321
1%
#2326
b01111 !
b01000 #
0%
#2331
1%
#2336
b10000 !
b01001 #
0%
#2341
1%
#2346
b10001 !
b01010 #
0%
#2351
1%
#2356
b10010 !
b01011 #
0%
#2361
1%
#2366
b10011 !
b01100 #
0%
#2371
1%
#2376
b10100 !
b01101 #
0%
#2381
1%
#2386
b10101 !
b01110 #
0%
#2391
1%
#2396
b10110 !
b01111 #
0%
#2401
1%
#2406
b10111 !
b10000 #
0%
#2411
1%
#2416
b11000 !
b10001 #
0%
#2421
1%
#2426
b11001 !
b10010 #
0%
#2431
1%
#2436
b11010 !
b10011 #
0%
#2441
1%
#2446
b11011 !
b10100 #
0%
#2451
1%
#2456
b11100 !
b10101 #
0%
#2461
1%
#2466
b11101 !
b10110 #
0%
#2471
1%
#2476
b11110 !
b10111 #
0%
#2481
1%
#2486
b11111 !
b11000 #
0%
#2491
1%
#2496
b00000 !
b11001 #
0%
#2501
1%
#2506
b00001 !
b11010 #
0%
#2511
1%
#2516
b00010 !
b11011 #
0%
#2521
1%
#2526
b00011 !
b11100 #
0%
#2531
1%
#2536
b00100 !
b11101 #
0%
#2541
1%
#2546
b00101 !
b11110 #
0%
#2551
1%
#2556
b00110 !
b11111 #
0%
#2561
1%
#2566
b01000 !
b01000 "
b00000 #
0%
#2571
1%
#2576
b01001 !
b00001 #
0%
#2581
1%
#2586
b01010 !
b00010 #
0%
#2591
1%
#2596
b01011 !
b00011 #
0%
#2601
1%
#2606
b01100 !
b00100 #
0%
#2611
1%
#2616
b01101 !
b00101 #
0%
#2621
1%
#2626
b01110 !
b00110 #
0%
#2631
1%
#2636
b01111 !
b00111 #
0%
#2641
1%
#2646
b10000 !
b01000 #
0%
#2651
1%
#2656
b10001 !
b01001 #
0%
#2661
1%
#2666
b10010 !
b01010 #
0%
#2671
1%
#2676
b10011 !
b01011 #
0%
#2681
1%
#2686
b10100 !
b01100 #
0%
#2691
1%
#2696
b10101 !
b01101 #
0%
#2701
1%
#2706
b10110 !
b01110 #
0%
#2711
1%
#2716
b10111 !
b01111 #
0%
#2721
1%
#2726
b11000 !
b10000 #
0%
#2731
1%
#2736
b11001 !
b10001 #
0%
#2741
1%
#2746
b11010 !
b10010 #
0%
#2751
1%
#2756
b11011 !
b10011 #
0%
#2761
1%
#2766
b11100 !
b10100 #
0%
#2771
1%
#2776
b11101 !
b10101 #
0%
#2781
1%
#2786
b11110 !
b10110 #
0%
#2791
1%
#2796
b11111 !
b10111 #
0%
#2801
1%
#2806
b00000 !
b11000 #
0%
#2811
1%
#2816
b00001 !
b11001 #
0%
#2821
1%
#2826
b00010 !
b11010 #
0%
#2831
1%
#2836
b00011 !
b11011 #
0%
#2841
1%
#2846
b00100 !
b11100 #
0%
#2851
1%
#2856
b00101 !
b11101 #
0%
#2861
1%
#2866
b00110 !
b11110 #
0%
#2871
1%
#2876
b00111 !
b11111 #
0%
#2881
1%
#2886
b01001 !
b01001 "
b00000 #
0%
#2891
1%
#2896
b01010 !
b00001 #
0%
#2901
1%
#2906
b01011 !
b00010 #
0%
#2911
1%
#2916
b01100 !
b00011 #
0%
#2921
1%
#2926
b01101 !
b00100 #
0%
#2931
1%
#2936
b01110 !
b00101 #
0%
#2941
1%
#2946
b01111 !
b00110 #
0%
#2951
1%
#2956
b10000 !
b00111 #
0%
#2961
1%
#2966
b10001 !
b01000 #
0%
#2971
1%
#2976
b10010 !
b01001 #
0%
#2981
1%
#2986
b10011 !
b01010 #
0%
#2991
1%
#2996
b10100 !
b01011 #
0%
#3001
1%
#3006
b10101 !
b01100 #
0%
#3011
1%
#3016
b10110 !
b01101 #
0%
#3021
1%
#3026
b10111 !
b01110 #
0%
#3031
1%
#3036
b11000 !
b01111 #
0%
#3041
1%
#3046
b11001 !
b10000 #
0%
#3051
1%
#3056
b11010 !
b10001 #
0%
#3061
1%
#3066
b11011 !
b10010 #
0%
#3071
1%
#3076
b11100 !
b10011 #
0%
#3081
1%
#3086
b11101 !
b10100 #
0%
#3091
1%
#3096
b11110 !
b10101 #
0%
#3101
1%
#3106
b11111 !
b10110 #
0%
#3111
1%
#3116
b00000 !
b10111 #
0%
#3121
1%
#3126
b00001 !
b11000 #
0%
#3131
1%
#3136
b00010 !
b11001 #
0%
#3141
1%
#3146
b00011 !
b11010 #
0%
#3151
1%
#3156
b00100 !
b11011 #
0%
#3161
1%
#3166
b00101 !
b11100 #
0%
#3171
1%
#3176
b00110 !
b11101 #
0%
#3181
1%
#3186
b00111 !
b11110 #
0%
#3191
1%
#3196
b01000 !
b11111 #
0%
#3201
1%
#3206
b01010 !
b01010 "
b00000 #
0%
#3211
1%
#3216
b01011 !
b00001 #
0%
#3221
1%
#3226
b01100 !
b00010 #
0%
#3231
1%
#3236
b01101 !
b00011 #
0%
#3241
1%
#3246
b01110 !
b00100 #
0%
#3251
1%
#3256
b01111 !
b00101 #
0%
#3261
1%
#3266
b10000 !
b00110 #
0%
#3271
1%
#3276
b10001 !
b00111 #
0%
#3281
1%
#3286
b10010 !
b01000 #
0%
#3291
1%
#3296
b10011 !
b01001 #
0%
#3301
1%
#3306
b10100 !
b01010 #
0%
#3311
1%
#3316
b10101 !
b01011 #
0%
#3321
1%
#3326
b10110 !
b01100 #
0%
#3331
1%
#3336
b10111 !
b01101 #
0%
#3341
1%
#3346
b11000 !
b01110 #
0%
#3351
1%
#3356
b11001 !
b01111 #
0%
#3361
1%
#3366
b11010 !
b10000 #
0%
#3371
1%
#3376
b11011 !
b10001 #
0%
#3381
1%
#3386
b11100 !
b10010 #
0%
#3391
1%
#3396
b11101 !
b10011 #
0%
#3401
1%
#3406
b11110 !
b10100 #
0%
#3411
1%
#3416
b11111 !
b10101 #
0%
#3421
1%
#3426
b00000 !
b10110 #
0%
#3431
1%
#3436
b00001 !
b10111 #
0%
#3441
1%
#3446
b00010 !
b11000 #
0%
#3451
1%
#3456
b00011 !
b11001 #
0%
#3461
1%
#3466
b00100 !
b11010 #
0%
#3471
1%
#3476
b00101 !
b11011 #
0%
#3481
1%
#3486
b00110 !
b11100 #
0%
#3491
1%
#3496
b00111 !
b11101 #
0%
#3501
1%
#3506
b01000 !
b11110 #
0%
#3511
1%
#3516
b01001 !
b11111 #
0%
#3521
1%
#3526
b01011 !
b01011 "
b00000 #
0%
#3531
1%
#3536
b01100 !
b00001 #
0%
#3541
1%
#3546
b01101 !
b00010 #
0%
#3551
1%
#3556
b01110 !
b00011 #
0%
#3561
1%
#3566
b01111 !
b00100 #
0%
#3571
1%
#3576
b10000 !
b00101 #
0%
#3581
1%
#3586
b10001 !
b00110 #
0%
#3591
1%
#3596
b10010 !
b00111 #
0%
#3601
1%
#3606
b10011 !
b01000 #
0%
#3611
1%
#3616
b10100 !
b01001 #
0%
#3621
1%
#3626
b10101 !
b01010 #
0%
#3631
1%
#3636
b10110 !
b01011 #
0%
#3641
1%
#3646
b10111 !
b01100 #
0%
#3651
1%
#3656
b11000 !
b01101 #
0%
#3661
1%
#3666
b11001 !
b01110 #
0%
#3671
1%
#3676
b11010 !
b01111 #
0%
#3681
1%
#3686
b11011 !
b10000 #
0%
#3691
1%
#3696
b11100 !
b10001 #
0%
#3701
1%
#3706
b11101 !
b10010 #
0%
#3711
1%
#3716
b11110 !
b10011 #
0%
#3721
1%
#3726
b11111 !
b10100 #
0%
#3731
1%
#3736
b00000 !
b10101 #
0%
#3741
1%
#3746
b00001 !
b10110 #
0%
#3751
1%
#3756
b00010 !
b10111 #
0%
#3761
1%
#3766
b00011 !
b11000 #
0%
#3771
1%
#3776
b00100 !
b11001 #
0%
#3781
1%
#3786
b00101 !
b11010 #
0%
#3791
1%
#3796
b00110 !
b11011 #
0%
#3801
1%
#3806
b00111 !
b11100 #
0%
#3811
1%
#3816
b01000 !
b11101 #
0%
#3821
1%
#3826
b01001 !
b11110 #
0%
#3831
1%
#3836
b01010 !
b11111 #
0%
#3841
1%
#3846
b01100 !
b01100 "
b00000 #
0%
#3851
1%
#3856
b01101 !
b00001 #
0%
#3861
1%
#3866
b01110 !
b00010 #
0%
#3871
1%
#3876
b01111 !
b00011 #
0%
#3881
1%
#3886
b10000 !
b00100 #
0%
#3891
1%
#3896
b10001 !
b00101 #
0%
#3901
1%
#3906
b10010 !
b00110 #
0%
#3911
1%
#3916
b10011 !
b00111 #
0%
#3921
1%
#3926
b10100 !
b01000 #
0%
#3931
1%
#3936
b10101 !
b01001 #
0%
#3941
1%
#3946
b10110 !
b01010 #
0%
#3951
1%
#3956
b10111 !
b01011 #
0%
#3961
1%
#3966
b11000 !
b01100 #
0%
#3971
1%
#3976
b11001 !
b01101 #
0%
#3981
1%
#3986
b11010 !
b01110 #
0%
#3991
1%
#3996
b11011 !
b01111 #
0%
#4001
1%
#4006
b11100 !
b10000 #
0%
#4011
1%
#4016
b11101 !
b10001 #
0%
#4021
1%
#4026
b11110 !
b10010 #
0%
#4031
1%
#4036
b11111 !
b10011 #
0%
#4041
1%
#4046
b00000 !
b10100 #
0%
#4051
1%
#4056
b00001 !
b10101 #
0%
#4061
1%
#4066
b00010 !
b10110 #
0%
#4071
1%
#4076
b00011 !
b10111 #
0%
#4081
1%
#4086
b00100 !
b11000 #
0%
#4091
1%
#4096
b00101 !
b11001 #
0%
#4101
1%
#4106
b00110 !
b11010 #
0%
#4111
1%
#4116
b00111 !
b11011 #
0%
#4121
1%
#4126
b01000 !
b11100 #
0%
#4131
1%
#4136
b01001 !
b11101 #
0%
#4141
1%
#4146
b01010 !
b11110 #
0%
#4151
1%
#4156
b01011 !
b11111 #
0%
#4161
1%
#4166
b01101 !
b01101 "
b00000 #
0%
#4171
1%
#4176
b01110 !
b00001 #
0%
#4181
1%
#4186
b01111 !
b00010 #
0%
#4191
1%
#4196
b10000 !
b00011 #
0%
#4201
1%
#4206
b10001 !
b00100 #
0%
#4211
1%
#4216
b10010 !
b00101 #
0%
#4221
1%
#4226
b10011 !
b00110 #
0%
#4231
1%
#4236
b10100 !
b00111 #
0%
#4241
1%
#4246
b10101 !
b01000 #
0%
#4251
1%
#4256
b10110 !
b01001 #
0%
#4261
1%
#4266
b10111 !
b01010 #
0%
#4271
1%
#4276
b11000 !
b01011 #
0%
#4281
1%
#4286
b11001 !
b01100 #
0%
#4291
1%
#4296
b11010 !
b01101 #
0%
#4301
1%
#4306
b11011 !
b01110 #
0%
#4311
1%
#4316
b11100 !
b01111 #
0%
#4321
1%
#4326
b11101 !
b10000 #
0%
#4331
1%
#4336
b11110 !
b10001 #
0%
#4341
1%
#4346
b11111 !
b10010 #
0%
#4351
1%
#4356
b00000 !
b10011 #
0%
#4361
1%
#4366
b00001 !
b10100 #
0%
#4371
1%
#4376
b00010 !
b10101 #
0%
#4381
1%
#4386
b00011 !
b10110 #
0%
#4391
1%
#4396
b00100 !
b10111 #
0%
#4401
1%
#4406
b00101 !
b11000 #
0%
#4411
1%
#4416
b00110 !
b11001 #
0%
#4421
1%
#4426
b00111 !
b11010 #
0%
#4431
1%
#4436
b01000 !
b11011 #
0%
#4441
1%
#4446
b01001 !
b11100 #
0%
#4451
1%
#4456
b01010 !
b11101 #
0%
#4461
1%
#4466
b01011 !
b11110 #
0%
#4471
1%
#4476
b01100 !
b11111 #
0%
#4481
1%
#4486
b01110 !
b01110 "
b00000 #
0%
#4491
1%
#4496
b01111 !
b00001 #
0%
#4501
1%
#4506
b10000 !
b00010 #
0%
#4511
1%
#4516
b10001 !
b00011 #
0%
#4521
1%
#4526
b10010 !
b00100 #
0%
#4531
1%
#4536
b10011 !
b00101 #
0%
#4541
1%
#4546
b10100 !
b00110 #
0%
#4551
1%
#4556
b10101 !
b00111 #
0%
#4561
1%
#4566
b10110 !
b01000 #
0%
#4571
1%
#4576
b10111 !
b01001 #
0%
#4581
1%
#4586
b11000 !
b01010 #
0%
#4591
1%
#4596
b11001 !
b01011 #
0%
#4601
1%
#4606
b11010 !
b01100 #
0%
#4611
1%
#4616
b11011 !
b01101 #
0%
#4621
1%
#4626
b11100 !
b01110 #
0%
#4631
1%
#4636
b11101 !
b01111 #
0%
#4641
1%
#4646
b11110 !
b10000 #
0%
#4651
1%
#4656
b11111 !
b10001 #
0%
#4661
1%
#4666
b00000 !
b10010 #
0%
#4671
1%
#4676
b00001 !
b10011 #
0%
#4681
1%
#4686
b00010 !
b10100 #
0%
#4691
1%
#4696
b00011 !
b10101 #
0%
#4701
1%
#4706
b00100 !
b10110 #
0%
#4711
1%
#4716
b00101 !
b10111 #
0%
#4721
1%
#4726
b00110 !
b11000 #
0%
#4731
1%
#4736
b00111 !
b11001 #
0%
#4741
1%
#4746
b01000 !
b11010 #
0%
#4751
1%
#4756
b01001 !
b11011 #
0%
#4761
1%
#4766
b01010 !
b11100 #
0%
#4771
1%
#4776
b01011 !
b11101 #
0%
#4781
1%
#4786
b01100 !
b11110 #
0%
#4791
1%
#4796
b01101 !
b11111 #
0%
#4801
1%
#4806
b01111 !
b01111 "
b00000 #
0%
#4811
1%
#4816
b10000 !
b00001 #
0%
#4821
1%
#4826
b10001 !
b00010 #
0%
#4831
1%
#4836
b10010 !
b00011 #
0%
#4841
1%
#4846
b10011 !
b00100 #
0%
#4851
1%
#4856
b10100 !
b00101 #
0%
#4861
1%
#4866
b10101 !
b00110 #
0%
#4871
1%
#4876
b10110 !
b00111 #
0%
#4881
1%
#4886
b10111 !
b01000 #
0%
#4891
1%
#4896
b11000 !
b01001 #
0%
#4901
1%
#4906
b11001 !
b01010 #
0%
#4911
1%
#4916
b11010 !
b01011 #
0%
#4921
1%
#4926
b11011 !
b01100 #
0%
#4931
1%
#4936
b11100 !
b01101 #
0%
#4941
1%
#4946
b11101 !
b01110 #
0%
#4951
1%
#4956
b11110 !
b01111 #
0%
#4961
1%
#4966
b11111 !
b10000 #
0%
#4971
1%
#4976
b00000 !
b10001 #
0%
#4981
1%
#4986
b00001 !
b10010 #
0%
#4991
1%
#4996
b00010 !
b10011 #
0%
#5001
1%
#5006
b00011 !
b10100 #
0%
#5011
1%
#5016
b00100 !
b10101 #
0%
#5021
1%
#5026
b00101 !
b10110 #
0%
#5031
1%
#5036
b00110 !
b10111 #
0%
#5041
1%
#5046
b00111 !
b11000 #
0%
#5051
1%
#5056
b01000 !
b11001 #
0%
#5061
1%
#5066
b01001 !
b11010 #
0%
#5071
1%
#5076
b01010 !
b11011 #
0%
#5081
1%
#5086
b01011 !
b11100 #
0%
#5091
1%
#5096
b01100 !
b11101 #
0%
#5101
1%
#5106
b01101 !
b11110 #
0%
#5111
1%
#5116
b01110 !
b11111 #
0%
#5121
1%
#5126
b10000 !
b10000 "
b00000 #
0%
#5131
1%
#5136
b10001 !
b00001 #
0%
#5141
1%
#5146
b10010 !
b00010 #
0%
#5151
1%
#5156
b10011 !
b00011 #
0%
#5161
1%
#5166
b10100 !
b00100 #
0%
#5171
1%
#5176
b10101 !
b00101 #
0%
#5181
1%
#5186
b10110 !
b00110 #
0%
#5191
1%
#5196
b10111 !
b00111 #
0%
#5201
1%
#5206
b11000 !
b01000 #
0%
#5211
1%
#5216
b11001 !
b01001 #
0%
#5221
1%
#5226
b11010 !
b01010 #
0%
#5231
1%
#5236
b11011 !
b01011 #
0%
#5241
1%
#5246
b11100 !
b01100 #
0%
#5251
1%
#5256
b11101 !
b01101 #
0%
#5261
1%
#5266
b11110 !
b01110 #
0%
#5271
1%
#5276
b11111 !
b01111 #
0%
#5281
1%
#5286
b00000 !
b10000 #
0%
#5291
1%
#5296
b00001 !
b10001 #
0%
#5301
1%
#5306
b00010 !
b10010 #
0%
#5311
1%
#5316
b00011 !
b10011 #
0%
#5321
1%
#5326
b00100 !
b10100 #
0%
#5331
1%
#5336
b00101 !
b10101 #
0%
#5341
1%
#5346
b00110 !
b10110 #
0%
#5351
1%
#5356
b00111 !
b10111 #
0%
#5361
1%
#5366
b01000 !
b11000 #
0%
#5371
1%
#5376
b01001 !
b11001 #
0%
#5381
1%
#5386
b01010 !
b11010 #
0%
#5391
1%
#5396
b01011 !
b11011 #
0%
#5401
1%
#5406
b01100 !
b11100 #
0%
#5411
1%
#5416
b01101 !
b11101 #
0%
#5421
1%
#5426
b01110 !
b11110 #
0%
#5431
1%
#5436
b01111 !
b11111 #
0%
#5441
1%
#5446
b10001 !
b10001 "
b00000 #
0%
#5451
1%
#5456
b10010 !
b00001 #
0%
#5461
1%
#5466
b10011 !
b00010 #
0%
#5471
1%
#5476
b10100 !
b00011 #
0%
#5481
1%
#5486
b10101 !
b00100 #
0%
#5491
1%
#5496
b10110 !
b00101 #
0%
#5501
1%
#5506
b10111 !
b00110 #
0%
#5511
1%
#5516
b11000 !
b00111 #
0%
#5521
1%
#5526
b11001 !
b01000 #
0%
#5531
1%
#5536
b11010 !
b01001 #
0%
#5541
1%
#5546
b11011 !
b01010 #
0%
#5551
1%
#5556
b11100 !
b01011 #
0%
#5561
1%
#5566
b11101 !
b01100 #
0%
#5571
1%
#5576
b11110 !
b01101 #
0%
#5581
1%
#5586
b11111 !
b01110 #
0%
#5591
1%
#5596
b00000 !
b01111 #
0%
#5601
1%
#5606
b00001 !
b10000 #
0%
#5611
1%
#5616
b00010 !
b10001 #
0%
#5621
1%
#5626
b00011 !
b10010 #
0%
#5631
1%
#5636
b00100 !
b10011 #
0%
#5641
1%
#5646
b00101 !
b10100 #
0%
#5651
1%
#5656
b00110 !
b10101 #
0%
#5661
1%
#5666
b00111 !
b10110 #
0%
#5671
1%
#5676
b01000 !
b10111 #
0%
#5681
1%
#5686
b01001 !
b11000 #
0%
#5691
1%
#5696
b01010 !
b11001 #
0%
#5701
1%
#5706
b01011 !
b11010 #
0%
#5711
1%
