test_run_dir/should_run_accumulating_SAD_correctly_for_bw5_pd7/SAD.vcd
$date
2025-07-24T21:02+0000
$end
$version
0.2
$end
$comment

$end
$timescale 1ns  $end
$scope module SAD $end
 $var wire 1 ! io_valid_in $end
 $var wire 1 " io_valid_out $end
 $var wire 32 % sumReg $end
 $var wire 1 & clock $end
 $var wire 6 ' absDelay $end
 $var wire 5 ) io_b $end
 $var wire 5 * io_a $end
 $var wire 1 + reset $end
 $var wire 1 , sub $end
 $var wire 32 - io_sum $end
 $var wire 6 . delayRegs_5 $end
 $var wire 6 / delayRegs_4 $end
 $var wire 6 0 delayRegs_3 $end
 $var wire 6 1 delayRegs_2 $end
 $var wire 6 2 delayRegs_1 $end
 $var wire 6 3 delayRegs_0 $end
 $var wire 1 4 validRegs_4 $end
 $var wire 1 5 validRegs_5 $end
 $var wire 1 6 validRegs_6 $end
 $var wire 1 9 abs $end
 $var wire 1 : validRegs_0 $end
 $var wire 1 ; validRegs_1 $end
 $var wire 1 < validRegs_2 $end
 $var wire 1 = validRegs_3 $end
  $scope module sub $end
   $var wire 5 # io_a $end
   $var wire 5 $ io_b $end
   $var wire 6 7 io_diff $end
  $upscope $end
  $scope module abs $end
   $var wire 6 ( io_out $end
   $var wire 6 8 io_in $end
  $upscope $end
$upscope $end
$enddefinitions $end
$dumpvars
b000000 7
b00000000000000000000000000000000 -
b000000 8
04
05
06
b000000 /
09
b000000 .
0:
b00000000000000000000000000000000 %
b000000 1
0;
b000000 0
0<
b000000 3
0=
b000000 2
b00000 #
b000000 '
b00000 $
b000000 (
b00000 )
b00000 *
0!
0"
0&
0+
0,
$end
#0
1+
#1
1&
#6
1!
0&
0+
#11
1&
1:
#16
b00001 $
0&
b111111 7
b000001 (
b111111 8
b00001 )
#21
b000001 3
1&
1;
#26
b00010 $
0&
b111110 7
b000010 (
b111110 8
b00010 )
#31
b000001 2
b000010 3
1&
1<
#36
b00011 $
0&
b111101 7
b000011 (
b111101 8
b00011 )
#41
b000001 1
b000010 2
b000011 3
1&
1=
#46
b00100 $
0&
b111100 7
b000100 (
b111100 8
b00100 )
#51
b000001 0
b000010 1
b000011 2
b000100 3
14
1&
#56
b00101 $
0&
b111011 7
b000101 (
b111011 8
b00101 )
#61
b000010 0
b000011 1
b000100 2
b000101 3
15
1&
b000001 /
#66
b00110 $
0&
b111010 7
b000110 (
b111010 8
b00110 )
#71
b000011 0
b000100 1
1"
b000101 2
b000110 3
1&
16
b000001 '
b000001 .
b000010 /
#76
b00111 $
0&
b111001 7
b000111 (
b111001 8
b00111 )
#81
b000100 0
b000101 1
b000110 2
b000111 3
b00000000000000000000000000000001 %
1&
b000010 '
b00000000000000000000000000000001 -
b000010 .
b000011 /
#86
b01000 $
0&
b111000 7
b001000 (
b111000 8
b01000 )
#91
b000101 0
b000110 1
b000111 2
b001000 3
b00000000000000000000000000000011 %
1&
b000011 '
b00000000000000000000000000000011 -
b000011 .
b000100 /
#96
b01001 $
0&
b110111 7
b001001 (
b110111 8
b01001 )
#101
b000110 0
b000111 1
b001000 2
b001001 3
b00000000000000000000000000000110 %
1&
b000100 '
b00000000000000000000000000000110 -
b000100 .
b000101 /
#106
b01010 $
0&
b110110 7
b001010 (
b110110 8
b01010 )
#111
b000111 0
b001000 1
b001001 2
b001010 3
b00000000000000000000000000001010 %
1&
b000101 '
b00000000000000000000000000001010 -
b000101 .
b000110 /
#116
b01011 $
0&
b110101 7
b001011 (
b110101 8
b01011 )
#121
b001000 0
b001001 1
b001010 2
b001011 3
b00000000000000000000000000001111 %
1&
b000110 '
b00000000000000000000000000001111 -
b000110 .
b000111 /
#126
b01100 $
0&
b110100 7
b001100 (
b110100 8
b01100 )
#131
b001001 0
b001010 1
b001011 2
b001100 3
b00000000000000000000000000010101 %
1&
b000111 '
b00000000000000000000000000010101 -
b000111 .
b001000 /
#136
b01101 $
0&
b110011 7
b001101 (
b110011 8
b01101 )
#141
b001010 0
b001011 1
b001100 2
b001101 3
b00000000000000000000000000011100 %
1&
b001000 '
b00000000000000000000000000011100 -
b001000 .
b001001 /
#146
b01110 $
0&
b110010 7
b001110 (
b110010 8
b01110 )
#151
b001011 0
b001100 1
b001101 2
b001110 3
b00000000000000000000000000100100 %
1&
b001001 '
b00000000000000000000000000100100 -
b001001 .
b001010 /
#156
b01111 $
0&
b110001 7
b001111 (
b110001 8
b01111 )
#161
b001100 0
b001101 1
b001110 2
b001111 3
b00000000000000000000000000101101 %
1&
b001010 '
b00000000000000000000000000101101 -
b001010 .
b001011 /
#166
b10000 $
0&
b110000 7
b010000 (
b110000 8
b10000 )
#171
b001101 0
b001110 1
b001111 2
b010000 3
b00000000000000000000000000110111 %
1&
b001011 '
b00000000000000000000000000110111 -
b001011 .
b001100 /
#176
b10001 $
0&
b001111 7
b001111 (
b001111 8
b10001 )
#181
b001110 0
b001111 1
b010000 2
b001111 3
b00000000000000000000000001000010 %
1&
b001100 '
b00000000000000000000000001000010 -
b001100 .
b001101 /
#186
b10010 $
0&
b001110 7
b001110 (
b001110 8
b10010 )
#191
b001111 0
b010000 1
b001111 2
b001110 3
b00000000000000000000000001001110 %
1&
b001101 '
b00000000000000000000000001001110 -
b001101 .
b001110 /
#196
b10011 $
0&
b001101 7
b001101 (
b001101 8
b10011 )
#201
b010000 0
b001111 1
b001110 2
b001101 3
b00000000000000000000000001011011 %
1&
b001110 '
b00000000000000000000000001011011 -
b001110 .
b001111 /
#206
b10100 $
0&
b001100 7
b001100 (
b001100 8
b10100 )
#211
b001111 0
b001110 1
b001101 2
b001100 3
b00000000000000000000000001101001 %
1&
b001111 '
b00000000000000000000000001101001 -
b001111 .
b010000 /
#216
b10101 $
0&
b001011 7
b001011 (
b001011 8
b10101 )
#221
b001110 0
b001101 1
b001100 2
b001011 3
b00000000000000000000000001111000 %
1&
b010000 '
b00000000000000000000000001111000 -
b010000 .
b001111 /
#226
b10110 $
0&
b001010 7
b001010 (
b001010 8
b10110 )
#231
b001101 0
b001100 1
b001011 2
b001010 3
b00000000000000000000000010001000 %
1&
b001111 '
b00000000000000000000000010001000 -
b001111 .
b001110 /
#236
b10111 $
0&
b001001 7
b001001 (
b001001 8
b10111 )
#241
b001100 0
b001011 1
b001010 2
b001001 3
b00000000000000000000000010010111 %
1&
b001110 '
b00000000000000000000000010010111 -
b001110 .
b001101 /
#246
b11000 $
0&
b001000 7
b001000 (
b001000 8
b11000 )
#251
b001011 0
b001010 1
b001001 2
b001000 3
b00000000000000000000000010100101 %
1&
b001101 '
b00000000000000000000000010100101 -
b001101 .
b001100 /
#256
b11001 $
0&
b000111 7
b000111 (
b000111 8
b11001 )
#261
b001010 0
b001001 1
b001000 2
b000111 3
b00000000000000000000000010110010 %
1&
b001100 '
b00000000000000000000000010110010 -
b001100 .
b001011 /
#266
b11010 $
0&
b000110 7
b000110 (
b000110 8
b11010 )
#271
b001001 0
b001000 1
b000111 2
b000110 3
b00000000000000000000000010111110 %
1&
b001011 '
b00000000000000000000000010111110 -
b001011 .
b001010 /
#276
b11011 $
0&
b000101 7
b000101 (
b000101 8
b11011 )
#281
b001000 0
b000111 1
b000110 2
b000101 3
b00000000000000000000000011001001 %
1&
b001010 '
b00000000000000000000000011001001 -
b001010 .
b001001 /
#286
b11100 $
0&
b000100 7
b000100 (
b000100 8
b11100 )
#291
b000111 0
b000110 1
b000101 2
b000100 3
b00000000000000000000000011010011 %
1&
b001001 '
b00000000000000000000000011010011 -
b001001 .
b001000 /
#296
b11101 $
0&
b000011 7
b000011 (
b000011 8
b11101 )
#301
b000110 0
b000101 1
b000100 2
b000011 3
b00000000000000000000000011011100 %
1&
b001000 '
b00000000000000000000000011011100 -
b001000 .
b000111 /
#306
b11110 $
0&
b000010 7
b000010 (
b000010 8
b11110 )
#311
b000101 0
b000100 1
b000011 2
b000010 3
b00000000000000000000000011100100 %
1&
b000111 '
b00000000000000000000000011100100 -
b000111 .
b000110 /
#316
b11111 $
0&
b000001 7
b000001 (
b000001 8
b11111 )
#321
b000100 0
b000011 1
b000010 2
b000001 3
b00000000000000000000000011101011 %
1&
b000110 '
b00000000000000000000000011101011 -
b000110 .
b000101 /
#326
b00001 #
b00000 $
0&
b00000 )
b00001 *
#331
b000011 0
b000010 1
b000001 2
b00000000000000000000000011110001 %
1&
b000101 '
b00000000000000000000000011110001 -
b000101 .
b000100 /
#336
b00001 $
0&
b000000 7
b000000 (
b000000 8
b00001 )
#341
b000010 0
b000001 1
b000000 3
b00000000000000000000000011110110 %
1&
b000100 '
b00000000000000000000000011110110 -
b000100 .
b000011 /
#346
b00010 $
0&
b111111 7
b000001 (
b111111 8
b00010 )
#351
b000001 0
b000000 2
b000001 3
b00000000000000000000000011111010 %
1&
b000011 '
b00000000000000000000000011111010 -
b000011 .
b000010 /
#356
b00011 $
0&
b111110 7
b000010 (
b111110 8
b00011 )
#361
b000000 1
b000001 2
b000010 3
b00000000000000000000000011111101 %
1&
b000010 '
b00000000000000000000000011111101 -
b000010 .
b000001 /
#366
b00100 $
0&
b111101 7
b000011 (
b111101 8
b00100 )
#371
b000000 0
b000001 1
b000010 2
b000011 3
b00000000000000000000000011111111 %
1&
b000001 '
b00000000000000000000000011111111 -
b000001 .
#376
b00101 $
0&
b111100 7
b000100 (
b111100 8
b00101 )
#381
b000001 0
b000010 1
b000011 2
b000100 3
b00000000000000000000000100000000 %
1&
b00000000000000000000000100000000 -
b000000 /
#386
b00110 $
0&
b111011 7
b000101 (
b111011 8
b00110 )
#391
b000010 0
b000011 1
b000100 2
b000101 3
b00000000000000000000000100000001 %
1&
b000000 '
b00000000000000000000000100000001 -
b000000 .
b000001 /
#396
b00111 $
0&
b111010 7
b000110 (
b111010 8
b00111 )
#401
b000011 0
b000100 1
b000101 2
b000110 3
1&
b000001 '
b000001 .
b000010 /
#406
b01000 $
0&
b111001 7
b000111 (
b111001 8
b01000 )
#411
b000100 0
b000101 1
b000110 2
b000111 3
b00000000000000000000000100000010 %
1&
b000010 '
b00000000000000000000000100000010 -
b000010 .
b000011 /
#416
b01001 $
0&
b111000 7
b001000 (
b111000 8
b01001 )
#421
b000101 0
b000110 1
b000111 2
b001000 3
b00000000000000000000000100000100 %
1&
b000011 '
b00000000000000000000000100000100 -
b000011 .
b000100 /
#426
b01010 $
0&
b110111 7
b001001 (
b110111 8
b01010 )
#431
b000110 0
b000111 1
b001000 2
b001001 3
b00000000000000000000000100000111 %
1&
b000100 '
b00000000000000000000000100000111 -
b000100 .
b000101 /
#436
b01011 $
0&
b110110 7
b001010 (
b110110 8
b01011 )
#441
b000111 0
b001000 1
b001001 2
b001010 3
b00000000000000000000000100001011 %
1&
b000101 '
b00000000000000000000000100001011 -
b000101 .
b000110 /
#446
b01100 $
0&
b110101 7
b001011 (
b110101 8
b01100 )
#451
b001000 0
b001001 1
b001010 2
b001011 3
b00000000000000000000000100010000 %
1&
b000110 '
b00000000000000000000000100010000 -
b000110 .
b000111 /
#456
b01101 $
0&
b110100 7
b001100 (
b110100 8
b01101 )
#461
b001001 0
b001010 1
b001011 2
b001100 3
b00000000000000000000000100010110 %
1&
b000111 '
b00000000000000000000000100010110 -
b000111 .
b001000 /
#466
b01110 $
0&
b110011 7
b001101 (
b110011 8
b01110 )
#471
b001010 0
b001011 1
b001100 2
b001101 3
b00000000000000000000000100011101 %
1&
b001000 '
b00000000000000000000000100011101 -
b001000 .
b001001 /
#476
b01111 $
0&
b110010 7
b001110 (
b110010 8
b01111 )
#481
b001011 0
b001100 1
b001101 2
b001110 3
b00000000000000000000000100100101 %
1&
b001001 '
b00000000000000000000000100100101 -
b001001 .
b001010 /
#486
b10000 $
0&
b110001 7
b001111 (
b110001 8
b10000 )
#491
b001100 0
b001101 1
b001110 2
b001111 3
b00000000000000000000000100101110 %
1&
b001010 '
b00000000000000000000000100101110 -
b001010 .
b001011 /
#496
b10001 $
0&
b110000 7
b010000 (
b110000 8
b10001 )
#501
b001101 0
b001110 1
b001111 2
b010000 3
b00000000000000000000000100111000 %
1&
b001011 '
b00000000000000000000000100111000 -
b001011 .
b001100 /
#506
b10010 $
0&
b001111 7
b001111 (
b001111 8
b10010 )
#511
b001110 0
b001111 1
b010000 2
b001111 3
b00000000000000000000000101000011 %
1&
b001100 '
b00000000000000000000000101000011 -
b001100 .
b001101 /
#516
b10011 $
0&
b001110 7
b001110 (
b001110 8
b10011 )
#521
b001111 0
b010000 1
b001111 2
b001110 3
b00000000000000000000000101001111 %
1&
b001101 '
b00000000000000000000000101001111 -
b001101 .
b001110 /
#526
b10100 $
0&
b001101 7
b001101 (
b001101 8
b10100 )
#531
b010000 0
b001111 1
b001110 2
b001101 3
b00000000000000000000000101011100 %
1&
b001110 '
b00000000000000000000000101011100 -
b001110 .
b001111 /
#536
b10101 $
0&
b001100 7
b001100 (
b001100 8
b10101 )
#541
b001111 0
b001110 1
b001101 2
b001100 3
b00000000000000000000000101101010 %
1&
b001111 '
b00000000000000000000000101101010 -
b001111 .
b010000 /
#546
b10110 $
0&
b001011 7
b001011 (
b001011 8
b10110 )
#551
b001110 0
b001101 1
b001100 2
b001011 3
b00000000000000000000000101111001 %
1&
b010000 '
b00000000000000000000000101111001 -
b010000 .
b001111 /
#556
b10111 $
0&
b001010 7
b001010 (
b001010 8
b10111 )
#561
b001101 0
b001100 1
b001011 2
b001010 3
b00000000000000000000000110001001 %
1&
b001111 '
b00000000000000000000000110001001 -
b001111 .
b001110 /
#566
b11000 $
0&
b001001 7
b001001 (
b001001 8
b11000 )
#571
b001100 0
b001011 1
b001010 2
b001001 3
b00000000000000000000000110011000 %
1&
b001110 '
b00000000000000000000000110011000 -
b001110 .
b001101 /
#576
b11001 $
0&
b001000 7
b001000 (
b001000 8
b11001 )
#581
b001011 0
b001010 1
b001001 2
b001000 3
b00000000000000000000000110100110 %
1&
b001101 '
b00000000000000000000000110100110 -
b001101 .
b001100 /
#586
b11010 $
0&
b000111 7
b000111 (
b000111 8
b11010 )
#591
b001010 0
b001001 1
b001000 2
b000111 3
b00000000000000000000000110110011 %
1&
b001100 '
b00000000000000000000000110110011 -
b001100 .
b001011 /
#596
b11011 $
0&
b000110 7
b000110 (
b000110 8
b11011 )
#601
b001001 0
b001000 1
b000111 2
b000110 3
b00000000000000000000000110111111 %
1&
b001011 '
b00000000000000000000000110111111 -
b001011 .
b001010 /
#606
b11100 $
0&
b000101 7
b000101 (
b000101 8
b11100 )
#611
b001000 0
b000111 1
b000110 2
b000101 3
b00000000000000000000000111001010 %
1&
b001010 '
b00000000000000000000000111001010 -
b001010 .
b001001 /
#616
b11101 $
0&
b000100 7
b000100 (
b000100 8
b11101 )
#621
b000111 0
b000110 1
b000101 2
b000100 3
b00000000000000000000000111010100 %
1&
b001001 '
b00000000000000000000000111010100 -
b001001 .
b001000 /
#626
b11110 $
0&
b000011 7
b000011 (
b000011 8
b11110 )
#631
b000110 0
b000101 1
b000100 2
b000011 3
b00000000000000000000000111011101 %
1&
b001000 '
b00000000000000000000000111011101 -
b001000 .
b000111 /
#636
b11111 $
0&
b000010 7
b000010 (
b000010 8
b11111 )
#641
b000101 0
b000100 1
b000011 2
b000010 3
b00000000000000000000000111100101 %
1&
b000111 '
b00000000000000000000000111100101 -
b000111 .
b000110 /
#646
b00010 #
b00000 $
0&
b00000 )
b00010 *
#651
b000100 0
b000011 1
b000010 2
b00000000000000000000000111101100 %
1&
b000110 '
b00000000000000000000000111101100 -
b000110 .
b000101 /
#656
b00001 $
0&
b000001 7
b000001 (
b000001 8
b00001 )
#661
b000011 0
b000010 1
b000001 3
b00000000000000000000000111110010 %
1&
b000101 '
b00000000000000000000000111110010 -
b000101 .
b000100 /
#666
b00010 $
0&
b000000 7
b000000 (
b000000 8
b00010 )
#671
b000010 0
b000001 2
b000000 3
b00000000000000000000000111110111 %
1&
b000100 '
b00000000000000000000000111110111 -
b000100 .
b000011 /
#676
b00011 $
0&
b111111 7
b000001 (
b111111 8
b00011 )
#681
b000001 1
b000000 2
b000001 3
b00000000000000000000000111111011 %
1&
b000011 '
b00000000000000000000000111111011 -
b000011 .
b000010 /
#686
b00100 $
0&
b111110 7
b000010 (
b111110 8
b00100 )
#691
b000001 0
b000000 1
b000001 2
b000010 3
b00000000000000000000000111111110 %
1&
b000010 '
b00000000000000000000000111111110 -
b000010 .
#696
b00101 $
0&
b111101 7
b000011 (
b111101 8
b00101 )
#701
b000000 0
b000001 1
b000010 2
b000011 3
b00000000000000000000001000000000 %
1&
b00000000000000000000001000000000 -
b000001 /
#706
b00110 $
0&
b111100 7
b000100 (
b111100 8
b00110 )
#711
b000001 0
b000010 1
b000011 2
b000100 3
b00000000000000000000001000000010 %
1&
b000001 '
b00000000000000000000001000000010 -
b000001 .
b000000 /
#716
b00111 $
0&
b111011 7
b000101 (
b111011 8
b00111 )
#721
b000010 0
b000011 1
b000100 2
b000101 3
b00000000000000000000001000000011 %
1&
b000000 '
b00000000000000000000001000000011 -
b000000 .
b000001 /
#726
b01000 $
0&
b111010 7
b000110 (
b111010 8
b01000 )
#731
b000011 0
b000100 1
b000101 2
b000110 3
1&
b000001 '
b000001 .
b000010 /
#736
b01001 $
0&
b111001 7
b000111 (
b111001 8
b01001 )
#741
b000100 0
b000101 1
b000110 2
b000111 3
b00000000000000000000001000000100 %
1&
b000010 '
b00000000000000000000001000000100 -
b000010 .
b000011 /
#746
b01010 $
0&
b111000 7
b001000 (
b111000 8
b01010 )
#751
b000101 0
b000110 1
b000111 2
b001000 3
b00000000000000000000001000000110 %
1&
b000011 '
b00000000000000000000001000000110 -
b000011 .
b000100 /
#756
b01011 $
0&
b110111 7
b001001 (
b110111 8
b01011 )
#761
b000110 0
b000111 1
b001000 2
b001001 3
b00000000000000000000001000001001 %
1&
b000100 '
b00000000000000000000001000001001 -
b000100 .
b000101 /
#766
b01100 $
0&
b110110 7
b001010 (
b110110 8
b01100 )
#771
b000111 0
b001000 1
b001001 2
b001010 3
b00000000000000000000001000001101 %
1&
b000101 '
b00000000000000000000001000001101 -
b000101 .
b000110 /
#776
b01101 $
0&
b110101 7
b001011 (
b110101 8
b01101 )
#781
b001000 0
b001001 1
b001010 2
b001011 3
b00000000000000000000001000010010 %
1&
b000110 '
b00000000000000000000001000010010 -
b000110 .
b000111 /
#786
b01110 $
0&
b110100 7
b001100 (
b110100 8
b01110 )
#791
b001001 0
b001010 1
b001011 2
b001100 3
b00000000000000000000001000011000 %
1&
b000111 '
b00000000000000000000001000011000 -
b000111 .
b001000 /
#796
b01111 $
0&
b110011 7
b001101 (
b110011 8
b01111 )
#801
b001010 0
b001011 1
b001100 2
b001101 3
b00000000000000000000001000011111 %
1&
b001000 '
b00000000000000000000001000011111 -
b001000 .
b001001 /
#806
b10000 $
0&
b110010 7
b001110 (
b110010 8
b10000 )
#811
b001011 0
b001100 1
b001101 2
b001110 3
b00000000000000000000001000100111 %
1&
b001001 '
b00000000000000000000001000100111 -
b001001 .
b001010 /
#816
b10001 $
0&
b110001 7
b001111 (
b110001 8
b10001 )
#821
b001100 0
b001101 1
b001110 2
b001111 3
b00000000000000000000001000110000 %
1&
b001010 '
b00000000000000000000001000110000 -
b001010 .
b001011 /
#826
b10010 $
0&
b110000 7
b010000 (
b110000 8
b10010 )
#831
b001101 0
b001110 1
b001111 2
b010000 3
b00000000000000000000001000111010 %
1&
b001011 '
b00000000000000000000001000111010 -
b001011 .
b001100 /
#836
b10011 $
0&
b001111 7
b001111 (
b001111 8
b10011 )
#841
b001110 0
b001111 1
b010000 2
b001111 3
b00000000000000000000001001000101 %
1&
b001100 '
b00000000000000000000001001000101 -
b001100 .
b001101 /
#846
b10100 $
0&
b001110 7
b001110 (
b001110 8
b10100 )
#851
b001111 0
b010000 1
b001111 2
b001110 3
b00000000000000000000001001010001 %
1&
b001101 '
b00000000000000000000001001010001 -
b001101 .
b001110 /
#856
b10101 $
0&
b001101 7
b001101 (
b001101 8
b10101 )
#861
b010000 0
b001111 1
b001110 2
b001101 3
b00000000000000000000001001011110 %
1&
b001110 '
b00000000000000000000001001011110 -
b001110 .
b001111 /
#866
b10110 $
0&
b001100 7
b001100 (
b001100 8
b10110 )
#871
b001111 0
b001110 1
b001101 2
b001100 3
b00000000000000000000001001101100 %
1&
b001111 '
b00000000000000000000001001101100 -
b001111 .
b010000 /
#876
b10111 $
0&
b001011 7
b001011 (
b001011 8
b10111 )
#881
b001110 0
b001101 1
b001100 2
b001011 3
b00000000000000000000001001111011 %
1&
b010000 '
b00000000000000000000001001111011 -
b010000 .
b001111 /
#886
b11000 $
0&
b001010 7
b001010 (
b001010 8
b11000 )
#891
b001101 0
b001100 1
b001011 2
b001010 3
b00000000000000000000001010001011 %
1&
b001111 '
b00000000000000000000001010001011 -
b001111 .
b001110 /
#896
b11001 $
0&
b001001 7
b001001 (
b001001 8
b11001 )
#901
b001100 0
b001011 1
b001010 2
b001001 3
b00000000000000000000001010011010 %
1&
b001110 '
b00000000000000000000001010011010 -
b001110 .
b001101 /
#906
b11010 $
0&
b001000 7
b001000 (
b001000 8
b11010 )
#911
b001011 0
b001010 1
b001001 2
b001000 3
b00000000000000000000001010101000 %
1&
b001101 '
b00000000000000000000001010101000 -
b001101 .
b001100 /
#916
b11011 $
0&
b000111 7
b000111 (
b000111 8
b11011 )
#921
b001010 0
b001001 1
b001000 2
b000111 3
b00000000000000000000001010110101 %
1&
b001100 '
b00000000000000000000001010110101 -
b001100 .
b001011 /
#926
b11100 $
0&
b000110 7
b000110 (
b000110 8
b11100 )
#931
b001001 0
b001000 1
b000111 2
b000110 3
b00000000000000000000001011000001 %
1&
b001011 '
b00000000000000000000001011000001 -
b001011 .
b001010 /
#936
b11101 $
0&
b000101 7
b000101 (
b000101 8
b11101 )
#941
b001000 0
b000111 1
b000110 2
b000101 3
b00000000000000000000001011001100 %
1&
b001010 '
b00000000000000000000001011001100 -
b001010 .
b001001 /
#946
b11110 $
0&
b000100 7
b000100 (
b000100 8
b11110 )
#951
b000111 0
b000110 1
b000101 2
b000100 3
b00000000000000000000001011010110 %
1&
b001001 '
b00000000000000000000001011010110 -
b001001 .
b001000 /
#956
b11111 $
0&
b000011 7
b000011 (
b000011 8
b11111 )
#961
b000110 0
b000101 1
b000100 2
b000011 3
b00000000000000000000001011011111 %
1&
b001000 '
b00000000000000000000001011011111 -
b001000 .
b000111 /
#966
b00011 #
b00000 $
0&
b00000 )
b00011 *
#971
b000101 0
b000100 1
b000011 2
b00000000000000000000001011100111 %
1&
b000111 '
b00000000000000000000001011100111 -
b000111 .
b000110 /
#976
b00001 $
0&
b000010 7
b000010 (
b000010 8
b00001 )
#981
b000100 0
b000011 1
b000010 3
b00000000000000000000001011101110 %
1&
b000110 '
b00000000000000000000001011101110 -
b000110 .
b000101 /
#986
b00010 $
0&
b000001 7
b000001 (
b000001 8
b00010 )
#991
b000011 0
b000010 2
b000001 3
b00000000000000000000001011110100 %
1&
b000101 '
b00000000000000000000001011110100 -
b000101 .
b000100 /
#996
b00011 $
0&
b000000 7
b000000 (
b000000 8
b00011 )
#1001
b000010 1
b000001 2
b000000 3
b00000000000000000000001011111001 %
1&
b000100 '
b00000000000000000000001011111001 -
b000100 .
b000011 /
#1006
b00100 $
0&
b111111 7
b000001 (
b111111 8
b00100 )
#1011
b000010 0
b000001 1
b000000 2
b000001 3
b00000000000000000000001011111101 %
1&
b000011 '
b00000000000000000000001011111101 -
b000011 .
#1016
b00101 $
0&
b111110 7
b000010 (
b111110 8
b00101 )
#1021
b000001 0
b000000 1
b000001 2
b000010 3
b00000000000000000000001100000000 %
1&
b00000000000000000000001100000000 -
b000010 /
#1026
b00110 $
0&
b111101 7
b000011 (
b111101 8
b00110 )
#1031
b000000 0
b000001 1
b000010 2
b000011 3
b00000000000000000000001100000011 %
1&
b000010 '
b00000000000000000000001100000011 -
b000010 .
b000001 /
#1036
b00111 $
0&
b111100 7
b000100 (
b111100 8
b00111 )
#1041
b000001 0
b000010 1
b000011 2
b000100 3
b00000000000000000000001100000101 %
1&
b000001 '
b00000000000000000000001100000101 -
b000001 .
b000000 /
#1046
b01000 $
0&
b111011 7
b000101 (
b111011 8
b01000 )
#1051
b000010 0
b000011 1
b000100 2
b000101 3
b00000000000000000000001100000110 %
1&
b000000 '
b00000000000000000000001100000110 -
b000000 .
b000001 /
#1056
b01001 $
0&
b111010 7
b000110 (
b111010 8
b01001 )
#1061
b000011 0
b000100 1
b000101 2
b000110 3
1&
b000001 '
b000001 .
b000010 /
#1066
b01010 $
0&
b111001 7
b000111 (
b111001 8
b01010 )
#1071
b000100 0
b000101 1
b000110 2
b000111 3
b00000000000000000000001100000111 %
1&
b000010 '
b00000000000000000000001100000111 -
b000010 .
b000011 /
#1076
b01011 $
0&
b111000 7
b001000 (
b111000 8
b01011 )
#1081
b000101 0
b000110 1
b000111 2
b001000 3
b00000000000000000000001100001001 %
1&
b000011 '
b00000000000000000000001100001001 -
b000011 .
b000100 /
#1086
b01100 $
0&
b110111 7
b001001 (
b110111 8
b01100 )
#1091
b000110 0
b000111 1
b001000 2
b001001 3
b00000000000000000000001100001100 %
1&
b000100 '
b00000000000000000000001100001100 -
b000100 .
b000101 /
#1096
b01101 $
0&
b110110 7
b001010 (
b110110 8
b01101 )
#1101
b000111 0
b001000 1
b001001 2
b001010 3
b00000000000000000000001100010000 %
1&
b000101 '
b00000000000000000000001100010000 -
b000101 .
b000110 /
#1106
b01110 $
0&
b110101 7
b001011 (
b110101 8
b01110 )
#1111
b001000 0
b001001 1
b001010 2
b001011 3
b00000000000000000000001100010101 %
1&
b000110 '
b00000000000000000000001100010101 -
b000110 .
b000111 /
#1116
b01111 $
0&
b110100 7
b001100 (
b110100 8
b01111 )
#1121
b001001 0
b001010 1
b001011 2
b001100 3
b00000000000000000000001100011011 %
1&
b000111 '
b00000000000000000000001100011011 -
b000111 .
b001000 /
#1126
b10000 $
0&
b110011 7
b001101 (
b110011 8
b10000 )
#1131
b001010 0
b001011 1
b001100 2
b001101 3
b00000000000000000000001100100010 %
1&
b001000 '
b00000000000000000000001100100010 -
b001000 .
b001001 /
#1136
b10001 $
0&
b110010 7
b001110 (
b110010 8
b10001 )
#1141
b001011 0
b001100 1
b001101 2
b001110 3
b00000000000000000000001100101010 %
1&
b001001 '
b00000000000000000000001100101010 -
b001001 .
b001010 /
#1146
b10010 $
0&
b110001 7
b001111 (
b110001 8
b10010 )
#1151
b001100 0
b001101 1
b001110 2
b001111 3
b00000000000000000000001100110011 %
1&
b001010 '
b00000000000000000000001100110011 -
b001010 .
b001011 /
#1156
b10011 $
0&
b110000 7
b010000 (
b110000 8
b10011 )
#1161
b001101 0
b001110 1
b001111 2
b010000 3
b00000000000000000000001100111101 %
1&
b001011 '
b00000000000000000000001100111101 -
b001011 .
b001100 /
#1166
b10100 $
0&
b001111 7
b001111 (
b001111 8
b10100 )
#1171
b001110 0
b001111 1
b010000 2
b001111 3
b00000000000000000000001101001000 %
1&
b001100 '
b00000000000000000000001101001000 -
b001100 .
b001101 /
#1176
b10101 $
0&
b001110 7
b001110 (
b001110 8
b10101 )
#1181
b001111 0
b010000 1
b001111 2
b001110 3
b00000000000000000000001101010100 %
1&
b001101 '
b00000000000000000000001101010100 -
b001101 .
b001110 /
#1186
b10110 $
0&
b001101 7
b001101 (
b001101 8
b10110 )
#1191
b010000 0
b001111 1
b001110 2
b001101 3
b00000000000000000000001101100001 %
1&
b001110 '
b00000000000000000000001101100001 -
b001110 .
b001111 /
#1196
b10111 $
0&
b001100 7
b001100 (
b001100 8
b10111 )
#1201
b001111 0
b001110 1
b001101 2
b001100 3
b00000000000000000000001101101111 %
1&
b001111 '
b00000000000000000000001101101111 -
b001111 .
b010000 /
#1206
b11000 $
0&
b001011 7
b001011 (
b001011 8
b11000 )
#1211
b001110 0
b001101 1
b001100 2
b001011 3
b00000000000000000000001101111110 %
1&
b010000 '
b00000000000000000000001101111110 -
b010000 .
b001111 /
#1216
b11001 $
0&
b001010 7
b001010 (
b001010 8
b11001 )
#1221
b001101 0
b001100 1
b001011 2
b001010 3
b00000000000000000000001110001110 %
1&
b001111 '
b00000000000000000000001110001110 -
b001111 .
b001110 /
#1226
b11010 $
0&
b001001 7
b001001 (
b001001 8
b11010 )
#1231
b001100 0
b001011 1
b001010 2
b001001 3
b00000000000000000000001110011101 %
1&
b001110 '
b00000000000000000000001110011101 -
b001110 .
b001101 /
#1236
b11011 $
0&
b001000 7
b001000 (
b001000 8
b11011 )
#1241
b001011 0
b001010 1
b001001 2
b001000 3
b00000000000000000000001110101011 %
1&
b001101 '
b00000000000000000000001110101011 -
b001101 .
b001100 /
#1246
b11100 $
0&
b000111 7
b000111 (
b000111 8
b11100 )
#1251
b001010 0
b001001 1
b001000 2
b000111 3
b00000000000000000000001110111000 %
1&
b001100 '
b00000000000000000000001110111000 -
b001100 .
b001011 /
#1256
b11101 $
0&
b000110 7
b000110 (
b000110 8
b11101 )
#1261
b001001 0
b001000 1
b000111 2
b000110 3
b00000000000000000000001111000100 %
1&
b001011 '
b00000000000000000000001111000100 -
b001011 .
b001010 /
#1266
b11110 $
0&
b000101 7
b000101 (
b000101 8
b11110 )
#1271
b001000 0
b000111 1
b000110 2
b000101 3
b00000000000000000000001111001111 %
1&
b001010 '
b00000000000000000000001111001111 -
b001010 .
b001001 /
#1276
b11111 $
0&
b000100 7
b000100 (
b000100 8
b11111 )
#1281
b000111 0
b000110 1
b000101 2
b000100 3
b00000000000000000000001111011001 %
1&
b001001 '
b00000000000000000000001111011001 -
b001001 .
b001000 /
#1286
b00100 #
b00000 $
0&
b00000 )
b00100 *
#1291
b000110 0
b000101 1
b000100 2
b00000000000000000000001111100010 %
1&
b001000 '
b00000000000000000000001111100010 -
b001000 .
b000111 /
