test_run_dir/should_test_SAD_with_bw5_and_pd7/SAD.vcd
$date
2025-07-25T04:56+0000
$end
$version
0.2
$end
$comment

$end
$timescale 1ns  $end
$scope module SAD $end
 $var wire 5 Z io_bVec_2 $end
 $var wire 5 \ io_bVec_3 $end
 $var wire 5 ^ io_bVec_0 $end
 $var wire 5 _ io_bVec_1 $end
 $var wire 1 n io_valid_out $end
 $var wire 5 "& io_aVec_0 $end
 $var wire 5 "' io_aVec_2 $end
 $var wire 5 "( io_aVec_1 $end
 $var wire 1 ") io_valid_in $end
 $var wire 5 "0 io_aVec_3 $end
 $var wire 1 "S clock $end
 $var wire 5 "Z io_out $end
 $var wire 1 "r absDiffs_2 $end
 $var wire 1 "s absDiffs_1 $end
 $var wire 1 "v absDiffs_0 $end
 $var wire 1 #( absDiffs_3 $end
 $var wire 1 #M sumsAndValids_adder_2 $end
 $var wire 1 #R sumsAndValids_adder_1 $end
 $var wire 1 #i reset $end
 $var wire 1 #j sumsAndValids_adder $end
  $scope module absDiffs_2 $end
   $var wire 5 % aVal $end
   $var wire 4 * alignedB $end
   $var wire 4 + alignedA $end
   $var wire 1 @ valid_sr_0 $end
   $var wire 1 A valid_sr_1 $end
   $var wire 1 B valid_sr_2 $end
   $var wire 1 C valid_sr_3 $end
   $var wire 1 D valid_sr_4 $end
   $var wire 1 E valid_sr_5 $end
   $var wire 1 F valid_sr_6 $end
   $var wire 5 Y bVal $end
   $var wire 2 g expB_ $end
   $var wire 3 m aExt_hi $end
   $var wire 2 p expA_ $end
   $var wire 5 s io_b $end
   $var wire 5 u io_a $end
   $var wire 1 v lzc $end
   $var wire 4 ", aExt $end
   $var wire 2 "7 manB $end
   $var wire 2 "8 manA $end
   $var wire 4 "F bExt $end
   $var wire 1 "K io_valid_out $end
   $var wire 1 "O clock $end
   $var wire 2 "k normalizedMant $end
   $var wire 5 "u result $end
   $var wire 1 #& reset $end
   $var wire 5 #5 sr_array_4 $end
   $var wire 5 #6 sr_array_3 $end
   $var wire 5 #7 sr_array_6 $end
   $var wire 5 #8 sr_array_5 $end
   $var wire 5 #9 sr_array_0 $end
   $var wire 5 #: sr_array_2 $end
   $var wire 5 #; sr_array_1 $end
   $var wire 2 #@ expDiff $end
   $var wire 5 #E io_out $end
   $var wire 1 #T io_valid_in $end
   $var wire 3 #] bExt_hi $end
   $var wire 4 #g diff $end
   $var wire 3 #h adjustedExp $end
   $var wire 11 $& normalizedMantFull $end
   $var wire 2 $@ maxExp $end
    $scope module lzc $end
     $var wire 4 "T io_in $end
     $var wire 3 $A io_out $end
    $upscope $end
  $upscope $end
  $scope module absDiffs_1 $end
   $var wire 2 ( maxExp $end
   $var wire 2 K normalizedMant $end
   $var wire 5 L sr_array_1 $end
   $var wire 5 M sr_array_0 $end
   $var wire 5 O sr_array_5 $end
   $var wire 5 P sr_array_4 $end
   $var wire 5 Q sr_array_3 $end
   $var wire 5 R sr_array_2 $end
   $var wire 5 W sr_array_6 $end
   $var wire 4 j bExt $end
   $var wire 4 z aExt $end
   $var wire 2 "# manB $end
   $var wire 2 "$ manA $end
   $var wire 1 "1 lzc $end
   $var wire 11 "G normalizedMantFull $end
   $var wire 2 "[ expDiff $end
   $var wire 1 "] io_valid_in $end
   $var wire 5 "g result $end
   $var wire 1 "l clock $end
   $var wire 2 "p expA_ $end
   $var wire 2 "z expB_ $end
   $var wire 1 "} valid_sr_5 $end
   $var wire 1 "~ valid_sr_6 $end
   $var wire 1 #! valid_sr_3 $end
   $var wire 1 #" valid_sr_4 $end
   $var wire 1 ## valid_sr_1 $end
   $var wire 1 #% valid_sr_2 $end
   $var wire 1 #' valid_sr_0 $end
   $var wire 1 #) io_valid_out $end
   $var wire 5 #, io_b $end
   $var wire 5 #- io_a $end
   $var wire 4 #V diff $end
   $var wire 3 #e adjustedExp $end
   $var wire 3 #f bExt_hi $end
   $var wire 3 #s aExt_hi $end
   $var wire 4 #t alignedB $end
   $var wire 4 #u alignedA $end
   $var wire 1 $% reset $end
   $var wire 5 $' bVal $end
   $var wire 5 $( io_out $end
   $var wire 5 $= aVal $end
    $scope module lzc $end
     $var wire 3 ~ io_out $end
     $var wire 4 "J io_in $end
    $upscope $end
  $upscope $end
  $scope module absDiffs_0 $end
   $var wire 2 $ normalizedMant $end
   $var wire 5 ' result $end
   $var wire 3 N bExt_hi $end
   $var wire 2 a expDiff $end
   $var wire 1 c valid_sr_4 $end
   $var wire 1 e valid_sr_5 $end
   $var wire 1 f valid_sr_6 $end
   $var wire 1 h valid_sr_0 $end
   $var wire 1 i valid_sr_1 $end
   $var wire 1 k valid_sr_2 $end
   $var wire 1 l valid_sr_3 $end
   $var wire 5 o io_out $end
   $var wire 2 y expB_ $end
   $var wire 2 } expA_ $end
   $var wire 3 ". adjustedExp $end
   $var wire 5 "4 sr_array_5 $end
   $var wire 5 "5 sr_array_6 $end
   $var wire 4 "6 diff $end
   $var wire 5 "= sr_array_0 $end
   $var wire 5 "? sr_array_3 $end
   $var wire 5 "@ sr_array_4 $end
   $var wire 5 "A sr_array_1 $end
   $var wire 5 "D sr_array_2 $end
   $var wire 2 "E maxExp $end
   $var wire 1 "M lzc $end
   $var wire 1 "\ clock $end
   $var wire 5 "^ io_a $end
   $var wire 5 "_ io_b $end
   $var wire 5 "f bVal $end
   $var wire 1 "o io_valid_out $end
   $var wire 3 #$ aExt_hi $end
   $var wire 5 #* aVal $end
   $var wire 11 #1 normalizedMantFull $end
   $var wire 2 #G manB $end
   $var wire 2 #H manA $end
   $var wire 1 #S io_valid_in $end
   $var wire 4 #W bExt $end
   $var wire 4 #^ alignedA $end
   $var wire 4 #_ alignedB $end
   $var wire 4 #m aExt $end
   $var wire 1 $< reset $end
    $scope module lzc $end
     $var wire 3 "e io_out $end
     $var wire 4 #/ io_in $end
    $upscope $end
  $upscope $end
  $scope module absDiffs_0.lzc $end
  $upscope $end
  $scope module absDiffs_2.lzc $end
  $upscope $end
  $scope module sumsAndValids_adder_2.lzc $end
  $upscope $end
  $scope module sumsAndValids_adder_2 $end
   $var wire 5 - io_b $end
   $var wire 5 . io_a $end
   $var wire 1 G io_valid_in $end
   $var wire 1 S valid_sr_6 $end
   $var wire 1 T valid_sr_5 $end
   $var wire 1 U valid_sr_4 $end
   $var wire 1 V valid_sr_3 $end
   $var wire 1 X valid_sr_2 $end
   $var wire 1 [ valid_sr_1 $end
   $var wire 1 ] valid_sr_0 $end
   $var wire 12 ` normalizedMantFull $end
   $var wire 3 r aExt_hi $end
   $var wire 3 "% bExt_hi $end
   $var wire 4 "* bExt $end
   $var wire 4 ": alignedA $end
   $var wire 4 "; alignedB $end
   $var wire 5 "> sum $end
   $var wire 3 "N adjustedExp $end
   $var wire 5 "U result $end
   $var wire 4 "V aExt $end
   $var wire 2 "b manB $end
   $var wire 2 "c manA $end
   $var wire 1 "i reset $end
   $var wire 1 "n io_valid_out $end
   $var wire 2 "q maxExp $end
   $var wire 2 #2 expA $end
   $var wire 2 #3 expB $end
   $var wire 2 #C normalizedMant $end
   $var wire 5 #I sr_array_4 $end
   $var wire 5 #J sr_array_5 $end
   $var wire 5 #L sr_array_6 $end
   $var wire 5 #N sr_array_0 $end
   $var wire 5 #O sr_array_1 $end
   $var wire 5 #P sr_array_2 $end
   $var wire 5 #Q sr_array_3 $end
   $var wire 2 #[ expDiff $end
   $var wire 1 $) lzc $end
   $var wire 5 $3 io_out $end
   $var wire 1 $? clock $end
    $scope module lzc $end
     $var wire 5 "x io_in $end
     $var wire 3 #K io_out $end
    $upscope $end
  $upscope $end
  $scope module sumsAndValids_adder.lzc $end
  $upscope $end
  $scope module absDiffs_1.lzc $end
  $upscope $end
  $scope module sumsAndValids_adder_1 $end
   $var wire 4 " bExt $end
   $var wire 1 & lzc $end
   $var wire 2 , expDiff $end
   $var wire 3 / bExt_hi $end
   $var wire 2 3 manA $end
   $var wire 2 5 manB $end
   $var wire 1 H io_valid_in $end
   $var wire 4 J aExt $end
   $var wire 2 t expA $end
   $var wire 2 w expB $end
   $var wire 4 "! alignedA $end
   $var wire 4 "" alignedB $end
   $var wire 2 "/ maxExp $end
   $var wire 12 "I normalizedMantFull $end
   $var wire 1 "Q reset $end
   $var wire 5 "a sum $end
   $var wire 2 "| normalizedMant $end
   $var wire 3 #0 aExt_hi $end
   $var wire 5 #4 result $end
   $var wire 1 #< valid_sr_3 $end
   $var wire 1 #= valid_sr_2 $end
   $var wire 1 #> valid_sr_5 $end
   $var wire 1 #? valid_sr_4 $end
   $var wire 1 #A valid_sr_1 $end
   $var wire 1 #B valid_sr_0 $end
   $var wire 3 #D adjustedExp $end
   $var wire 5 #U io_out $end
   $var wire 5 #Z io_a $end
   $var wire 5 #\ io_b $end
   $var wire 1 #b clock $end
   $var wire 5 #k sr_array_2 $end
   $var wire 5 #l sr_array_1 $end
   $var wire 5 #n sr_array_0 $end
   $var wire 5 #o sr_array_6 $end
   $var wire 5 #p sr_array_5 $end
   $var wire 5 #q sr_array_4 $end
   $var wire 5 #r sr_array_3 $end
   $var wire 1 #x valid_sr_6 $end
   $var wire 1 $5 io_valid_out $end
    $scope module lzc $end
     $var wire 5 # io_in $end
     $var wire 3 $1 io_out $end
    $upscope $end
  $upscope $end
  $scope module sumsAndValids_adder $end
   $var wire 4 ) aExt $end
   $var wire 2 1 manA $end
   $var wire 2 2 manB $end
   $var wire 1 : io_valid_out $end
   $var wire 2 { expA $end
   $var wire 2 | expB $end
   $var wire 12 "- normalizedMantFull $end
   $var wire 3 "3 bExt_hi $end
   $var wire 1 "< lzc $end
   $var wire 4 "L bExt $end
   $var wire 2 "P maxExp $end
   $var wire 3 "R aExt_hi $end
   $var wire 4 "W alignedB $end
   $var wire 4 "X alignedA $end
   $var wire 5 "d io_out $end
   $var wire 3 "h adjustedExp $end
   $var wire 1 "j reset $end
   $var wire 2 #. normalizedMant $end
   $var wire 5 #X io_b $end
   $var wire 5 #Y io_a $end
   $var wire 1 #d clock $end
   $var wire 5 #v result $end
   $var wire 1 #| valid_sr_5 $end
   $var wire 1 #~ valid_sr_4 $end
   $var wire 1 $# valid_sr_6 $end
   $var wire 2 $* expDiff $end
   $var wire 5 $+ sum $end
   $var wire 1 $, valid_sr_1 $end
   $var wire 1 $- valid_sr_0 $end
   $var wire 1 $. valid_sr_3 $end
   $var wire 1 $/ valid_sr_2 $end
   $var wire 5 $2 sr_array_5 $end
   $var wire 5 $4 sr_array_6 $end
   $var wire 5 $6 sr_array_0 $end
   $var wire 5 $8 sr_array_3 $end
   $var wire 5 $9 sr_array_4 $end
   $var wire 5 $: sr_array_1 $end
   $var wire 5 $; sr_array_2 $end
   $var wire 1 $> io_valid_in $end
    $scope module lzc $end
     $var wire 3 7 io_out $end
     $var wire 5 "{ io_in $end
    $upscope $end
  $upscope $end
  $scope module sumsAndValids_adder_1.lzc $end
  $upscope $end
  $scope module absDiffs_3 $end
   $var wire 4 ! diff $end
   $var wire 1 0 reset $end
   $var wire 5 4 sr_array_6 $end
   $var wire 5 6 sr_array_5 $end
   $var wire 5 8 sr_array_4 $end
   $var wire 5 9 sr_array_3 $end
   $var wire 5 ; sr_array_2 $end
   $var wire 5 < sr_array_1 $end
   $var wire 2 = expDiff $end
   $var wire 5 > sr_array_0 $end
   $var wire 1 ? clock $end
   $var wire 1 I lzc $end
   $var wire 5 b io_a $end
   $var wire 5 d io_b $end
   $var wire 5 q bVal $end
   $var wire 2 "+ normalizedMant $end
   $var wire 3 "2 adjustedExp $end
   $var wire 1 "B io_valid_out $end
   $var wire 2 "C expB_ $end
   $var wire 2 "H expA_ $end
   $var wire 3 "Y bExt_hi $end
   $var wire 3 "` aExt_hi $end
   $var wire 4 "m aExt $end
   $var wire 2 "t manA $end
   $var wire 2 "w manB $end
   $var wire 2 "y maxExp $end
   $var wire 11 #+ normalizedMantFull $end
   $var wire 5 #F io_out $end
   $var wire 5 #` aVal $end
   $var wire 4 #a alignedB $end
   $var wire 4 #c alignedA $end
   $var wire 5 #w result $end
   $var wire 1 #y valid_sr_0 $end
   $var wire 1 #z valid_sr_2 $end
   $var wire 1 #{ valid_sr_1 $end
   $var wire 1 #} valid_sr_4 $end
   $var wire 1 $! valid_sr_3 $end
   $var wire 1 $" valid_sr_6 $end
   $var wire 1 $$ valid_sr_5 $end
   $var wire 4 $0 bExt $end
   $var wire 1 $7 io_valid_in $end
    $scope module lzc $end
     $var wire 3 x io_out $end
     $var wire 4 "9 io_in $end
    $upscope $end
  $upscope $end
  $scope module absDiffs_3.lzc $end
  $upscope $end
$upscope $end
$enddefinitions $end
$dumpvars
00
b00 =
b0000 "m
b00 1
0:
b0000 $0
b00 5
b00 3
0?
b00 2
0@
b0000 #V
0A
b00 (
0B
0C
b0000 #W
0D
0E
b00 ,
b000000000000 "I
0F
0G
0H
b0000 #^
0I
b0000 #_
b0000 #a
b00 $
b0000 #c
b0000 "
0S
b0000 #g
0T
b0000 !
0U
0V
0X
b0000 #m
b0000 *
b0000 +
0[
b0000 )
0]
b0000 #t
b0000 #u
0c
0e
0f
0h
0i
b000000000000 "-
0k
0l
0n
0v
b00 "y
b00 "z
b00 #[
b00 "t
b00 "w
b00 "|
b00 $@
b00 $*
b00 "k
b00 #H
b00 #G
0")
b00 "q
b00 "p
0"1
b00000 #*
b00 "[
b00000 #,
b00000 #-
b00000 "A
b00000 "@
b00 "c
0"<
b00 "b
b00 #C
b00000 "D
b00 #@
0#!
0#"
0"B
0##
b00 "H
0#%
b000 x
0#&
b00 "E
0#'
b00000 "=
b000 r
0#(
0#)
b00000 "?
b00000 ">
b00 #2
b00 "P
b000 ~
0"K
b00000 "0
b00 #3
0"M
b00 #.
b00000 "5
0"O
b00000 "4
0"Q
b00 "8
0"S
b00000 "(
b00 "7
0#<
b00 "C
0"\
0#=
0"]
0#>
0#?
0$!
b000 m
0#A
0$"
b00000 "'
0#B
0$#
b00000 "&
0$$
0$%
b00 "+
b00 "$
0$)
0"i
0"j
0$,
0$-
0"l
0#M
0$.
0$/
0"n
0"o
b00 "/
0#R
0"r
0#S
b00 y
0"s
0#T
0$5
b00 w
b00000 #l
0$7
b00000 #k
0"v
b00 }
b00000 #n
b00 |
b00 {
b00000 #p
b00000 #o
0$<
b000 N
b00 p
b00 "#
0$>
0"}
0$?
0"~
b00 t
0#b
b000 7
b00000 #Z
b00000 $;
0#d
b00000 "x
b00000 #Y
b00000 $:
b00 g
b00000 "{
b00000 #\
b00000 $=
0#i
b00000 #`
0#j
b00 a
b00000 $3
b00000 #Q
b00000 $2
b00000 $4
b00000 "u
b00000 #U
b00000 $6
b00000 #X
b00000 $9
b00000 $8
b00000 #J
b00000 $+
b00000 #I
b00000 #L
b00000 #N
0#x
0#y
b00000 #P
0#z
b00000 #O
b000 /
0#{
b00000 "a
0#|
0#}
0#~
b00000 #F
b00000 $'
b00000 "d
b00000 #E
b00000 "g
b00000 "f
b00000 $(
b00000 #:
b00000 #9
b00000 "Z
b00000 #;
b00 K
b00000 "_
b00000 "^
b00000 #4
b00000 "U
b00000 #6
b00000 #5
b00000 #8
b00000 #7
b00000 #r
b00000 #q
b00000 #v
b00000 #w
b000 #s
b000 "R
b000 "Y
b00000 #
b00000 %
b000 "e
b00000 '
b000 #D
b000 "`
b000 $1
b00000 -
b000 #K
b00000 .
b000 "h
b00000 4
b00000000000 $&
b00000 6
b00000 9
b00000 8
b00000 ;
b000 $A
b000 #]
b00000 <
b00000 >
b000 #h
b000 #e
b000 #f
b00000000000 #1
b00000 M
b00000 L
b0000 "!
b00000 O
b00000 Q
b0000 ""
b00000 P
b00000000000 "G
b00000 R
b00000 W
b00000 Y
b0000 "*
b0000 ",
b00000 Z
b0000 J
b00000 \
b00000 _
b00000 ^
b00000000000 #+
b00000 b
b000 "%
b0000 "6
b00000 d
b0000 "9
b000000000000 `
b0000 ";
b0000 ":
b000 ".
b00000 o
b00000 q
b00000 s
b00000 u
b0000 "F
b000 "2
b000 "3
b0000 "J
b0000 "L
b0000 j
b0000 #/
b0000 "T
b0000 "W
b0000 "V
b000 #$
b0000 "X
0&
b000 "N
b000 #0
b0000 z
$end
#0
1$%
b011 "e
b10100 "g
1"i
b10000 $+
1"j
b1000 "m
b1000 $0
b10100 "u
b1000 #W
b10000 "x
1$<
b10000 "{
b100 #]
b1000 #^
b1000 #_
b011 $A
b1000 #a
b1000 #c
b1000 "
b101 #e
b10000 #
b100 #f
b101 #h
1#i
b10100 '
b1000 )
b1000 *
b1000 #m
b1000 +
b100 /
10
b100 #s
b1000 #t
b1000 #u
b10100 #w
b1000 "!
b1000 ""
b100 "%
b1000 "*
b1000 J
b1000 ",
b000000010000 "-
b101 ".
b100 N
b101 "2
b100 "3
b1000 ":
b1000 ";
b10000 ">
b000000010000 `
b100 #$
1#&
b1000 "F
b000000010000 "I
b1000 j
b1000 "L
b100 m
b100 #0
1"Q
b100 "R
b100 r
b1000 "V
b1000 "W
b1000 "X
b100 "Y
b011 x
b1000 z
b011 ~
b100 "`
b10000 "a
#1
1"S
1#d
1"\
1"l
1$?
1"O
1?
1#b
#6
b01 "#
0$%
b01 "$
b00001 $'
b00001 "(
0"i
0"j
0"l
0$<
b00001 $=
0$?
b00001 _
0#b
0#d
0#&
b101 #f
0#i
b00001 #,
b1010 j
b00001 #-
0"O
0"Q
00
b101 #s
0"S
b1010 #t
b1010 #u
b1010 z
0"\
0?
#11
1#d
1"l
b10100 M
1"O
1"S
b10100 #9
1"\
b10100 "=
1$?
b10100 >
1?
1#b
#16
0"S
0#d
0"\
0"l
0$?
0"O
0?
0#b
#21
1#d
1"l
b10100 L
1"O
1"S
b10100 #;
1"\
1$?
b10100 <
1?
b10100 "A
1#b
#26
0"S
0#d
0"\
0"l
0$?
0"O
0?
0#b
#31
1#d
b10100 "D
1"l
1"O
1"S
b10100 R
b10100 #:
1"\
b10100 ;
1$?
1?
1#b
#36
0"S
0#d
0"\
0"l
0$?
0"O
0?
0#b
#41
1#d
1"l
1"O
b10100 Q
1"S
b10100 #6
b10100 9
1"\
1$?
b10100 "?
1?
1#b
#46
0"S
0#d
0"\
0"l
0$?
0"O
0?
0#b
#51
1#d
1"l
1"O
b10100 P
1"S
b10100 #5
b10100 8
1"\
1$?
b10100 "@
1?
1#b
#56
0"S
0#d
0"\
0"l
0$?
0"O
0?
0#b
#61
1#d
1"l
1"O
b10100 O
1"S
b10100 "4
b10100 #8
b10100 6
1"\
1$?
1?
1#b
#66
0"S
0#d
0"\
0"l
0$?
0"O
0?
0#b
#71
b001 #D
b10100 #E
b10100 #F
b10100 $(
b001 "h
1"l
b01 "/
b10100 "5
b10100 #X
b10100 #Y
b10100 W
b10100 #Z
b10100 #\
1$?
1#b
1#d
1"O
b01 "P
b10100 o
1"S
b00100 #4
b00100 #v
b10100 4
b01 t
b10100 #7
b01 w
1"\
b01 {
b01 |
1?
#76
b10 "$
b010 "e
b11000 "g
b01 #H
0"l
b110 ".
b0010 #V
b0010 "6
b00010 $=
0$?
b1010 #^
b00001 ^
b00010 _
0#b
b101 #$
0#d
b110 #e
b00000001000 "G
b11000 '
b00001 #*
b0010 "J
b00010 #,
b1010 #m
b0010 #/
0"O
b00000001000 #1
b110 #s
0"S
b1100 #u
b1100 z
0"\
b00001 "_
b010 ~
0?
#81
1#d
1"l
b00100 #n
b11000 M
1"O
1"S
b00100 $6
1"\
b11000 "=
1$?
1?
1#b
#86
0"S
0#d
0"\
0"l
0$?
0"O
0?
0#b
#91
1#d
b00100 #l
1"l
b11000 L
1"O
1"S
b00100 $:
1"\
1$?
1?
b11000 "A
1#b
#96
0"S
0#d
0"\
0"l
0$?
0"O
0?
0#b
#101
1#d
b11000 "D
b00100 #k
1"l
1"O
1"S
b11000 R
b00100 $;
1"\
1$?
1?
1#b
#106
0"S
0#d
0"\
0"l
0$?
0"O
0?
0#b
#111
1#d
1"l
1"O
b00100 #r
b11000 Q
1"S
b00100 $8
1"\
1$?
b11000 "?
1?
1#b
#116
0"S
0#d
0"\
0"l
0$?
0"O
0?
0#b
#121
1#d
1"l
1"O
b00100 #q
b11000 P
1"S
b00100 $9
1"\
1$?
b11000 "@
1?
1#b
#126
0"S
0#d
0"\
0"l
0$?
0"O
0?
0#b
#131
1#d
1"l
1"O
b00100 #p
b00100 $2
b11000 O
1"S
b11000 "4
1"\
1$?
1?
1#b
#136
0"S
0#d
0"\
0"l
0$?
0"O
0?
0#b
#141
b00100 "d
b11000 $(
b010 "h
1"l
b01 "q
b00100 $4
b00100 #U
b11000 "5
b11000 #X
b11000 #Y
b11000 W
1$?
1#b
1#d
b001 "N
b00100 #o
b00100 -
1"O
b00100 .
b10 "P
b11000 o
b01 #2
b01 #3
1"S
b00100 "U
b01000 #v
1"\
b10 {
b10 |
1?
#146
b11 "$
b001 "e
b11100 "g
b10 #H
0"l
b111 ".
b0100 #V
b0100 "6
b00011 $=
0$?
b1100 #^
b00010 ^
b00011 _
0#b
b110 #$
0#d
b111 #e
b11100 '
b00010 #*
b0100 "J
b00011 #,
b1100 #m
b0100 #/
0"O
b111 #s
0"S
b1110 #u
b1110 z
0"\
b00010 "_
b001 ~
0?
#151
1#d
1"l
b00100 #N
b11100 M
1"O
1"S
b01000 $6
1"\
b11100 "=
1$?
1?
1#b
#156
0"S
0#d
0"\
0"l
0$?
0"O
0?
0#b
#161
1#d
1"l
b11100 L
b00100 #O
1"O
1"S
b01000 $:
1"\
1$?
1?
b11100 "A
1#b
#166
0"S
0#d
0"\
0"l
0$?
0"O
0?
0#b
#171
1#d
b11100 "D
1"l
1"O
b00100 #P
1"S
b11100 R
b01000 $;
1"\
1$?
1?
1#b
#176
0"S
0#d
0"\
0"l
0$?
0"O
0?
0#b
#181
1#d
1"l
1"O
b00100 #Q
b11100 Q
1"S
b01000 $8
1"\
1$?
b11100 "?
1?
1#b
#186
0"S
0#d
0"\
0"l
0$?
0"O
0?
0#b
#191
1#d
b00100 #I
1"l
1"O
b11100 P
1"S
b01000 $9
1"\
1$?
b11100 "@
1?
1#b
#196
0"S
0#d
0"\
0"l
0$?
0"O
0?
0#b
#201
1#d
b00100 #J
1"l
1"O
b01000 $2
b11100 O
1"S
b11100 "4
1"\
1$?
1?
1#b
#206
0"S
0#d
0"\
0"l
0$?
0"O
0?
0#b
#211
b10 #C
b01000 "d
b11100 $(
b011 "h
b001 #K
b00100 #L
1"l
b00100 $3
b10 "q
b01000 $4
b11100 "5
b11100 #X
b01100 "x
b11100 #Y
b11100 W
b01 #[
b0100 ";
1$?
b01100 ">
1#b
b000000011000 `
1#d
1"O
b01000 .
b11 "P
b11100 o
b10 #2
1"S
b00110 "U
b01100 #v
b00100 "Z
1"\
b11 {
b11 |
1?
#216
b00 "$
b11110 "g
b11 #H
0"l
b10 K
b01 "p
b0011 #V
b0110 "6
b00100 $=
0$?
b1110 #^
b00011 ^
b00100 _
0#b
b111 #$
0#d
b10 $
b00000001100 "G
b11110 '
b00011 #*
b01 (
b0011 "J
b00100 #,
b1110 #m
b0110 #/
0"O
b00000001100 #1
b100 #s
0"S
b0101 #t
b1000 #u
b01 "[
b1000 z
0"\
b00011 "_
b010 ~
0?
#221
1#d
1"l
b00110 #N
b11110 M
1"O
1"S
b01100 $6
1"\
b11110 "=
1$?
1?
1#b
#226
0"S
0#d
0"\
0"l
0$?
0"O
0?
0#b
#231
1#d
1"l
b11110 L
b00110 #O
1"O
1"S
b01100 $:
1"\
1$?
1?
b11110 "A
1#b
#236
0"S
0#d
0"\
0"l
0$?
0"O
0?
0#b
#241
1#d
b11110 "D
1"l
1"O
b00110 #P
1"S
b11110 R
b01100 $;
1"\
1$?
1?
1#b
#246
0"S
0#d
0"\
0"l
0$?
0"O
0?
0#b
#251
1#d
1"l
1"O
b00110 #Q
b11110 Q
1"S
b01100 $8
1"\
1$?
b11110 "?
1?
1#b
#256
0"S
0#d
0"\
0"l
0$?
0"O
0?
0#b
#261
1#d
b00110 #I
1"l
1"O
b11110 P
1"S
b01100 $9
1"\
1$?
b11110 "@
1?
1#b
#266
0"S
0#d
0"\
0"l
0$?
0"O
0?
0#b
#271
1#d
b00110 #J
1"l
1"O
b01100 $2
b11110 O
1"S
b11110 "4
1"\
1$?
1?
1#b
#276
0"S
0#d
0"\
0"l
0$?
0"O
0?
0#b
#281
b01 #C
b01100 "d
b11110 $(
b11000 $+
b00110 #L
1"l
b000000011000 "-
b00110 $3
b11 "q
b01100 $4
b110 "3
b11110 "5
b11110 #X
b01010 "x
b11110 #Y
b11110 W
b10 #[
b0010 ";
b11000 "{
1$?
b01010 ">
1#b
b000000010100 `
1#d
b1100 )
b1100 "L
b10 #.
b010 "N
1"O
b01100 .
b11110 o
b11 #2
b110 "R
b10 1
1"S
b10 2
b01001 "U
b01110 #v
b1100 "W
b1100 "X
b00110 "Z
1"\
1?
#286
b01 "$
b00001 "g
b00 #H
0"l
b01 K
b000 ".
b0101 #V
b0100 "6
b00101 $=
0$?
b1000 #^
b0100 #_
b00100 ^
b00101 _
0#b
b01 a
b100 #$
0#d
b000 #e
b01 "E
b00 $
b00000001010 "G
b00000 '
b00100 #*
b0101 "J
b00101 #,
b1000 #m
b0100 #/
0"O
b00000001000 #1
b101 #s
0"S
b1010 #u
b1010 z
0"\
b01 }
b00100 "_
b001 ~
0?
#291
1#d
1"l
b01001 #N
b00001 M
1"O
1"S
b01110 $6
1"\
b00000 "=
1$?
1?
1#b
#296
0"S
0#d
0"\
0"l
0$?
0"O
0?
0#b
#301
1#d
1"l
b00001 L
b01001 #O
1"O
1"S
b01110 $:
1"\
1$?
1?
b00000 "A
1#b
#306
0"S
0#d
0"\
0"l
0$?
0"O
0?
0#b
#311
1#d
b00000 "D
1"l
1"O
b01001 #P
1"S
b00001 R
b01110 $;
1"\
1$?
1?
1#b
#316
0"S
0#d
0"\
0"l
0$?
0"O
0?
0#b
#321
1#d
1"l
1"O
b01001 #Q
b00001 Q
1"S
b01110 $8
1"\
1$?
b00000 "?
1?
1#b
#326
0"S
0#d
0"\
0"l
0$?
0"O
0?
0#b
#331
1#d
b01001 #I
1"l
1"O
b00001 P
1"S
b01110 $9
1"\
1$?
b00000 "@
1?
1#b
#336
0"S
0#d
0"\
0"l
0$?
0"O
0?
0#b
#341
1#d
b01001 #J
1"l
1"O
b01110 $2
b00001 O
1"S
b00000 "4
1"\
1$?
1?
1#b
#346
0"S
0#d
0"\
0"l
0$?
0"O
0?
0#b
#351
b11 #C
b10 "c
b01110 "d
b00001 $(
b000 "h
b10010 $+
b01001 #L
1"l
b000000010010 "-
b01001 $3
b01110 $4
b101 "3
b00000 "5
b00001 #X
b01110 "x
b00000 #Y
b00001 W
b1100 ":
b10010 "{
1$?
b01110 ">
1#b
b000000011100 `
1#d
b1000 )
b1010 "L
b00 #.
1"O
b01110 .
b00 "P
b00000 o
b100 "R
b00 1
1"S
b01 2
b110 r
b01011 "U
b00000 #v
b1100 "V
b1010 "W
b1000 "X
b01001 "Z
1"\
b00 {
b00 |
1?
#356
b10 "$
b00011 "g
b01 #H
0"l
b11 K
b0111 #V
b0110 "6
b00110 $=
0$?
b1010 #^
b00101 ^
b00110 _
0#b
b101 #$
0#d
b10 $
b00000001110 "G
b00010 '
b00101 #*
b0111 "J
b00110 #,
b1010 #m
b0110 #/
0"O
b00000001100 #1
b110 #s
0"S
b1100 #u
b1100 z
0"\
b00101 "_
0?
#361
1#d
1"l
b01011 #N
b00011 M
1"O
1"S
b00000 $6
1"\
b00010 "=
1$?
1?
1#b
#366
0"S
0#d
0"\
0"l
0$?
0"O
0?
0#b
#371
1#d
1"l
b00011 L
b01011 #O
1"O
1"S
b00000 $:
1"\
1$?
1?
b00010 "A
1#b
#376
0"S
0#d
0"\
0"l
0$?
0"O
0?
0#b
#381
1#d
b00010 "D
1"l
1"O
b01011 #P
1"S
b00011 R
b00000 $;
1"\
1$?
1?
1#b
#386
0"S
0#d
0"\
0"l
0$?
0"O
0?
0#b
#391
1#d
1"l
1"O
b01011 #Q
b00011 Q
1"S
b00000 $8
1"\
1$?
b00010 "?
1?
1#b
#396
0"S
0#d
0"\
0"l
0$?
0"O
0?
0#b
#401
1#d
b01011 #I
1"l
1"O
b00011 P
1"S
b00000 $9
1"\
1$?
b00010 "@
1?
1#b
#406
0"S
0#d
0"\
0"l
0$?
0"O
0?
0#b
#411
1#d
b01011 #J
1"l
1"O
b00000 $2
b00011 O
1"S
b00010 "4
1"\
1$?
1?
1#b
#416
0"S
0#d
0"\
0"l
0$?
0"O
0?
0#b
#421
b10 #C
b00 "c
b00000 "d
b00011 $(
b11010 $+
b01011 #L
1"l
b000000011010 "-
b01011 $3
b01 "q
b00000 $4
b111 "3
b00010 "5
b00011 #X
b01100 "x
b00010 #Y
b00011 W
b0100 ":
b01 #[
b1000 ";
b11010 "{
1$?
b01100 ">
1#b
b000000011000 `
1#d
b1100 )
b1110 "L
b10 #.
b000 "N
1"O
b00000 .
b00010 o
b00 #2
b110 "R
b10 1
1"S
b11 2
b100 r
b00010 "U
b00010 #v
b1000 "V
b1110 "W
b1100 "X
b01011 "Z
1"\
1?
#426
b11 "$
b000 "e
b00100 "g
b10 #H
0"l
b00 K
b001 ".
b1001 #V
b1000 "6
b00111 $=
0$?
b1100 #^
b00110 ^
b00111 _
0#b
b110 #$
0#d
b001 #e
b00 $
b00000001001 "G
b00100 '
b00110 #*
b1001 "J
b00111 #,
b1100 #m
b1000 #/
0"O
b00000001000 #1
b111 #s
0"S
b1110 #u
b1110 z
0"\
b00110 "_
b000 ~
0?
#431
1#d
1"l
b00010 #N
b00100 M
1"O
1"S
b00010 $6
1"\
b00100 "=
1$?
1?
1#b
#436
0"S
0#d
0"\
0"l
0$?
0"O
0?
0#b
