test_run_dir/SAD_module_with_bw5_pd7_should_correctly_compute_SAD_for_all_input_combinations/SAD.vcd
$date
2025-07-24T21:30+0000
$end
$version
0.2
$end
$comment

$end
$timescale 1ns  $end
$scope module SAD $end
 $var wire 5 ! io_b_0 $end
 $var wire 1 " io_valid_in $end
 $var wire 1 # io_valid_out $end
 $var wire 1 $ abss_0 $end
 $var wire 6 % absVecPiped_0 $end
 $var wire 6 ' absVecRaw_0 $end
 $var wire 1 * clock $end
 $var wire 1 + reset $end
 $var wire 6 . io_sum $end
 $var wire 5 / io_a_0 $end
 $var wire 1 1 adderTree $end
 $var wire 1 2 validRegs_4 $end
 $var wire 1 3 validRegs_5 $end
 $var wire 1 4 validRegs_6 $end
 $var wire 1 6 validRegs_0 $end
 $var wire 1 7 subs_0 $end
 $var wire 1 8 validRegs_1 $end
 $var wire 1 9 validRegs_2 $end
 $var wire 1 : validRegs_3 $end
  $scope module abss_0 $end
   $var wire 6 & io_out $end
   $var wire 6 5 io_in $end
  $upscope $end
  $scope module adderTree $end
   $var wire 6 - io_out $end
   $var wire 6 0 io_in_0 $end
  $upscope $end
  $scope module subs_0 $end
   $var wire 5 ( io_a $end
   $var wire 5 ) io_b $end
   $var wire 6 , io_diff $end
  $upscope $end
$upscope $end
$enddefinitions $end
$dumpvars
01
02
03
04
06
07
08
09
b000000 .
0:
b000000 0
b00000 !
b000000 5
b000000 '
b000000 &
b00000 )
b000000 -
b00000 (
b000000 ,
b00000 /
b000000 %
0"
0#
0$
0*
0+
$end
#0
1+
#1
1*
#6
1"
0*
0+
#11
16
1*
#16
0*
#21
18
1*
#26
0*
#31
19
1*
#36
0*
#41
1*
1:
#46
0*
#51
12
1*
#56
0*
#61
13
1*
#66
0*
#71
1#
14
1*
#76
b00001 !
b111111 5
b000001 &
b000001 '
b00001 )
0*
b111111 ,
#81
b000001 0
b000001 %
1*
b000001 -
b000001 .
#86
0*
#91
1*
#96
0*
#101
1*
#106
0*
#111
1*
#116
0*
#121
1*
#126
0*
#131
1*
#136
0*
#141
1*
#146
b00010 !
b111110 5
b000010 &
b000010 '
b00010 )
0*
b111110 ,
#151
b000010 0
b000010 %
1*
b000010 -
b000010 .
#156
0*
#161
1*
#166
0*
#171
1*
#176
0*
#181
1*
#186
0*
#191
1*
#196
0*
#201
1*
#206
0*
#211
1*
#216
b00011 !
b111101 5
b000011 &
b000011 '
b00011 )
0*
b111101 ,
#221
b000011 0
b000011 %
1*
b000011 -
b000011 .
#226
0*
#231
1*
#236
0*
#241
1*
#246
0*
#251
1*
#256
0*
#261
1*
#266
0*
#271
1*
#276
0*
#281
1*
#286
b00100 !
b111100 5
b000100 &
b000100 '
b00100 )
0*
b111100 ,
#291
b000100 0
b000100 %
1*
b000100 -
b000100 .
#296
0*
#301
1*
#306
0*
#311
1*
#316
0*
#321
1*
#326
0*
#331
1*
#336
0*
#341
1*
#346
0*
#351
1*
#356
b00101 !
b111011 5
b000101 &
b000101 '
b00101 )
0*
b111011 ,
#361
b000101 0
b000101 %
1*
b000101 -
b000101 .
#366
0*
#371
1*
#376
0*
#381
1*
#386
0*
#391
1*
#396
0*
#401
1*
#406
0*
#411
1*
#416
0*
#421
1*
#426
b00110 !
b111010 5
b000110 &
b000110 '
b00110 )
0*
b111010 ,
#431
b000110 0
b000110 %
1*
b000110 -
b000110 .
#436
0*
#441
1*
#446
0*
#451
1*
#456
0*
#461
1*
#466
0*
#471
1*
#476
0*
#481
1*
#486
0*
#491
1*
#496
b00111 !
b111001 5
b000111 &
b000111 '
b00111 )
0*
b111001 ,
#501
b000111 0
b000111 %
1*
b000111 -
b000111 .
#506
0*
#511
1*
#516
0*
#521
1*
#526
0*
#531
1*
#536
0*
#541
1*
#546
0*
#551
1*
#556
0*
#561
1*
#566
b01000 !
b111000 5
b001000 &
b001000 '
b01000 )
0*
b111000 ,
#571
b001000 0
b001000 %
1*
b001000 -
b001000 .
#576
0*
#581
1*
#586
0*
#591
1*
#596
0*
#601
1*
#606
0*
#611
1*
#616
0*
#621
1*
#626
0*
#631
1*
#636
b01001 !
b110111 5
b001001 &
b001001 '
b01001 )
0*
b110111 ,
#641
b001001 0
b001001 %
1*
b001001 -
b001001 .
#646
0*
#651
1*
#656
0*
#661
1*
#666
0*
#671
1*
#676
0*
#681
1*
#686
0*
#691
1*
#696
0*
#701
1*
#706
b01010 !
b110110 5
b001010 &
b001010 '
b01010 )
0*
b110110 ,
#711
b001010 0
b001010 %
1*
b001010 -
b001010 .
#716
0*
#721
1*
#726
0*
#731
1*
#736
0*
#741
1*
#746
0*
#751
1*
#756
0*
#761
1*
#766
0*
#771
1*
#776
b01011 !
b110101 5
b001011 &
b001011 '
b01011 )
0*
b110101 ,
#781
b001011 0
b001011 %
1*
b001011 -
b001011 .
#786
0*
#791
1*
#796
0*
#801
1*
#806
0*
#811
1*
#816
0*
#821
1*
#826
0*
#831
1*
#836
0*
#841
1*
#846
b01100 !
b110100 5
b001100 &
b001100 '
b01100 )
0*
b110100 ,
#851
b001100 0
b001100 %
1*
b001100 -
b001100 .
#856
0*
#861
1*
#866
0*
#871
1*
#876
0*
#881
1*
#886
0*
#891
1*
#896
0*
#901
1*
#906
0*
#911
1*
#916
b01101 !
b110011 5
b001101 &
b001101 '
b01101 )
0*
b110011 ,
#921
b001101 0
b001101 %
1*
b001101 -
b001101 .
#926
0*
#931
1*
#936
0*
#941
1*
#946
0*
#951
1*
#956
0*
#961
1*
#966
0*
#971
1*
#976
0*
#981
1*
#986
b01110 !
b110010 5
b001110 &
b001110 '
b01110 )
0*
b110010 ,
#991
b001110 0
b001110 %
1*
b001110 -
b001110 .
#996
0*
#1001
1*
#1006
0*
#1011
1*
#1016
0*
#1021
1*
#1026
0*
#1031
1*
#1036
0*
#1041
1*
#1046
0*
#1051
1*
#1056
b01111 !
b110001 5
b001111 &
b001111 '
b01111 )
0*
b110001 ,
#1061
b001111 0
b001111 %
1*
b001111 -
b001111 .
#1066
0*
#1071
1*
#1076
0*
#1081
1*
#1086
0*
#1091
1*
#1096
0*
#1101
1*
#1106
0*
#1111
1*
#1116
0*
#1121
1*
#1126
b10000 !
b110000 5
b010000 &
b010000 '
b10000 )
0*
b110000 ,
#1131
b010000 0
b010000 %
1*
b010000 -
b010000 .
#1136
0*
#1141
1*
#1146
0*
#1151
1*
#1156
0*
#1161
1*
#1166
0*
#1171
1*
#1176
0*
#1181
1*
#1186
0*
#1191
1*
#1196
b10001 !
b001111 5
b001111 &
b001111 '
b10001 )
0*
b001111 ,
#1201
b001111 0
b001111 %
1*
b001111 -
b001111 .
#1206
0*
#1211
1*
#1216
0*
#1221
1*
#1226
0*
#1231
1*
#1236
0*
#1241
1*
#1246
0*
#1251
1*
#1256
0*
#1261
1*
#1266
b10010 !
b001110 5
b001110 &
b001110 '
b10010 )
0*
b001110 ,
#1271
b001110 0
b001110 %
1*
b001110 -
b001110 .
#1276
0*
#1281
1*
#1286
0*
#1291
1*
#1296
0*
#1301
1*
#1306
0*
#1311
1*
#1316
0*
#1321
1*
#1326
0*
#1331
1*
#1336
b10011 !
b001101 5
b001101 &
b001101 '
b10011 )
0*
b001101 ,
#1341
b001101 0
b001101 %
1*
b001101 -
b001101 .
#1346
0*
#1351
1*
#1356
0*
#1361
1*
#1366
0*
#1371
1*
#1376
0*
#1381
1*
#1386
0*
#1391
1*
#1396
0*
#1401
1*
#1406
b10100 !
b001100 5
b001100 &
b001100 '
b10100 )
0*
b001100 ,
#1411
b001100 0
b001100 %
1*
b001100 -
b001100 .
#1416
0*
#1421
1*
#1426
0*
#1431
1*
#1436
0*
#1441
1*
#1446
0*
#1451
1*
#1456
0*
#1461
1*
#1466
0*
#1471
1*
#1476
b10101 !
b001011 5
b001011 &
b001011 '
b10101 )
0*
b001011 ,
#1481
b001011 0
b001011 %
1*
b001011 -
b001011 .
#1486
0*
#1491
1*
#1496
0*
#1501
1*
#1506
0*
#1511
1*
#1516
0*
#1521
1*
#1526
0*
#1531
1*
#1536
0*
#1541
1*
#1546
b10110 !
b001010 5
b001010 &
b001010 '
b10110 )
0*
b001010 ,
#1551
b001010 0
b001010 %
1*
b001010 -
b001010 .
#1556
0*
#1561
1*
#1566
0*
#1571
1*
#1576
0*
#1581
1*
#1586
0*
#1591
1*
#1596
0*
#1601
1*
#1606
0*
#1611
1*
#1616
b10111 !
b001001 5
b001001 &
b001001 '
b10111 )
0*
b001001 ,
#1621
b001001 0
b001001 %
1*
b001001 -
b001001 .
#1626
0*
#1631
1*
#1636
0*
#1641
1*
#1646
0*
#1651
1*
#1656
0*
#1661
1*
#1666
0*
#1671
1*
#1676
0*
#1681
1*
#1686
b11000 !
b001000 5
b001000 &
b001000 '
b11000 )
0*
b001000 ,
#1691
b001000 0
b001000 %
1*
b001000 -
b001000 .
#1696
0*
#1701
1*
#1706
0*
#1711
1*
#1716
0*
#1721
1*
#1726
0*
#1731
1*
#1736
0*
#1741
1*
#1746
0*
#1751
1*
#1756
b11001 !
b000111 5
b000111 &
b000111 '
b11001 )
0*
b000111 ,
#1761
b000111 0
b000111 %
1*
b000111 -
b000111 .
#1766
0*
#1771
1*
#1776
0*
#1781
1*
#1786
0*
#1791
1*
#1796
0*
#1801
1*
#1806
0*
#1811
1*
#1816
0*
#1821
1*
#1826
b11010 !
b000110 5
b000110 &
b000110 '
b11010 )
0*
b000110 ,
#1831
b000110 0
b000110 %
1*
b000110 -
b000110 .
#1836
0*
#1841
1*
#1846
0*
#1851
1*
#1856
0*
#1861
1*
#1866
0*
#1871
1*
#1876
0*
#1881
1*
#1886
0*
#1891
1*
#1896
b11011 !
b000101 5
b000101 &
b000101 '
b11011 )
0*
b000101 ,
#1901
b000101 0
b000101 %
1*
b000101 -
b000101 .
#1906
0*
#1911
1*
#1916
0*
#1921
1*
#1926
0*
#1931
1*
#1936
0*
#1941
1*
#1946
0*
#1951
1*
#1956
0*
#1961
1*
#1966
b11100 !
b000100 5
b000100 &
b000100 '
b11100 )
0*
b000100 ,
#1971
b000100 0
b000100 %
1*
b000100 -
b000100 .
#1976
0*
#1981
1*
#1986
0*
#1991
1*
#1996
0*
#2001
1*
#2006
0*
#2011
1*
#2016
0*
#2021
1*
#2026
0*
#2031
1*
#2036
b11101 !
b000011 5
b000011 &
b000011 '
b11101 )
0*
b000011 ,
#2041
b000011 0
b000011 %
1*
b000011 -
b000011 .
#2046
0*
#2051
1*
#2056
0*
#2061
1*
#2066
0*
#2071
1*
#2076
0*
#2081
1*
#2086
0*
#2091
1*
#2096
0*
#2101
1*
#2106
b11110 !
b000010 5
b000010 &
b000010 '
b11110 )
0*
b000010 ,
#2111
b000010 0
b000010 %
1*
b000010 -
b000010 .
#2116
0*
#2121
1*
#2126
0*
#2131
1*
#2136
0*
#2141
1*
#2146
0*
#2151
1*
#2156
0*
#2161
1*
#2166
0*
#2171
1*
#2176
b11111 !
b000001 5
b000001 &
b000001 '
b11111 )
0*
b000001 ,
#2181
b000001 0
b000001 %
1*
b000001 -
b000001 .
#2186
0*
#2191
1*
#2196
0*
#2201
1*
#2206
0*
#2211
1*
#2216
0*
#2221
1*
#2226
0*
#2231
1*
#2236
0*
#2241
1*
#2246
b00000 !
b00001 (
b00000 )
0*
b00001 /
#2251
1*
#2256
0*
#2261
1*
#2266
0*
#2271
1*
#2276
0*
#2281
1*
#2286
0*
#2291
1*
#2296
0*
#2301
1*
#2306
0*
#2311
1*
#2316
b00001 !
b000000 5
b000000 &
b000000 '
b00001 )
0*
b000000 ,
#2321
b000000 0
b000000 %
1*
b000000 -
b000000 .
#2326
0*
#2331
1*
#2336
0*
#2341
1*
#2346
0*
#2351
1*
#2356
0*
#2361
1*
#2366
0*
#2371
1*
#2376
0*
#2381
1*
#2386
b00010 !
b111111 5
b000001 &
b000001 '
b00010 )
0*
b111111 ,
#2391
b000001 0
b000001 %
1*
b000001 -
b000001 .
#2396
0*
#2401
1*
#2406
0*
#2411
1*
#2416
0*
#2421
1*
#2426
0*
#2431
1*
#2436
0*
#2441
1*
#2446
0*
#2451
1*
#2456
b00011 !
b111110 5
b000010 &
b000010 '
b00011 )
0*
b111110 ,
#2461
b000010 0
b000010 %
1*
b000010 -
b000010 .
#2466
0*
#2471
1*
#2476
0*
#2481
1*
#2486
0*
#2491
1*
#2496
0*
#2501
1*
#2506
0*
#2511
1*
#2516
0*
#2521
1*
#2526
b00100 !
b111101 5
b000011 &
b000011 '
b00100 )
0*
b111101 ,
#2531
b000011 0
b000011 %
1*
b000011 -
b000011 .
#2536
0*
#2541
1*
#2546
0*
#2551
1*
#2556
0*
#2561
1*
#2566
0*
#2571
1*
#2576
0*
#2581
1*
#2586
0*
#2591
1*
#2596
b00101 !
b111100 5
b000100 &
b000100 '
b00101 )
0*
b111100 ,
#2601
b000100 0
b000100 %
1*
b000100 -
b000100 .
#2606
0*
#2611
1*
#2616
0*
#2621
1*
#2626
0*
#2631
1*
#2636
0*
#2641
1*
#2646
0*
#2651
1*
#2656
0*
#2661
1*
#2666
b00110 !
b111011 5
b000101 &
b000101 '
b00110 )
0*
b111011 ,
#2671
b000101 0
b000101 %
1*
b000101 -
b000101 .
#2676
0*
#2681
1*
#2686
0*
#2691
1*
#2696
0*
#2701
1*
#2706
0*
#2711
1*
#2716
0*
#2721
1*
#2726
0*
#2731
1*
#2736
b00111 !
b111010 5
b000110 &
b000110 '
b00111 )
0*
b111010 ,
#2741
b000110 0
b000110 %
1*
b000110 -
b000110 .
#2746
0*
#2751
1*
#2756
0*
#2761
1*
#2766
0*
#2771
1*
#2776
0*
#2781
1*
#2786
0*
#2791
1*
#2796
0*
#2801
1*
#2806
b01000 !
b111001 5
b000111 &
b000111 '
b01000 )
0*
b111001 ,
#2811
b000111 0
b000111 %
1*
b000111 -
b000111 .
#2816
0*
#2821
1*
#2826
0*
#2831
1*
#2836
0*
#2841
1*
#2846
0*
#2851
1*
#2856
0*
#2861
1*
#2866
0*
#2871
1*
#2876
b01001 !
b111000 5
b001000 &
b001000 '
b01001 )
0*
b111000 ,
#2881
b001000 0
b001000 %
1*
b001000 -
b001000 .
#2886
0*
#2891
1*
#2896
0*
#2901
1*
#2906
0*
#2911
1*
#2916
0*
#2921
1*
#2926
0*
#2931
1*
#2936
0*
#2941
1*
#2946
b01010 !
b110111 5
b001001 &
b001001 '
b01010 )
0*
b110111 ,
#2951
b001001 0
b001001 %
1*
b001001 -
b001001 .
#2956
0*
#2961
1*
#2966
0*
#2971
1*
#2976
0*
#2981
1*
#2986
0*
#2991
1*
#2996
0*
#3001
1*
#3006
0*
#3011
1*
#3016
b01011 !
b110110 5
b001010 &
b001010 '
b01011 )
0*
b110110 ,
#3021
b001010 0
b001010 %
1*
b001010 -
b001010 .
#3026
0*
#3031
1*
#3036
0*
#3041
1*
#3046
0*
#3051
1*
#3056
0*
#3061
1*
#3066
0*
#3071
1*
#3076
0*
#3081
1*
#3086
b01100 !
b110101 5
b001011 &
b001011 '
b01100 )
0*
b110101 ,
#3091
b001011 0
b001011 %
1*
b001011 -
b001011 .
#3096
0*
#3101
1*
#3106
0*
#3111
1*
#3116
0*
#3121
1*
#3126
0*
#3131
1*
#3136
0*
#3141
1*
#3146
0*
#3151
1*
#3156
b01101 !
b110100 5
b001100 &
b001100 '
b01101 )
0*
b110100 ,
#3161
b001100 0
b001100 %
1*
b001100 -
b001100 .
#3166
0*
#3171
1*
#3176
0*
#3181
1*
#3186
0*
#3191
1*
#3196
0*
#3201
1*
#3206
0*
#3211
1*
#3216
0*
#3221
1*
#3226
b01110 !
b110011 5
b001101 &
b001101 '
b01110 )
0*
b110011 ,
#3231
b001101 0
b001101 %
1*
b001101 -
b001101 .
#3236
0*
#3241
1*
#3246
0*
#3251
1*
#3256
0*
#3261
1*
#3266
0*
#3271
1*
#3276
0*
#3281
1*
#3286
0*
#3291
1*
#3296
b01111 !
b110010 5
b001110 &
b001110 '
b01111 )
0*
b110010 ,
#3301
b001110 0
b001110 %
1*
b001110 -
b001110 .
#3306
0*
#3311
1*
#3316
0*
#3321
1*
#3326
0*
#3331
1*
#3336
0*
#3341
1*
#3346
0*
#3351
1*
#3356
0*
#3361
1*
#3366
b10000 !
b110001 5
b001111 &
b001111 '
b10000 )
0*
b110001 ,
#3371
b001111 0
b001111 %
1*
b001111 -
b001111 .
#3376
0*
#3381
1*
#3386
0*
#3391
1*
#3396
0*
#3401
1*
#3406
0*
#3411
1*
#3416
0*
#3421
1*
#3426
0*
#3431
1*
#3436
b10001 !
b110000 5
b010000 &
b010000 '
b10001 )
0*
b110000 ,
#3441
b010000 0
b010000 %
1*
b010000 -
b010000 .
#3446
0*
#3451
1*
#3456
0*
#3461
1*
#3466
0*
#3471
1*
#3476
0*
#3481
1*
#3486
0*
#3491
1*
#3496
0*
#3501
1*
#3506
b10010 !
b001111 5
b001111 &
b001111 '
b10010 )
0*
b001111 ,
#3511
b001111 0
b001111 %
1*
b001111 -
b001111 .
#3516
0*
#3521
1*
#3526
0*
#3531
1*
#3536
0*
#3541
1*
#3546
0*
#3551
1*
#3556
0*
#3561
1*
#3566
0*
#3571
1*
#3576
b10011 !
b001110 5
b001110 &
b001110 '
b10011 )
0*
b001110 ,
#3581
b001110 0
b001110 %
1*
b001110 -
b001110 .
#3586
0*
#3591
1*
#3596
0*
#3601
1*
#3606
0*
#3611
1*
#3616
0*
#3621
1*
#3626
0*
#3631
1*
#3636
0*
#3641
1*
#3646
b10100 !
b001101 5
b001101 &
b001101 '
b10100 )
0*
b001101 ,
#3651
b001101 0
b001101 %
1*
b001101 -
b001101 .
#3656
0*
#3661
1*
#3666
0*
#3671
1*
#3676
0*
#3681
1*
#3686
0*
#3691
1*
#3696
0*
#3701
1*
#3706
0*
#3711
1*
#3716
b10101 !
b001100 5
b001100 &
b001100 '
b10101 )
0*
b001100 ,
#3721
b001100 0
b001100 %
1*
b001100 -
b001100 .
#3726
0*
#3731
1*
#3736
0*
#3741
1*
#3746
0*
#3751
1*
#3756
0*
#3761
1*
#3766
0*
#3771
1*
#3776
0*
#3781
1*
#3786
b10110 !
b001011 5
b001011 &
b001011 '
b10110 )
0*
b001011 ,
#3791
b001011 0
b001011 %
1*
b001011 -
b001011 .
#3796
0*
#3801
1*
#3806
0*
#3811
1*
#3816
0*
#3821
1*
#3826
0*
#3831
1*
#3836
0*
#3841
1*
#3846
0*
#3851
1*
#3856
b10111 !
b001010 5
b001010 &
b001010 '
b10111 )
0*
b001010 ,
#3861
b001010 0
b001010 %
1*
b001010 -
b001010 .
#3866
0*
#3871
1*
#3876
0*
#3881
1*
#3886
0*
#3891
1*
#3896
0*
#3901
1*
#3906
0*
#3911
1*
#3916
0*
#3921
1*
#3926
b11000 !
b001001 5
b001001 &
b001001 '
b11000 )
0*
b001001 ,
#3931
b001001 0
b001001 %
1*
b001001 -
b001001 .
#3936
0*
#3941
1*
#3946
0*
#3951
1*
#3956
0*
#3961
1*
#3966
0*
#3971
1*
#3976
0*
#3981
1*
#3986
0*
#3991
1*
#3996
b11001 !
b001000 5
b001000 &
b001000 '
b11001 )
0*
b001000 ,
#4001
b001000 0
b001000 %
1*
b001000 -
b001000 .
#4006
0*
#4011
1*
#4016
0*
#4021
1*
#4026
0*
#4031
1*
#4036
0*
#4041
1*
#4046
0*
#4051
1*
#4056
0*
#4061
1*
#4066
b11010 !
b000111 5
b000111 &
b000111 '
b11010 )
0*
b000111 ,
#4071
b000111 0
b000111 %
1*
b000111 -
b000111 .
#4076
0*
#4081
1*
#4086
0*
#4091
1*
#4096
0*
#4101
1*
#4106
0*
#4111
1*
#4116
0*
#4121
1*
#4126
0*
#4131
1*
#4136
b11011 !
b000110 5
b000110 &
b000110 '
b11011 )
0*
b000110 ,
#4141
b000110 0
b000110 %
1*
b000110 -
b000110 .
#4146
0*
#4151
1*
#4156
0*
#4161
1*
#4166
0*
#4171
1*
#4176
0*
#4181
1*
#4186
0*
#4191
1*
#4196
0*
#4201
1*
#4206
b11100 !
b000101 5
b000101 &
b000101 '
b11100 )
0*
b000101 ,
#4211
b000101 0
b000101 %
1*
b000101 -
b000101 .
#4216
0*
#4221
1*
#4226
0*
#4231
1*
#4236
0*
#4241
1*
#4246
0*
#4251
1*
#4256
0*
#4261
1*
#4266
0*
#4271
1*
#4276
b11101 !
b000100 5
b000100 &
b000100 '
b11101 )
0*
b000100 ,
#4281
b000100 0
b000100 %
1*
b000100 -
b000100 .
#4286
0*
#4291
1*
#4296
0*
#4301
1*
#4306
0*
#4311
1*
#4316
0*
#4321
1*
#4326
0*
#4331
1*
#4336
0*
#4341
1*
#4346
b11110 !
b000011 5
b000011 &
b000011 '
b11110 )
0*
b000011 ,
#4351
b000011 0
b000011 %
1*
b000011 -
b000011 .
#4356
0*
#4361
1*
#4366
0*
#4371
1*
#4376
0*
#4381
1*
#4386
0*
#4391
1*
#4396
0*
#4401
1*
#4406
0*
#4411
1*
#4416
b11111 !
b000010 5
b000010 &
b000010 '
b11111 )
0*
b000010 ,
#4421
b000010 0
b000010 %
1*
b000010 -
b000010 .
#4426
0*
#4431
1*
#4436
0*
#4441
1*
#4446
0*
#4451
1*
#4456
0*
#4461
1*
#4466
0*
#4471
1*
#4476
0*
#4481
1*
#4486
b00000 !
b00010 (
b00000 )
0*
b00010 /
#4491
1*
#4496
0*
#4501
1*
#4506
0*
#4511
1*
#4516
0*
#4521
1*
#4526
0*
#4531
1*
#4536
0*
#4541
1*
#4546
0*
#4551
1*
#4556
b00001 !
b000001 5
b000001 &
b000001 '
b00001 )
0*
b000001 ,
#4561
b000001 0
b000001 %
1*
b000001 -
b000001 .
#4566
0*
#4571
1*
#4576
0*
#4581
1*
#4586
0*
#4591
1*
#4596
0*
#4601
1*
#4606
0*
#4611
1*
#4616
0*
#4621
1*
#4626
b00010 !
b000000 5
b000000 &
b000000 '
b00010 )
0*
b000000 ,
#4631
b000000 0
b000000 %
1*
b000000 -
b000000 .
#4636
0*
#4641
1*
#4646
0*
#4651
1*
#4656
0*
#4661
1*
#4666
0*
#4671
1*
#4676
0*
#4681
1*
#4686
0*
#4691
1*
#4696
b00011 !
b111111 5
b000001 &
b000001 '
b00011 )
0*
b111111 ,
#4701
b000001 0
b000001 %
1*
b000001 -
b000001 .
#4706
0*
#4711
1*
#4716
0*
#4721
1*
#4726
0*
#4731
1*
#4736
0*
#4741
1*
#4746
0*
#4751
1*
#4756
0*
#4761
1*
#4766
b00100 !
b111110 5
b000010 &
b000010 '
b00100 )
0*
b111110 ,
#4771
b000010 0
b000010 %
1*
b000010 -
b000010 .
#4776
0*
#4781
1*
#4786
0*
#4791
1*
#4796
0*
#4801
1*
#4806
0*
#4811
1*
#4816
0*
#4821
1*
#4826
0*
#4831
1*
#4836
b00101 !
b111101 5
b000011 &
b000011 '
b00101 )
0*
b111101 ,
#4841
b000011 0
b000011 %
1*
b000011 -
b000011 .
#4846
0*
#4851
1*
#4856
0*
#4861
1*
#4866
0*
#4871
1*
#4876
0*
#4881
1*
#4886
0*
#4891
1*
#4896
0*
#4901
1*
#4906
b00110 !
b111100 5
b000100 &
b000100 '
b00110 )
0*
b111100 ,
#4911
b000100 0
b000100 %
1*
b000100 -
b000100 .
#4916
0*
#4921
1*
#4926
0*
#4931
1*
#4936
0*
#4941
1*
#4946
0*
#4951
1*
#4956
0*
#4961
1*
#4966
0*
#4971
1*
#4976
b00111 !
b111011 5
b000101 &
b000101 '
b00111 )
0*
b111011 ,
#4981
b000101 0
b000101 %
1*
b000101 -
b000101 .
#4986
0*
#4991
1*
#4996
0*
#5001
1*
#5006
0*
#5011
1*
#5016
0*
#5021
1*
#5026
0*
#5031
1*
#5036
0*
#5041
1*
#5046
b01000 !
b111010 5
b000110 &
b000110 '
b01000 )
0*
b111010 ,
#5051
b000110 0
b000110 %
1*
b000110 -
b000110 .
#5056
0*
#5061
1*
#5066
0*
#5071
1*
#5076
0*
#5081
1*
#5086
0*
#5091
1*
#5096
0*
#5101
1*
#5106
0*
#5111
1*
#5116
b01001 !
b111001 5
b000111 &
b000111 '
b01001 )
0*
b111001 ,
#5121
b000111 0
b000111 %
1*
b000111 -
b000111 .
#5126
0*
#5131
1*
#5136
0*
#5141
1*
#5146
0*
#5151
1*
#5156
0*
#5161
1*
#5166
0*
#5171
1*
#5176
0*
#5181
1*
#5186
b01010 !
b111000 5
b001000 &
b001000 '
b01010 )
0*
b111000 ,
#5191
b001000 0
b001000 %
1*
b001000 -
b001000 .
#5196
0*
#5201
1*
#5206
0*
#5211
1*
#5216
0*
#5221
1*
#5226
0*
#5231
1*
#5236
0*
#5241
1*
#5246
0*
#5251
1*
#5256
b01011 !
b110111 5
b001001 &
b001001 '
b01011 )
0*
b110111 ,
#5261
b001001 0
b001001 %
1*
b001001 -
b001001 .
#5266
0*
#5271
1*
#5276
0*
#5281
1*
#5286
0*
#5291
1*
#5296
0*
#5301
1*
#5306
0*
#5311
1*
#5316
0*
#5321
1*
#5326
b01100 !
b110110 5
b001010 &
b001010 '
b01100 )
0*
b110110 ,
#5331
b001010 0
b001010 %
1*
b001010 -
b001010 .
#5336
0*
#5341
1*
#5346
0*
#5351
1*
#5356
0*
#5361
1*
#5366
0*
#5371
1*
#5376
0*
#5381
1*
#5386
0*
#5391
1*
#5396
b01101 !
b110101 5
b001011 &
b001011 '
b01101 )
0*
b110101 ,
#5401
b001011 0
b001011 %
1*
b001011 -
b001011 .
#5406
0*
#5411
1*
#5416
0*
#5421
1*
#5426
0*
#5431
1*
#5436
0*
#5441
1*
#5446
0*
#5451
1*
#5456
0*
#5461
1*
#5466
b01110 !
b110100 5
b001100 &
b001100 '
b01110 )
0*
b110100 ,
#5471
b001100 0
b001100 %
1*
b001100 -
b001100 .
#5476
0*
#5481
1*
#5486
0*
#5491
1*
#5496
0*
#5501
1*
#5506
0*
#5511
1*
#5516
0*
#5521
1*
#5526
0*
#5531
1*
#5536
b01111 !
b110011 5
b001101 &
b001101 '
b01111 )
0*
b110011 ,
#5541
b001101 0
b001101 %
1*
b001101 -
b001101 .
#5546
0*
#5551
1*
#5556
0*
#5561
1*
#5566
0*
#5571
1*
#5576
0*
#5581
1*
#5586
0*
#5591
1*
#5596
0*
#5601
1*
#5606
b10000 !
b110010 5
b001110 &
b001110 '
b10000 )
0*
b110010 ,
#5611
b001110 0
b001110 %
1*
b001110 -
b001110 .
#5616
0*
#5621
1*
#5626
0*
#5631
1*
#5636
0*
#5641
1*
#5646
0*
#5651
1*
#5656
0*
#5661
1*
#5666
0*
#5671
1*
#5676
b10001 !
b110001 5
b001111 &
b001111 '
b10001 )
0*
b110001 ,
#5681
b001111 0
b001111 %
1*
b001111 -
b001111 .
#5686
0*
#5691
1*
#5696
0*
#5701
1*
#5706
0*
#5711
1*
#5716
0*
#5721
1*
#5726
0*
#5731
1*
#5736
0*
#5741
1*
#5746
b10010 !
b110000 5
b010000 &
b010000 '
b10010 )
0*
b110000 ,
#5751
b010000 0
b010000 %
1*
b010000 -
b010000 .
#5756
0*
#5761
1*
#5766
0*
#5771
1*
#5776
0*
#5781
1*
#5786
0*
#5791
1*
#5796
0*
#5801
1*
#5806
0*
#5811
1*
#5816
b10011 !
b001111 5
b001111 &
b001111 '
b10011 )
0*
b001111 ,
#5821
b001111 0
b001111 %
1*
b001111 -
b001111 .
#5826
0*
#5831
1*
#5836
0*
#5841
1*
#5846
0*
#5851
1*
#5856
0*
#5861
1*
#5866
0*
#5871
1*
#5876
0*
#5881
1*
#5886
b10100 !
b001110 5
b001110 &
b001110 '
b10100 )
0*
b001110 ,
#5891
b001110 0
b001110 %
1*
b001110 -
b001110 .
#5896
0*
#5901
1*
#5906
0*
#5911
1*
#5916
0*
#5921
1*
#5926
0*
#5931
1*
#5936
0*
#5941
1*
#5946
0*
#5951
1*
#5956
b10101 !
b001101 5
b001101 &
b001101 '
b10101 )
0*
b001101 ,
#5961
b001101 0
b001101 %
1*
b001101 -
b001101 .
#5966
0*
#5971
1*
#5976
0*
#5981
1*
#5986
0*
#5991
1*
#5996
0*
#6001
1*
#6006
0*
#6011
1*
#6016
0*
#6021
1*
#6026
b10110 !
b001100 5
b001100 &
b001100 '
b10110 )
0*
b001100 ,
#6031
b001100 0
b001100 %
1*
b001100 -
b001100 .
#6036
0*
#6041
1*
#6046
0*
#6051
1*
#6056
0*
#6061
1*
#6066
0*
#6071
1*
#6076
0*
#6081
1*
#6086
0*
#6091
1*
#6096
b10111 !
b001011 5
b001011 &
b001011 '
b10111 )
0*
b001011 ,
#6101
b001011 0
b001011 %
1*
b001011 -
b001011 .
#6106
0*
#6111
1*
#6116
0*
#6121
1*
#6126
0*
#6131
1*
#6136
0*
#6141
1*
#6146
0*
#6151
1*
#6156
0*
#6161
1*
#6166
b11000 !
b001010 5
b001010 &
b001010 '
b11000 )
0*
b001010 ,
#6171
b001010 0
b001010 %
1*
b001010 -
b001010 .
#6176
0*
#6181
1*
#6186
0*
#6191
1*
#6196
0*
#6201
1*
#6206
0*
#6211
1*
#6216
0*
#6221
1*
#6226
0*
#6231
1*
#6236
b11001 !
b001001 5
b001001 &
b001001 '
b11001 )
0*
b001001 ,
#6241
b001001 0
b001001 %
1*
b001001 -
b001001 .
#6246
0*
#6251
1*
#6256
0*
#6261
1*
#6266
0*
#6271
1*
#6276
0*
#6281
1*
#6286
0*
#6291
1*
#6296
0*
#6301
1*
#6306
b11010 !
b001000 5
b001000 &
b001000 '
b11010 )
0*
b001000 ,
#6311
b001000 0
b001000 %
1*
b001000 -
b001000 .
#6316
0*
#6321
1*
#6326
0*
#6331
1*
#6336
0*
#6341
1*
#6346
0*
#6351
1*
#6356
0*
#6361
1*
#6366
0*
#6371
1*
#6376
b11011 !
b000111 5
b000111 &
b000111 '
b11011 )
0*
b000111 ,
