test_run_dir/FP4Adder_should_add_all_combinations_of_FP4_inputs_with_pipeline_depth__3/FP4Adder.vcd
$date
2025-07-08T16:47+0000
$end
$version
0.2
$end
$comment

$end
$timescale 1ns  $end
$scope module FP4Adder $end
 $var wire 2 ! aligned_exp $end
 $var wire 1 " carry_out $end
 $var wire 1 # io_out_valid $end
 $var wire 1 $ out_valid_reg $end
 $var wire 4 % result_reg_r $end
 $var wire 4 & result_reg $end
 $var wire 1 ' b_is_zero $end
 $var wire 1 ( a_is_zero $end
 $var wire 3 ) sum_man $end
 $var wire 1 * clock $end
 $var wire 2 + exp_diff $end
 $var wire 3 , aligned_b_man $end
 $var wire 4 - io_b $end
 $var wire 4 . io_a $end
 $var wire 1 / reset $end
 $var wire 2 0 a_exp $end
 $var wire 4 1 io_out $end
 $var wire 2 2 norm_sum_man $end
 $var wire 1 3 io_in_valid $end
 $var wire 4 4 result $end
 $var wire 2 5 norm_exp $end
 $var wire 2 6 b_exp $end
 $var wire 1 7 out_valid_reg_r $end
 $var wire 4 8 result_reg_r_1 $end
 $var wire 1 9 out_valid_reg_r_1 $end
 $var wire 3 : aligned_a_man $end
 $var wire 3 ; b_man $end
 $var wire 1 < io_in_en $end
 $var wire 3 = a_man $end
$upscope $end
$enddefinitions $end
$dumpvars
03
b00 6
07
09
b00 0
0<
b00 5
b00 2
b00 +
b00 !
b000 ;
b000 :
b000 =
b0000 %
b000 )
b0000 -
b0000 &
b000 ,
b0000 4
0"
0#
0$
b0000 1
b0000 .
0'
0(
0*
b0000 8
0/
$end
#0
1'
1(
1/
#1
1*
#6
13
0*
1<
0/
#11
17
1*
#16
03
0*
0<
#21
1*
#26
0*
#31
1*
#36
1"
0'
b101 )
0*
b101 ,
b0001 -
b10 2
13
b0110 4
b01 5
b101 ;
1<
#41
b0110 %
19
1*
#46
03
0*
0<
#51
1*
#56
0*
#61
1*
#66
b11 2
13
b0111 4
b110 )
0*
b110 ;
b110 ,
1<
b0010 -
#71
1#
1$
b0111 %
b0110 8
1*
#76
03
0*
0<
#81
1*
#86
0*
#91
1*
#96
13
b111 )
0*
b111 ;
b111 ,
1<
b0011 -
#101
b0110 1
b0110 &
b0111 8
1*
#106
03
0*
0<
#111
1*
#116
0*
#121
1*
#126
b01 !
b100 )
0*
b11 +
b100 ,
b0100 -
b10 2
13
b1010 4
b10 5
b01 6
b100 ;
1<
#131
b0111 1
b1010 %
b0111 &
1*
#136
03
0*
0<
#141
1*
#146
0*
#151
1*
#156
13
b101 )
0*
b101 ;
b101 ,
1<
b0101 -
#161
b1010 8
1*
#166
03
0*
0<
#171
1*
#176
0*
#181
1*
#186
b11 2
13
b1011 4
b110 )
0*
b110 ;
b110 ,
1<
b0110 -
#191
b1010 1
b1011 %
b1010 &
1*
#196
03
0*
0<
#201
1*
#206
0*
#211
1*
#216
13
b111 )
0*
b111 ;
b111 ,
1<
b0111 -
#221
b1011 8
1*
#226
03
0*
0<
#231
1*
#236
0*
#241
1*
#246
b10 !
b100 )
0*
b10 +
b100 ,
b1000 -
b10 2
13
b1110 4
b11 5
b10 6
b100 ;
1<
#251
b1011 1
b1110 %
b1011 &
1*
#256
03
0*
0<
#261
1*
#266
0*
#271
1*
#276
13
b101 )
0*
b101 ;
b101 ,
1<
b1001 -
#281
b1110 8
1*
#286
03
0*
0<
#291
1*
#296
0*
#301
1*
#306
b11 2
13
b1111 4
b110 )
0*
b110 ;
b110 ,
1<
b1010 -
#311
b1110 1
b1111 %
b1110 &
1*
#316
03
0*
0<
#321
1*
#326
0*
#331
1*
#336
13
b111 )
0*
b111 ;
b111 ,
1<
b1011 -
#341
b1111 8
1*
#346
03
0*
0<
#351
1*
#356
0*
#361
1*
#366
b00 !
0"
b010 )
0*
b01 +
b010 ,
b1100 -
b10 2
13
b0010 4
b00 5
b11 6
b100 ;
1<
#371
b1111 1
b0010 %
b1111 &
1*
#376
03
0*
0<
#381
1*
#386
0*
#391
1*
#396
13
0*
b101 ;
1<
b1101 -
#401
b0010 8
1*
#406
03
0*
0<
#411
1*
#416
0*
#421
1*
#426
b11 2
13
b0011 4
b011 )
0*
b110 ;
b011 ,
1<
b1110 -
#431
b0010 1
b0011 %
b0010 &
1*
#436
03
0*
0<
#441
1*
#446
0*
#451
1*
#456
13
0*
b111 ;
1<
b1111 -
#461
b0011 8
1*
#466
03
0*
0<
#471
1*
#476
0*
#481
1*
#486
1"
1'
0(
b101 )
0*
b00 +
b000 ,
b0000 -
b0001 .
b10 2
13
b0110 4
b01 5
b00 6
b101 :
b000 ;
1<
b101 =
#491
b0011 1
b0110 %
b0011 &
1*
#496
03
0*
0<
#501
1*
#506
0*
#511
1*
#516
0"
13
b0010 4
b00 5
0'
b010 )
0*
b101 ;
b101 ,
1<
b0001 -
#521
b0010 %
b0110 8
1*
#526
03
0*
0<
#531
1*
#536
0*
#541
1*
#546
b11 2
13
b0011 4
b011 )
0*
b110 ;
b110 ,
1<
b0010 -
#551
b0110 1
b0011 %
b0110 &
b0010 8
1*
#556
03
0*
0<
#561
1*
#566
0*
#571
1*
#576
1"
b10 2
13
b0110 4
b01 5
b100 )
0*
b111 ;
b111 ,
1<
b0011 -
#581
b0010 1
b0110 %
b0010 &
b0011 8
1*
#586
03
0*
0<
#591
1*
#596
0*
#601
1*
#606
b01 !
b110 )
0*
b11 +
b100 ,
b0100 -
b11 2
13
b1011 4
b10 5
b01 6
b010 :
b100 ;
1<
#611
b0011 1
b1011 %
b0011 &
b0110 8
1*
#616
03
0*
0<
#621
1*
#626
0*
#631
1*
#636
13
b111 )
0*
b101 ;
b101 ,
1<
b0101 -
#641
b0110 1
b0110 &
b1011 8
1*
#646
03
0*
0<
#651
1*
#656
0*
#661
1*
#666
0"
b00 2
13
b0100 4
b01 5
b000 )
0*
b110 ;
b110 ,
1<
b0110 -
#671
b1011 1
b0100 %
b1011 &
1*
#676
03
0*
0<
#681
1*
#686
0*
#691
1*
#696
b01 2
13
b0101 4
b001 )
0*
b111 ;
b111 ,
1<
b0111 -
#701
b0101 %
b0100 8
1*
#706
03
0*
0<
#711
1*
#716
0*
#721
1*
#726
b10 !
1"
b101 )
0*
b10 +
b100 ,
b1000 -
b10 2
13
b1110 4
b11 5
b10 6
b001 :
b100 ;
1<
#731
b0100 1
b1110 %
b0100 &
b0101 8
1*
#736
03
0*
0<
#741
1*
#746
0*
#751
1*
#756
b11 2
13
b1111 4
b110 )
0*
b101 ;
b101 ,
1<
b1001 -
#761
b0101 1
b1111 %
b0101 &
b1110 8
1*
#766
03
0*
0<
#771
1*
#776
0*
#781
1*
#786
13
b111 )
0*
b110 ;
b110 ,
1<
b1010 -
#791
b1110 1
b1110 &
b1111 8
1*
#796
03
0*
0<
#801
1*
#806
0*
#811
1*
#816
0"
b00 2
13
b1000 4
b10 5
b000 )
0*
b111 ;
b111 ,
1<
b1011 -
#821
b1111 1
b1000 %
b1111 &
1*
#826
03
0*
0<
#831
1*
#836
0*
#841
1*
#846
b00 !
1"
b111 )
0*
b01 +
b010 ,
b1100 -
b11 2
13
b0111 4
b01 5
b11 6
b101 :
b100 ;
1<
#851
b0111 %
b1000 8
1*
#856
03
0*
0<
#861
1*
#866
0*
#871
1*
#876
13
0*
b101 ;
1<
b1101 -
#881
b1000 1
b1000 &
b0111 8
1*
#886
03
0*
0<
#891
1*
#896
0*
#901
1*
#906
0"
b00 2
13
b0000 4
b00 5
b000 )
0*
b110 ;
b011 ,
1<
b1110 -
#911
b0111 1
b0000 %
b0111 &
1*
#916
03
0*
0<
#921
1*
#926
0*
#931
1*
#936
13
0*
b111 ;
1<
b1111 -
#941
b0000 8
1*
#946
03
0*
0<
#951
1*
#956
0*
#961
1*
#966
1"
1'
b110 )
0*
b00 +
b000 ,
b0000 -
b0010 .
b11 2
13
b0111 4
b01 5
b00 6
b110 :
b000 ;
1<
b110 =
#971
b0000 1
b0111 %
b0000 &
1*
#976
03
0*
0<
#981
1*
#986
0*
#991
1*
#996
0"
13
b0011 4
b00 5
0'
b011 )
0*
b101 ;
b101 ,
1<
b0001 -
#1001
b0011 %
b0111 8
1*
#1006
03
0*
0<
#1011
1*
#1016
0*
#1021
1*
#1026
1"
b10 2
13
b0110 4
b01 5
b100 )
0*
b110 ;
b110 ,
1<
b0010 -
#1031
b0111 1
b0110 %
b0111 &
b0011 8
1*
#1036
03
0*
0<
#1041
1*
#1046
0*
#1051
1*
#1056
13
b101 )
0*
b111 ;
b111 ,
1<
b0011 -
#1061
b0011 1
b0011 &
b0110 8
1*
#1066
03
0*
0<
#1071
1*
#1076
0*
#1081
1*
#1086
b01 !
b111 )
0*
b11 +
b100 ,
b0100 -
b11 2
13
b1011 4
b10 5
b01 6
b011 :
b100 ;
1<
#1091
b0110 1
b1011 %
b0110 &
1*
#1096
03
0*
0<
#1101
1*
#1106
0*
#1111
1*
#1116
0"
b00 2
13
b0100 4
b01 5
b000 )
0*
b101 ;
b101 ,
1<
b0101 -
#1121
b0100 %
b1011 8
1*
#1126
03
0*
0<
#1131
1*
#1136
0*
#1141
1*
#1146
b01 2
13
b0101 4
b001 )
0*
b110 ;
b110 ,
1<
b0110 -
#1151
b1011 1
b0101 %
b1011 &
b0100 8
1*
#1156
03
0*
0<
#1161
1*
#1166
0*
#1171
1*
#1176
b10 2
13
b0110 4
b010 )
0*
b111 ;
b111 ,
1<
b0111 -
#1181
b0100 1
b0110 %
b0100 &
b0101 8
1*
#1186
03
0*
0<
#1191
1*
#1196
0*
#1201
1*
#1206
b10 !
1"
b101 )
0*
b10 +
b100 ,
b1000 -
13
b1110 4
b11 5
b10 6
b001 :
b100 ;
1<
#1211
b0101 1
b1110 %
b0101 &
b0110 8
1*
#1216
03
0*
0<
#1221
1*
#1226
0*
#1231
1*
#1236
b11 2
13
b1111 4
b110 )
0*
b101 ;
b101 ,
1<
b1001 -
#1241
b0110 1
b1111 %
b0110 &
b1110 8
1*
#1246
03
0*
0<
#1251
1*
#1256
0*
#1261
1*
#1266
13
b111 )
0*
b110 ;
b110 ,
1<
b1010 -
#1271
b1110 1
b1110 &
b1111 8
1*
#1276
03
0*
0<
#1281
1*
#1286
0*
#1291
1*
#1296
0"
b00 2
13
b1000 4
b10 5
b000 )
0*
b111 ;
b111 ,
1<
b1011 -
#1301
b1111 1
b1000 %
b1111 &
1*
#1306
03
0*
0<
#1311
1*
#1316
0*
#1321
1*
#1326
b00 !
0*
b01 +
b010 ,
b1100 -
13
b0000 4
b00 5
b11 6
b110 :
b100 ;
1<
#1331
b0000 %
b1000 8
1*
#1336
03
0*
0<
#1341
1*
#1346
0*
#1351
1*
#1356
13
0*
b101 ;
1<
b1101 -
#1361
b1000 1
b1000 &
b0000 8
1*
#1366
03
0*
0<
#1371
1*
#1376
0*
#1381
1*
#1386
b01 2
13
b0001 4
b001 )
0*
b110 ;
b011 ,
1<
b1110 -
#1391
b0000 1
b0001 %
b0000 &
1*
#1396
03
0*
0<
#1401
1*
#1406
0*
#1411
1*
#1416
13
0*
b111 ;
1<
b1111 -
#1421
b0001 8
1*
#1426
03
0*
0<
#1431
1*
#1436
0*
#1441
1*
#1446
1"
1'
b111 )
0*
b00 +
b000 ,
b0000 -
b0011 .
b11 2
13
b0111 4
b01 5
b00 6
b111 :
b000 ;
1<
b111 =
#1451
b0001 1
b0111 %
b0001 &
1*
#1456
03
0*
0<
#1461
1*
#1466
0*
#1471
1*
#1476
b10 2
13
b0110 4
0'
b100 )
0*
b101 ;
b101 ,
1<
b0001 -
#1481
b0110 %
b0111 8
1*
#1486
03
0*
0<
#1491
1*
#1496
0*
#1501
1*
#1506
13
b101 )
0*
b110 ;
b110 ,
1<
b0010 -
#1511
b0111 1
b0111 &
b0110 8
1*
#1516
03
0*
0<
#1521
1*
#1526
0*
#1531
1*
#1536
b11 2
13
b0111 4
b110 )
0*
b111 ;
b111 ,
1<
b0011 -
#1541
b0110 1
b0111 %
b0110 &
1*
#1546
03
0*
0<
#1551
1*
#1556
0*
#1561
1*
#1566
b01 !
b111 )
0*
b11 +
b100 ,
b0100 -
13
b1011 4
b10 5
b01 6
b011 :
b100 ;
1<
#1571
b1011 %
b0111 8
1*
#1576
03
0*
0<
#1581
1*
#1586
0*
#1591
1*
#1596
0"
b00 2
13
b0100 4
b01 5
b000 )
0*
b101 ;
b101 ,
1<
b0101 -
#1601
b0111 1
b0100 %
b0111 &
b1011 8
1*
#1606
03
0*
0<
#1611
1*
#1616
0*
#1621
1*
#1626
b01 2
13
b0101 4
b001 )
0*
b110 ;
b110 ,
1<
b0110 -
#1631
b1011 1
b0101 %
b1011 &
b0100 8
1*
#1636
03
0*
0<
#1641
1*
#1646
0*
#1651
1*
#1656
b10 2
13
b0110 4
b010 )
0*
b111 ;
b111 ,
1<
b0111 -
#1661
b0100 1
b0110 %
b0100 &
b0101 8
1*
#1666
03
0*
0<
#1671
1*
#1676
0*
#1681
1*
#1686
b10 !
1"
b101 )
0*
b10 +
b100 ,
b1000 -
13
b1110 4
b11 5
b10 6
b001 :
b100 ;
1<
#1691
b0101 1
b1110 %
b0101 &
b0110 8
1*
#1696
03
0*
0<
#1701
1*
#1706
0*
#1711
1*
#1716
b11 2
13
b1111 4
b110 )
0*
b101 ;
b101 ,
1<
b1001 -
#1721
b0110 1
b1111 %
b0110 &
b1110 8
1*
#1726
03
0*
0<
#1731
1*
#1736
0*
#1741
1*
#1746
13
b111 )
0*
b110 ;
b110 ,
1<
b1010 -
#1751
b1110 1
b1110 &
b1111 8
1*
#1756
03
0*
0<
#1761
1*
#1766
0*
#1771
1*
#1776
0"
b00 2
13
b1000 4
b10 5
b000 )
0*
b111 ;
b111 ,
1<
b1011 -
#1781
b1111 1
b1000 %
b1111 &
1*
#1786
03
0*
0<
#1791
1*
#1796
0*
#1801
1*
#1806
b00 !
b001 )
0*
b01 +
b010 ,
b1100 -
b01 2
13
b0001 4
b00 5
b11 6
b111 :
b100 ;
1<
#1811
b0001 %
b1000 8
1*
#1816
03
0*
0<
#1821
1*
#1826
0*
#1831
1*
#1836
13
0*
b101 ;
1<
b1101 -
#1841
b1000 1
b1000 &
b0001 8
1*
#1846
03
0*
0<
#1851
1*
#1856
0*
#1861
1*
#1866
b10 2
13
b0010 4
b010 )
0*
b110 ;
b011 ,
1<
b1110 -
#1871
b0001 1
b0010 %
b0001 &
1*
#1876
03
0*
0<
#1881
1*
#1886
0*
#1891
1*
#1896
13
0*
b111 ;
1<
b1111 -
#1901
b0010 8
1*
#1906
03
0*
0<
#1911
1*
#1916
0*
#1921
1*
#1926
b01 !
1"
1'
b100 )
0*
b000 ,
b0000 -
b0100 .
b01 0
13
b1010 4
b10 5
b00 6
b100 :
b000 ;
1<
b100 =
#1931
b0010 1
b1010 %
b0010 &
1*
#1936
03
0*
0<
#1941
1*
#1946
0*
#1951
1*
#1956
b11 2
13
b1011 4
0'
b110 )
0*
b101 ;
b010 ,
1<
b0001 -
#1961
b1011 %
b1010 8
1*
#1966
03
0*
0<
#1971
1*
#1976
0*
#1981
1*
#1986
13
b111 )
0*
b110 ;
b011 ,
1<
b0010 -
#1991
b1010 1
b1010 &
b1011 8
1*
#1996
03
0*
0<
#2001
1*
#2006
0*
#2011
1*
#2016
13
0*
b111 ;
1<
b0011 -
#2021
b1011 1
b1011 &
1*
#2026
03
0*
0<
#2031
1*
#2036
0*
#2041
1*
#2046
0"
b000 )
0*
b00 +
b100 ,
b0100 -
b00 2
13
b0100 4
b01 5
b01 6
b100 ;
1<
#2051
b0100 %
1*
#2056
03
0*
0<
#2061
1*
#2066
0*
#2071
1*
#2076
b01 2
13
b0101 4
b001 )
0*
b101 ;
b101 ,
1<
b0101 -
#2081
b0101 %
b0100 8
1*
#2086
03
0*
0<
#2091
1*
#2096
0*
#2101
1*
#2106
b10 2
13
b0110 4
b010 )
0*
b110 ;
b110 ,
1<
b0110 -
#2111
b0100 1
b0110 %
b0100 &
b0101 8
1*
#2116
03
0*
0<
#2121
1*
#2126
0*
#2131
1*
#2136
b11 2
13
b0111 4
b011 )
0*
b111 ;
b111 ,
1<
b0111 -
#2141
b0101 1
b0111 %
b0101 &
b0110 8
1*
#2146
03
0*
0<
#2151
1*
#2156
0*
#2161
1*
#2166
b10 !
1"
b110 )
0*
b11 +
b100 ,
b1000 -
13
b1111 4
b11 5
b10 6
b010 :
b100 ;
1<
#2171
b0110 1
b1111 %
b0110 &
b0111 8
1*
#2176
03
0*
0<
#2181
1*
#2186
0*
#2191
1*
#2196
13
b111 )
0*
b101 ;
b101 ,
1<
b1001 -
#2201
b0111 1
b0111 &
b1111 8
1*
#2206
03
0*
0<
#2211
1*
#2216
0*
#2221
1*
#2226
0"
b00 2
13
b1000 4
b10 5
b000 )
0*
b110 ;
b110 ,
1<
b1010 -
#2231
b1111 1
b1000 %
b1111 &
1*
#2236
03
0*
0<
#2241
1*
#2246
0*
#2251
1*
#2256
b01 2
13
b1001 4
b001 )
0*
b111 ;
b111 ,
1<
b1011 -
#2261
b1001 %
b1000 8
1*
#2266
03
0*
0<
#2271
1*
#2276
0*
#2281
1*
#2286
b11 !
1"
b101 )
0*
b10 +
b100 ,
b1100 -
b10 2
13
b1110 4
b11 5
b11 6
b001 :
b100 ;
1<
#2291
b1000 1
b1110 %
b1000 &
b1001 8
1*
#2296
03
0*
0<
#2301
1*
#2306
0*
#2311
1*
#2316
b11 2
13
b1111 4
b110 )
0*
b101 ;
b101 ,
1<
b1101 -
#2321
b1001 1
b1111 %
b1001 &
b1110 8
1*
#2326
03
0*
0<
#2331
1*
#2336
0*
#2341
1*
#2346
13
b111 )
0*
b110 ;
b110 ,
1<
b1110 -
#2351
b1110 1
b1110 &
b1111 8
1*
#2356
03
0*
0<
#2361
1*
#2366
0*
#2371
1*
#2376
0"
b00 2
13
b1100 4
b000 )
0*
b111 ;
b111 ,
1<
b1111 -
#2381
b1111 1
b1100 %
b1111 &
1*
#2386
03
0*
0<
#2391
1*
#2396
0*
#2401
1*
#2406
b01 !
1"
1'
b101 )
0*
b01 +
b000 ,
b0000 -
b0101 .
b10 2
13
b1010 4
b10 5
b00 6
b101 :
b000 ;
1<
b101 =
#2411
b1010 %
b1100 8
1*
#2416
03
0*
0<
#2421
1*
#2426
0*
#2431
1*
#2436
b11 2
13
b1011 4
0'
b111 )
0*
b101 ;
b010 ,
1<
b0001 -
#2441
b1100 1
b1011 %
b1100 &
b1010 8
1*
#2446
03
0*
0<
#2451
1*
#2456
0*
#2461
1*
#2466
0"
b00 2
13
b0100 4
b01 5
b000 )
0*
b110 ;
b011 ,
1<
b0010 -
#2471
b1010 1
b0100 %
b1010 &
b1011 8
1*
#2476
03
0*
0<
#2481
1*
#2486
0*
#2491
1*
#2496
13
0*
b111 ;
1<
b0011 -
#2501
b1011 1
b1011 &
b0100 8
1*
#2506
03
0*
0<
#2511
1*
#2516
0*
#2521
1*
#2526
b01 2
13
b0101 4
b01 6
b001 )
0*
b00 +
b100 ;
b100 ,
1<
b0100 -
#2531
b0100 1
b0101 %
b0100 &
1*
#2536
03
0*
0<
#2541
1*
#2546
0*
#2551
1*
#2556
b10 2
13
b0110 4
b010 )
0*
b101 ;
b101 ,
1<
b0101 -
#2561
b0110 %
b0101 8
1*
#2566
03
0*
0<
#2571
1*
#2576
0*
#2581
1*
#2586
b11 2
13
b0111 4
b011 )
0*
b110 ;
b110 ,
1<
b0110 -
#2591
b0101 1
b0111 %
b0101 &
b0110 8
1*
#2596
03
0*
0<
#2601
1*
#2606
0*
#2611
1*
#2616
1"
b10 2
13
b1010 4
b10 5
b100 )
0*
b111 ;
b111 ,
1<
b0111 -
#2621
b0110 1
b1010 %
b0110 &
b0111 8
1*
#2626
03
0*
0<
#2631
1*
#2636
0*
#2641
1*
#2646
b10 !
b110 )
0*
b11 +
b100 ,
b1000 -
b11 2
13
b1111 4
b11 5
b10 6
b010 :
b100 ;
1<
#2651
b0111 1
b1111 %
b0111 &
b1010 8
1*
#2656
03
0*
0<
#2661
1*
#2666
0*
#2671
1*
#2676
13
b111 )
0*
b101 ;
b101 ,
1<
b1001 -
#2681
b1010 1
b1010 &
b1111 8
1*
#2686
03
0*
0<
#2691
1*
#2696
0*
#2701
1*
#2706
0"
b00 2
13
b1000 4
b10 5
b000 )
0*
b110 ;
b110 ,
1<
b1010 -
#2711
b1111 1
b1000 %
b1111 &
1*
#2716
03
0*
0<
#2721
1*
#2726
0*
#2731
1*
#2736
b01 2
13
b1001 4
b001 )
0*
b111 ;
b111 ,
1<
b1011 -
#2741
b1001 %
b1000 8
1*
#2746
03
0*
0<
#2751
1*
#2756
0*
#2761
1*
#2766
b11 !
1"
b101 )
0*
b10 +
b100 ,
b1100 -
b10 2
13
b1110 4
b11 5
b11 6
b001 :
b100 ;
1<
#2771
b1000 1
b1110 %
b1000 &
b1001 8
1*
#2776
03
0*
0<
#2781
1*
#2786
0*
#2791
1*
#2796
b11 2
13
b1111 4
b110 )
0*
b101 ;
b101 ,
1<
b1101 -
#2801
b1001 1
b1111 %
b1001 &
b1110 8
1*
#2806
03
0*
0<
#2811
1*
#2816
0*
#2821
1*
#2826
13
b111 )
0*
b110 ;
b110 ,
1<
b1110 -
#2831
b1110 1
b1110 &
b1111 8
1*
#2836
03
0*
0<
#2841
1*
#2846
0*
#2851
1*
#2856
0"
b00 2
13
b1100 4
b000 )
0*
b111 ;
b111 ,
1<
b1111 -
#2861
b1111 1
b1100 %
b1111 &
1*
#2866
03
0*
0<
#2871
1*
#2876
0*
#2881
1*
#2886
b01 !
1"
1'
b110 )
0*
b01 +
b000 ,
b0000 -
b0110 .
b11 2
13
b1011 4
b10 5
b00 6
b110 :
b000 ;
1<
b110 =
#2891
b1011 %
b1100 8
1*
#2896
03
0*
0<
#2901
1*
#2906
0*
#2911
1*
#2916
0"
0'
b000 )
0*
b010 ,
b0001 -
b00 2
13
b0100 4
b01 5
b101 ;
1<
#2921
b1100 1
b0100 %
b1100 &
b1011 8
1*
#2926
03
0*
0<
#2931
1*
#2936
0*
#2941
1*
#2946
b01 2
13
b0101 4
b001 )
0*
b110 ;
b011 ,
1<
b0010 -
#2951
b1011 1
b0101 %
b1011 &
b0100 8
1*
#2956
03
0*
0<
#2961
1*
#2966
0*
#2971
1*
#2976
13
0*
b111 ;
1<
b0011 -
#2981
b0100 1
b0100 &
b0101 8
1*
#2986
03
0*
0<
#2991
1*
#2996
0*
#3001
1*
#3006
b10 2
13
b0110 4
b01 6
b010 )
0*
b00 +
b100 ;
b100 ,
1<
b0100 -
#3011
b0101 1
b0110 %
b0101 &
1*
#3016
03
0*
0<
#3021
1*
#3026
0*
#3031
1*
#3036
b11 2
13
b0111 4
b011 )
0*
b101 ;
b101 ,
1<
b0101 -
#3041
b0111 %
b0110 8
1*
#3046
03
0*
0<
#3051
1*
#3056
0*
#3061
1*
#3066
1"
b10 2
13
b1010 4
b10 5
b100 )
0*
b110 ;
b110 ,
1<
b0110 -
#3071
b0110 1
b1010 %
b0110 &
b0111 8
1*
#3076
03
0*
0<
#3081
1*
#3086
0*
#3091
1*
#3096
13
b101 )
0*
b111 ;
b111 ,
1<
b0111 -
#3101
b0111 1
b0111 &
b1010 8
1*
#3106
03
0*
0<
#3111
1*
#3116
0*
#3121
1*
#3126
b10 !
b111 )
0*
b11 +
b100 ,
b1000 -
b11 2
13
b1111 4
b11 5
b10 6
b011 :
b100 ;
1<
#3131
b1010 1
b1111 %
b1010 &
1*
#3136
03
0*
0<
#3141
1*
#3146
0*
#3151
1*
#3156
0"
b00 2
13
b1000 4
b10 5
b000 )
0*
b101 ;
b101 ,
1<
b1001 -
#3161
b1000 %
b1111 8
1*
#3166
03
0*
0<
#3171
1*
#3176
0*
#3181
1*
#3186
b01 2
13
b1001 4
b001 )
0*
b110 ;
b110 ,
1<
b1010 -
#3191
b1111 1
b1001 %
b1111 &
b1000 8
1*
#3196
03
0*
0<
#3201
1*
#3206
0*
#3211
1*
#3216
b10 2
13
b1010 4
b010 )
0*
b111 ;
b111 ,
1<
b1011 -
#3221
b1000 1
b1010 %
b1000 &
b1001 8
1*
#3226
03
0*
0<
#3231
1*
#3236
0*
#3241
1*
#3246
b11 !
1"
b101 )
0*
b10 +
b100 ,
b1100 -
13
b1110 4
b11 5
b11 6
b001 :
b100 ;
1<
#3251
b1001 1
b1110 %
b1001 &
b1010 8
1*
#3256
03
0*
0<
#3261
1*
#3266
0*
#3271
1*
#3276
b11 2
13
b1111 4
b110 )
0*
b101 ;
b101 ,
1<
b1101 -
#3281
b1010 1
b1111 %
b1010 &
b1110 8
1*
#3286
03
0*
0<
#3291
1*
#3296
0*
#3301
1*
#3306
13
b111 )
0*
b110 ;
b110 ,
1<
b1110 -
#3311
b1110 1
b1110 &
b1111 8
1*
#3316
03
0*
0<
#3321
1*
#3326
0*
#3331
1*
#3336
0"
b00 2
13
b1100 4
b000 )
0*
b111 ;
b111 ,
1<
b1111 -
#3341
b1111 1
b1100 %
b1111 &
1*
#3346
03
0*
0<
#3351
1*
#3356
0*
#3361
1*
#3366
b01 !
1"
1'
b111 )
0*
b01 +
b000 ,
b0000 -
b0111 .
b11 2
13
b1011 4
b10 5
b00 6
b111 :
b000 ;
1<
b111 =
#3371
b1011 %
b1100 8
1*
#3376
03
0*
0<
#3381
1*
#3386
0*
#3391
1*
#3396
0"
0'
b001 )
0*
b010 ,
b0001 -
b01 2
13
b0101 4
b01 5
b101 ;
1<
#3401
b1100 1
b0101 %
b1100 &
b1011 8
1*
#3406
03
0*
0<
#3411
1*
#3416
0*
#3421
1*
#3426
b10 2
13
b0110 4
b010 )
0*
b110 ;
b011 ,
1<
b0010 -
#3431
b1011 1
b0110 %
b1011 &
b0101 8
1*
#3436
03
0*
0<
#3441
1*
#3446
0*
#3451
1*
#3456
13
0*
b111 ;
1<
b0011 -
#3461
b0101 1
b0101 &
b0110 8
1*
#3466
03
0*
0<
#3471
1*
#3476
0*
#3481
1*
#3486
b11 2
13
b0111 4
b01 6
b011 )
0*
b00 +
b100 ;
b100 ,
1<
b0100 -
#3491
b0110 1
b0111 %
b0110 &
1*
#3496
03
0*
0<
#3501
1*
#3506
0*
#3511
1*
#3516
1"
b10 2
13
b1010 4
b10 5
b100 )
0*
b101 ;
b101 ,
1<
b0101 -
#3521
b1010 %
b0111 8
1*
#3526
03
0*
0<
#3531
1*
#3536
0*
#3541
1*
#3546
13
b101 )
0*
b110 ;
b110 ,
1<
b0110 -
#3551
b0111 1
b0111 &
b1010 8
1*
#3556
03
0*
0<
#3561
1*
#3566
0*
#3571
1*
#3576
b11 2
13
b1011 4
b110 )
0*
b111 ;
b111 ,
1<
b0111 -
#3581
b1010 1
b1011 %
b1010 &
1*
#3586
03
0*
0<
#3591
1*
#3596
0*
#3601
1*
#3606
b10 !
b111 )
0*
b11 +
b100 ,
b1000 -
13
b1111 4
b11 5
b10 6
b011 :
b100 ;
1<
#3611
b1111 %
b1011 8
1*
#3616
03
0*
0<
#3621
1*
#3626
0*
#3631
1*
#3636
0"
b00 2
13
b1000 4
b10 5
b000 )
0*
b101 ;
b101 ,
1<
b1001 -
#3641
b1011 1
b1000 %
b1011 &
b1111 8
1*
#3646
03
0*
0<
#3651
1*
#3656
0*
#3661
1*
#3666
b01 2
13
b1001 4
b001 )
0*
b110 ;
b110 ,
1<
b1010 -
#3671
b1111 1
b1001 %
b1111 &
b1000 8
1*
#3676
03
0*
0<
#3681
1*
#3686
0*
#3691
1*
#3696
b10 2
13
b1010 4
b010 )
0*
b111 ;
b111 ,
1<
b1011 -
#3701
b1000 1
b1010 %
b1000 &
b1001 8
1*
#3706
03
0*
0<
#3711
1*
#3716
0*
#3721
1*
#3726
b11 !
1"
b101 )
0*
b10 +
b100 ,
b1100 -
13
b1110 4
b11 5
b11 6
b001 :
b100 ;
1<
#3731
b1001 1
b1110 %
b1001 &
b1010 8
1*
#3736
03
0*
0<
#3741
1*
#3746
0*
#3751
1*
#3756
b11 2
13
b1111 4
b110 )
0*
b101 ;
b101 ,
1<
b1101 -
#3761
b1010 1
b1111 %
b1010 &
b1110 8
1*
#3766
03
0*
0<
#3771
1*
#3776
0*
#3781
1*
#3786
13
b111 )
0*
b110 ;
b110 ,
1<
b1110 -
#3791
b1110 1
b1110 &
b1111 8
1*
#3796
03
0*
0<
#3801
1*
#3806
0*
#3811
1*
#3816
0"
b00 2
13
b1100 4
b000 )
0*
b111 ;
b111 ,
1<
b1111 -
#3821
b1111 1
b1100 %
b1111 &
1*
#3826
03
0*
0<
#3831
1*
#3836
0*
#3841
1*
#3846
b00 !
1'
b001 )
0*
b000 ,
b0000 -
b1000 .
b10 0
b01 2
13
b0001 4
b00 5
b00 6
b000 ;
1<
b100 =
#3851
b0001 %
b1100 8
1*
#3856
03
0*
0<
#3861
1*
#3866
0*
#3871
1*
#3876
1"
0'
b110 )
0*
b101 ,
b0001 -
b11 2
13
b0111 4
b01 5
b101 ;
1<
#3881
b1100 1
b0111 %
b1100 &
b0001 8
1*
#3886
03
0*
0<
#3891
1*
#3896
0*
#3901
1*
#3906
13
b111 )
0*
b110 ;
b110 ,
1<
b0010 -
#3911
b0001 1
b0001 &
b0111 8
1*
#3916
03
0*
0<
#3921
1*
#3926
0*
#3931
1*
#3936
0"
b00 2
13
b0000 4
b00 5
b000 )
0*
b111 ;
b111 ,
1<
b0011 -
#3941
b0111 1
b0000 %
b0111 &
1*
#3946
03
0*
0<
#3951
1*
#3956
0*
#3961
1*
#3966
b10 !
1"
b110 )
0*
b01 +
b010 ,
b0100 -
b11 2
13
b1111 4
b11 5
b01 6
b100 :
b100 ;
1<
#3971
b1111 %
b0000 8
1*
#3976
03
0*
0<
#3981
1*
#3986
0*
#3991
1*
#3996
13
0*
b101 ;
1<
b0101 -
