test_run_dir/should_test_all_additions_for_FPAdder_with_bw5_pd1/FPAdder.vcd
$date
2025-07-28T20:45+0000
$end
$version
0.2
$end
$comment

$end
$timescale 1ns  $end
$scope module FPAdder $end
 $var wire 3 ! baseA $end
 $var wire 1 " sr_valid_0 $end
 $var wire 5 # sr_b_0 $end
 $var wire 3 $ baseB $end
 $var wire 5 % io_in_a $end
 $var wire 5 & io_in_b $end
 $var wire 2 ' normExp $end
 $var wire 1 ( io_valid_in $end
 $var wire 1 ) io_valid_out $end
 $var wire 1 * clock $end
 $var wire 3 + alignedFracB $end
 $var wire 3 , alignedFracA $end
 $var wire 2 - shiftAmount $end
 $var wire 1 . reset $end
 $var wire 5 / io_out $end
 $var wire 1 0 aBigger $end
 $var wire 2 1 fracA $end
 $var wire 2 2 commonExp $end
 $var wire 5 3 sr_a_0 $end
 $var wire 2 4 fracB $end
 $var wire 4 5 sum $end
 $var wire 2 6 expB $end
 $var wire 2 7 expA $end
 $var wire 2 8 normFrac $end
$upscope $end
$enddefinitions $end
$dumpvars
00
b00 8
b00 7
b00 6
b00 1
b00 4
b00 2
b00000 #
b00000 %
b00 '
b00 -
b00000 &
b00000 /
b00000 3
b000 $
b000 +
b000 ,
b0000 5
0"
0(
0)
b000 !
0*
0.
$end
#0
10
b100 !
b100 $
b1000 5
b01 '
b100 +
b100 ,
1.
b00100 /
#1
1*
#6
1(
0*
0.
#11
1"
1)
1*
#16
b00001 &
0*
#21
b00001 #
b101 $
b01 4
b1001 5
1*
b101 +
#26
b00010 &
0*
#31
b00010 #
b110 $
b10 4
b1010 5
b01 8
1*
b110 +
b00101 /
#36
b00011 &
0*
#41
b00011 #
b111 $
b11 4
b1011 5
1*
b111 +
#46
b00100 &
0*
#51
b00100 #
b100 $
1*
b100 +
b010 ,
b01 -
b00110 /
00
b01 2
b00 4
b0110 5
b01 6
b10 8
#56
b00101 &
0*
#61
b00101 #
b101 $
b01 4
b0111 5
b11 8
1*
b101 +
b00111 /
#66
b00110 &
0*
#71
b00110 #
b110 $
b10 4
b1000 5
b10 '
b00 8
1*
b110 +
b01000 /
#76
b00111 &
0*
#81
b00111 #
b111 $
b11 4
b1001 5
1*
b111 +
#86
b01000 &
0*
#91
b01000 #
b100 $
1*
b100 +
b001 ,
b10 -
b01001 /
b10 2
b00 4
b0101 5
b10 6
b01 8
#96
b01001 &
0*
#101
b01001 #
b101 $
b01 4
b0110 5
b10 8
1*
b101 +
b01010 /
#106
b01010 &
0*
#111
b01010 #
b110 $
b10 4
b0111 5
b11 8
1*
b110 +
b01011 /
#116
b01011 &
0*
#121
b01011 #
b111 $
b11 4
b1000 5
b11 '
b00 8
1*
b111 +
b01100 /
#126
b01100 &
0*
#131
b11 2
b01100 #
b100 $
b00 4
b0100 5
b11 6
1*
b100 +
b000 ,
b11 -
#136
b01101 &
0*
#141
b01101 #
b101 $
b01 4
b0101 5
b01 8
1*
b101 +
b01101 /
#146
b01110 &
0*
#151
b01110 #
b110 $
b10 4
b0110 5
b10 8
1*
b110 +
b01110 /
#156
b01111 &
0*
#161
b01111 #
b111 $
b11 4
b0111 5
b11 8
1*
b111 +
b01111 /
#166
b10000 &
0*
#171
b10000 #
b100 $
b01 '
1*
b100 +
b100 ,
b00 -
b00100 /
10
b00 2
b00 4
b1000 5
b00 6
b00 8
#176
b10001 &
0*
#181
b10001 #
b101 $
b01 4
b1001 5
1*
b101 +
#186
b10010 &
0*
#191
b10010 #
b110 $
b10 4
b1010 5
b01 8
1*
b110 +
b00101 /
#196
b10011 &
0*
#201
b10011 #
b111 $
b11 4
b1011 5
1*
b111 +
#206
b10100 &
0*
#211
b10100 #
b100 $
1*
b100 +
b010 ,
b01 -
b00110 /
00
b01 2
b00 4
b0110 5
b01 6
b10 8
#216
b10101 &
0*
#221
b10101 #
b101 $
b01 4
b0111 5
b11 8
1*
b101 +
b00111 /
#226
b10110 &
0*
#231
b10110 #
b110 $
b10 4
b1000 5
b10 '
b00 8
1*
b110 +
b01000 /
#236
b10111 &
0*
#241
b10111 #
b111 $
b11 4
b1001 5
1*
b111 +
#246
b11000 &
0*
#251
b11000 #
b100 $
1*
b100 +
b001 ,
b10 -
b01001 /
b10 2
b00 4
b0101 5
b10 6
b01 8
#256
b11001 &
0*
#261
b11001 #
b101 $
b01 4
b0110 5
b10 8
1*
b101 +
b01010 /
#266
b11010 &
0*
#271
b11010 #
b110 $
b10 4
b0111 5
b11 8
1*
b110 +
b01011 /
#276
b11011 &
0*
#281
b11011 #
b111 $
b11 4
b1000 5
b11 '
b00 8
1*
b111 +
b01100 /
#286
b11100 &
0*
#291
b11 2
b11100 #
b100 $
b00 4
b0100 5
b11 6
1*
b100 +
b000 ,
b11 -
#296
b11101 &
0*
#301
b11101 #
b101 $
b01 4
b0101 5
b01 8
1*
b101 +
b01101 /
#306
b11110 &
0*
#311
b11110 #
b110 $
b10 4
b0110 5
b10 8
1*
b110 +
b01110 /
#316
b11111 &
0*
#321
b11111 #
b111 $
b11 4
b0111 5
b11 8
1*
b111 +
b01111 /
#326
b00001 %
b00000 &
0*
#331
b101 !
b00000 #
b100 $
b01 '
1*
b100 +
b101 ,
b00 -
b00100 /
10
b01 1
b00 2
b00001 3
b00 4
b1001 5
b00 6
b00 8
#336
b00001 &
0*
#341
b00001 #
b101 $
b01 4
b1010 5
b01 8
1*
b101 +
b00101 /
#346
b00010 &
0*
#351
b00010 #
b110 $
b10 4
b1011 5
1*
b110 +
#356
b00011 &
0*
#361
b00011 #
b111 $
b11 4
b1100 5
b10 8
1*
b111 +
b00110 /
#366
b00100 &
0*
#371
00
b01 2
b00100 #
b100 $
b00 4
b0110 5
b01 6
1*
b100 +
b010 ,
b01 -
#376
b00101 &
0*
#381
b00101 #
b101 $
b01 4
b0111 5
b11 8
1*
b101 +
b00111 /
#386
b00110 &
0*
#391
b00110 #
b110 $
b10 4
b1000 5
b10 '
b00 8
1*
b110 +
b01000 /
#396
b00111 &
0*
#401
b00111 #
b111 $
b11 4
b1001 5
1*
b111 +
#406
b01000 &
0*
#411
b01000 #
b100 $
1*
b100 +
b001 ,
b10 -
b01001 /
b10 2
b00 4
b0101 5
b10 6
b01 8
#416
b01001 &
0*
#421
b01001 #
b101 $
b01 4
b0110 5
b10 8
1*
b101 +
b01010 /
#426
b01010 &
0*
#431
b01010 #
b110 $
b10 4
b0111 5
b11 8
1*
b110 +
b01011 /
#436
b01011 &
0*
#441
b01011 #
b111 $
b11 4
b1000 5
b11 '
b00 8
1*
b111 +
b01100 /
#446
b01100 &
0*
#451
b11 2
b01100 #
b100 $
b00 4
b0100 5
b11 6
1*
b100 +
b000 ,
b11 -
#456
b01101 &
0*
#461
b01101 #
b101 $
b01 4
b0101 5
b01 8
1*
b101 +
b01101 /
#466
b01110 &
0*
#471
b01110 #
b110 $
b10 4
b0110 5
b10 8
1*
b110 +
b01110 /
#476
b01111 &
0*
#481
b01111 #
b111 $
b11 4
b0111 5
b11 8
1*
b111 +
b01111 /
#486
b10000 &
0*
#491
b10000 #
b100 $
b01 '
1*
b100 +
b101 ,
b00 -
b00100 /
10
b00 2
b00 4
b1001 5
b00 6
b00 8
#496
b10001 &
0*
#501
b10001 #
b101 $
b01 4
b1010 5
b01 8
1*
b101 +
b00101 /
#506
b10010 &
0*
#511
b10010 #
b110 $
b10 4
b1011 5
1*
b110 +
#516
b10011 &
0*
#521
b10011 #
b111 $
b11 4
b1100 5
b10 8
1*
b111 +
b00110 /
#526
b10100 &
0*
#531
00
b01 2
b10100 #
b100 $
b00 4
b0110 5
b01 6
1*
b100 +
b010 ,
b01 -
#536
b10101 &
0*
#541
b10101 #
b101 $
b01 4
b0111 5
b11 8
1*
b101 +
b00111 /
#546
b10110 &
0*
#551
b10110 #
b110 $
b10 4
b1000 5
b10 '
b00 8
1*
b110 +
b01000 /
#556
b10111 &
0*
#561
b10111 #
b111 $
b11 4
b1001 5
1*
b111 +
#566
b11000 &
0*
#571
b11000 #
b100 $
1*
b100 +
b001 ,
b10 -
b01001 /
b10 2
b00 4
b0101 5
b10 6
b01 8
#576
b11001 &
0*
#581
b11001 #
b101 $
b01 4
b0110 5
b10 8
1*
b101 +
b01010 /
#586
b11010 &
0*
#591
b11010 #
b110 $
b10 4
b0111 5
b11 8
1*
b110 +
b01011 /
#596
b11011 &
0*
#601
b11011 #
b111 $
b11 4
b1000 5
b11 '
b00 8
1*
b111 +
b01100 /
#606
b11100 &
0*
#611
b11 2
b11100 #
b100 $
b00 4
b0100 5
b11 6
1*
b100 +
b000 ,
b11 -
#616
b11101 &
0*
#621
b11101 #
b101 $
b01 4
b0101 5
b01 8
1*
b101 +
b01101 /
#626
b11110 &
0*
#631
b11110 #
b110 $
b10 4
b0110 5
b10 8
1*
b110 +
b01110 /
#636
b11111 &
0*
#641
b11111 #
b111 $
b11 4
b0111 5
b11 8
1*
b111 +
b01111 /
#646
b00010 %
b00000 &
0*
#651
b110 !
b00000 #
b100 $
b01 '
1*
b100 +
b110 ,
b00 -
b00101 /
10
b10 1
b00 2
b00010 3
b00 4
b1010 5
b00 6
b01 8
#656
b00001 &
0*
#661
b00001 #
b101 $
b01 4
b1011 5
1*
b101 +
#666
b00010 &
0*
#671
b00010 #
b110 $
b10 4
b1100 5
b10 8
1*
b110 +
b00110 /
#676
b00011 &
0*
#681
b00011 #
b111 $
b11 4
b1101 5
1*
b111 +
#686
b00100 &
0*
#691
b00100 #
b100 $
1*
b100 +
b011 ,
b01 -
b00111 /
00
b01 2
b00 4
b0111 5
b01 6
b11 8
#696
b00101 &
0*
#701
b00101 #
b101 $
b01 4
b1000 5
b10 '
b00 8
1*
b101 +
b01000 /
#706
b00110 &
0*
#711
b00110 #
b110 $
b10 4
b1001 5
1*
b110 +
#716
b00111 &
0*
#721
b00111 #
b111 $
b11 4
b1010 5
b01 8
1*
b111 +
b01001 /
#726
b01000 &
0*
#731
b10 2
b01000 #
b100 $
b00 4
b0101 5
b10 6
1*
b100 +
b001 ,
b10 -
#736
b01001 &
0*
#741
b01001 #
b101 $
b01 4
b0110 5
b10 8
1*
b101 +
b01010 /
#746
b01010 &
0*
#751
b01010 #
b110 $
b10 4
b0111 5
b11 8
1*
b110 +
b01011 /
#756
b01011 &
0*
#761
b01011 #
b111 $
b11 4
b1000 5
b11 '
b00 8
1*
b111 +
b01100 /
#766
b01100 &
0*
#771
b11 2
b01100 #
b100 $
b00 4
b0100 5
b11 6
1*
b100 +
b000 ,
b11 -
#776
b01101 &
0*
#781
b01101 #
b101 $
b01 4
b0101 5
b01 8
1*
b101 +
b01101 /
#786
b01110 &
0*
#791
b01110 #
b110 $
b10 4
b0110 5
b10 8
1*
b110 +
b01110 /
#796
b01111 &
0*
#801
b01111 #
b111 $
b11 4
b0111 5
b11 8
1*
b111 +
b01111 /
#806
b10000 &
0*
#811
b10000 #
b100 $
b01 '
1*
b100 +
b110 ,
b00 -
b00101 /
10
b00 2
b00 4
b1010 5
b00 6
b01 8
#816
b10001 &
0*
#821
b10001 #
b101 $
b01 4
b1011 5
1*
b101 +
#826
b10010 &
0*
#831
b10010 #
b110 $
b10 4
b1100 5
b10 8
1*
b110 +
b00110 /
#836
b10011 &
0*
#841
b10011 #
b111 $
b11 4
b1101 5
1*
b111 +
#846
b10100 &
0*
#851
b10100 #
b100 $
1*
b100 +
b011 ,
b01 -
b00111 /
00
b01 2
b00 4
b0111 5
b01 6
b11 8
#856
b10101 &
0*
#861
b10101 #
b101 $
b01 4
b1000 5
b10 '
b00 8
1*
b101 +
b01000 /
#866
b10110 &
0*
#871
b10110 #
b110 $
b10 4
b1001 5
1*
b110 +
#876
b10111 &
0*
#881
b10111 #
b111 $
b11 4
b1010 5
b01 8
1*
b111 +
b01001 /
#886
b11000 &
0*
#891
b10 2
b11000 #
b100 $
b00 4
b0101 5
b10 6
1*
b100 +
b001 ,
b10 -
#896
b11001 &
0*
#901
b11001 #
b101 $
b01 4
b0110 5
b10 8
1*
b101 +
b01010 /
#906
b11010 &
0*
#911
b11010 #
b110 $
b10 4
b0111 5
b11 8
1*
b110 +
b01011 /
#916
b11011 &
0*
#921
b11011 #
b111 $
b11 4
b1000 5
b11 '
b00 8
1*
b111 +
b01100 /
#926
b11100 &
0*
#931
b11 2
b11100 #
b100 $
b00 4
b0100 5
b11 6
1*
b100 +
b000 ,
b11 -
#936
b11101 &
0*
#941
b11101 #
b101 $
b01 4
b0101 5
b01 8
1*
b101 +
b01101 /
#946
b11110 &
0*
#951
b11110 #
b110 $
b10 4
b0110 5
b10 8
1*
b110 +
b01110 /
#956
b11111 &
0*
#961
b11111 #
b111 $
b11 4
b0111 5
b11 8
1*
b111 +
b01111 /
#966
b00011 %
b00000 &
0*
#971
b111 !
b00000 #
b100 $
b01 '
1*
b100 +
b111 ,
b00 -
b00101 /
10
b11 1
b00 2
b00011 3
b00 4
b1011 5
b00 6
b01 8
#976
b00001 &
0*
#981
b00001 #
b101 $
b01 4
b1100 5
b10 8
1*
b101 +
b00110 /
#986
b00010 &
0*
#991
b00010 #
b110 $
b10 4
b1101 5
1*
b110 +
#996
b00011 &
0*
#1001
b00011 #
b111 $
b11 4
b1110 5
b11 8
1*
b111 +
b00111 /
#1006
b00100 &
0*
#1011
00
b01 2
b00100 #
b100 $
b00 4
b0111 5
b01 6
1*
b100 +
b011 ,
b01 -
#1016
b00101 &
0*
#1021
b00101 #
b101 $
b01 4
b1000 5
b10 '
b00 8
1*
b101 +
b01000 /
#1026
b00110 &
0*
#1031
b00110 #
b110 $
b10 4
b1001 5
1*
b110 +
#1036
b00111 &
0*
#1041
b00111 #
b111 $
b11 4
b1010 5
b01 8
1*
b111 +
b01001 /
#1046
b01000 &
0*
#1051
b10 2
b01000 #
b100 $
b00 4
b0101 5
b10 6
1*
b100 +
b001 ,
b10 -
#1056
b01001 &
0*
#1061
b01001 #
b101 $
b01 4
b0110 5
b10 8
1*
b101 +
b01010 /
#1066
b01010 &
0*
#1071
b01010 #
b110 $
b10 4
b0111 5
b11 8
1*
b110 +
b01011 /
#1076
b01011 &
0*
#1081
b01011 #
b111 $
b11 4
b1000 5
b11 '
b00 8
1*
b111 +
b01100 /
#1086
b01100 &
0*
#1091
b11 2
b01100 #
b100 $
b00 4
b0100 5
b11 6
1*
b100 +
b000 ,
b11 -
#1096
b01101 &
0*
#1101
b01101 #
b101 $
b01 4
b0101 5
b01 8
1*
b101 +
b01101 /
#1106
b01110 &
0*
#1111
b01110 #
b110 $
b10 4
b0110 5
b10 8
1*
b110 +
b01110 /
#1116
b01111 &
0*
#1121
b01111 #
b111 $
b11 4
b0111 5
b11 8
1*
b111 +
b01111 /
#1126
b10000 &
0*
#1131
b10000 #
b100 $
b01 '
1*
b100 +
b111 ,
b00 -
b00101 /
10
b00 2
b00 4
b1011 5
b00 6
b01 8
#1136
b10001 &
0*
#1141
b10001 #
b101 $
b01 4
b1100 5
b10 8
1*
b101 +
b00110 /
#1146
b10010 &
0*
#1151
b10010 #
b110 $
b10 4
b1101 5
1*
b110 +
#1156
b10011 &
0*
#1161
b10011 #
b111 $
b11 4
b1110 5
b11 8
1*
b111 +
b00111 /
#1166
b10100 &
0*
#1171
00
b01 2
b10100 #
b100 $
b00 4
b0111 5
b01 6
1*
b100 +
b011 ,
b01 -
#1176
b10101 &
0*
#1181
b10101 #
b101 $
b01 4
b1000 5
b10 '
b00 8
1*
b101 +
b01000 /
#1186
b10110 &
0*
#1191
b10110 #
b110 $
b10 4
b1001 5
1*
b110 +
#1196
b10111 &
0*
#1201
b10111 #
b111 $
b11 4
b1010 5
b01 8
1*
b111 +
b01001 /
#1206
b11000 &
0*
#1211
b10 2
b11000 #
b100 $
b00 4
b0101 5
b10 6
1*
b100 +
b001 ,
b10 -
#1216
b11001 &
0*
#1221
b11001 #
b101 $
b01 4
b0110 5
b10 8
1*
b101 +
b01010 /
#1226
b11010 &
0*
#1231
b11010 #
b110 $
b10 4
b0111 5
b11 8
1*
b110 +
b01011 /
#1236
b11011 &
0*
#1241
b11011 #
b111 $
b11 4
b1000 5
b11 '
b00 8
1*
b111 +
b01100 /
#1246
b11100 &
0*
#1251
b11 2
b11100 #
b100 $
b00 4
b0100 5
b11 6
1*
b100 +
b000 ,
b11 -
#1256
b11101 &
0*
#1261
b11101 #
b101 $
b01 4
b0101 5
b01 8
1*
b101 +
b01101 /
#1266
b11110 &
0*
#1271
b11110 #
b110 $
b10 4
b0110 5
b10 8
1*
b110 +
b01110 /
#1276
b11111 &
0*
#1281
b11111 #
b111 $
b11 4
b0111 5
b11 8
1*
b111 +
b01111 /
#1286
b00100 %
b00000 &
0*
#1291
b100 !
b00000 #
b100 $
b01 '
1*
b010 +
b100 ,
b01 -
b00110 /
10
b00 1
b01 2
b00100 3
b00 4
b0110 5
b00 6
b01 7
b10 8
#1296
b00001 &
0*
#1301
b00001 #
b101 $
b01 4
1*
#1306
b00010 &
0*
#1311
b00010 #
b110 $
b10 4
b0111 5
b11 8
1*
b011 +
b00111 /
#1316
b00011 &
0*
#1321
b00011 #
b111 $
b11 4
1*
#1326
b00100 &
0*
#1331
b00100 #
b100 $
b00 4
b1000 5
b01 6
b10 '
b00 8
1*
b100 +
b00 -
b01000 /
#1336
b00101 &
0*
#1341
b00101 #
b101 $
b01 4
b1001 5
1*
b101 +
#1346
b00110 &
0*
#1351
b00110 #
b110 $
b10 4
b1010 5
b01 8
1*
b110 +
b01001 /
#1356
b00111 &
0*
#1361
b00111 #
b111 $
b11 4
b1011 5
1*
b111 +
#1366
b01000 &
0*
#1371
b01000 #
b100 $
1*
b100 +
b010 ,
b01 -
b01010 /
00
b10 2
b00 4
b0110 5
b10 6
b10 8
#1376
b01001 &
0*
#1381
b01001 #
b101 $
b01 4
b0111 5
b11 8
1*
b101 +
b01011 /
#1386
b01010 &
0*
#1391
b01010 #
b110 $
b10 4
b1000 5
b11 '
b00 8
1*
b110 +
b01100 /
#1396
b01011 &
0*
#1401
b01011 #
b111 $
b11 4
b1001 5
1*
b111 +
#1406
b01100 &
0*
#1411
b01100 #
b100 $
1*
b100 +
b001 ,
b10 -
b01101 /
b11 2
b00 4
b0101 5
b11 6
b01 8
#1416
b01101 &
0*
#1421
b01101 #
b101 $
b01 4
b0110 5
b10 8
1*
b101 +
b01110 /
#1426
b01110 &
0*
#1431
b01110 #
b110 $
b10 4
b0111 5
b11 8
1*
b110 +
b01111 /
#1436
b01111 &
0*
#1441
b01111 #
b111 $
b11 4
b1000 5
b00 '
b00 8
1*
b111 +
b00000 /
#1446
b10000 &
0*
#1451
b10000 #
b100 $
b01 '
1*
b010 +
b100 ,
b01 -
b00110 /
10
b01 2
b00 4
b0110 5
b00 6
b10 8
#1456
b10001 &
0*
#1461
b10001 #
b101 $
b01 4
1*
#1466
b10010 &
0*
#1471
b10010 #
b110 $
b10 4
b0111 5
b11 8
1*
b011 +
b00111 /
#1476
b10011 &
0*
#1481
b10011 #
b111 $
b11 4
1*
#1486
b10100 &
0*
#1491
b10100 #
b100 $
b00 4
b1000 5
b01 6
b10 '
b00 8
1*
b100 +
b00 -
b01000 /
#1496
b10101 &
0*
#1501
b10101 #
b101 $
b01 4
b1001 5
1*
b101 +
#1506
b10110 &
0*
#1511
b10110 #
b110 $
b10 4
b1010 5
b01 8
1*
b110 +
b01001 /
#1516
b10111 &
0*
#1521
b10111 #
b111 $
b11 4
b1011 5
1*
b111 +
#1526
b11000 &
0*
#1531
b11000 #
b100 $
1*
b100 +
b010 ,
b01 -
b01010 /
00
b10 2
b00 4
b0110 5
b10 6
b10 8
#1536
b11001 &
0*
#1541
b11001 #
b101 $
b01 4
b0111 5
b11 8
1*
b101 +
b01011 /
#1546
b11010 &
0*
#1551
b11010 #
b110 $
b10 4
b1000 5
b11 '
b00 8
1*
b110 +
b01100 /
#1556
b11011 &
0*
#1561
b11011 #
b111 $
b11 4
b1001 5
1*
b111 +
#1566
b11100 &
0*
#1571
b11100 #
b100 $
1*
b100 +
b001 ,
b10 -
b01101 /
b11 2
b00 4
b0101 5
b11 6
b01 8
#1576
b11101 &
0*
#1581
b11101 #
b101 $
b01 4
b0110 5
b10 8
1*
b101 +
b01110 /
#1586
b11110 &
0*
#1591
b11110 #
b110 $
b10 4
b0111 5
b11 8
1*
b110 +
b01111 /
#1596
b11111 &
0*
#1601
b11111 #
b111 $
b11 4
b1000 5
b00 '
b00 8
1*
b111 +
b00000 /
#1606
b00101 %
b00000 &
0*
#1611
b101 !
b00000 #
b100 $
b01 '
1*
b010 +
b101 ,
b01 -
b00111 /
10
b01 1
b01 2
b00101 3
b00 4
b0111 5
b00 6
b11 8
#1616
b00001 &
0*
#1621
b00001 #
b101 $
b01 4
1*
#1626
b00010 &
0*
#1631
b00010 #
b110 $
b10 4
b1000 5
b10 '
b00 8
1*
b011 +
b01000 /
#1636
b00011 &
0*
#1641
b00011 #
b111 $
b11 4
1*
#1646
b00100 &
0*
#1651
b00100 #
b100 $
b00 4
b1001 5
b01 6
1*
b100 +
b00 -
#1656
b00101 &
0*
#1661
b00101 #
b101 $
b01 4
b1010 5
b01 8
1*
b101 +
b01001 /
#1666
b00110 &
0*
#1671
b00110 #
b110 $
b10 4
b1011 5
1*
b110 +
#1676
b00111 &
0*
#1681
b00111 #
b111 $
b11 4
b1100 5
b10 8
1*
b111 +
b01010 /
#1686
b01000 &
0*
#1691
00
b10 2
b01000 #
b100 $
b00 4
b0110 5
b10 6
1*
b100 +
b010 ,
b01 -
#1696
b01001 &
0*
#1701
b01001 #
b101 $
b01 4
b0111 5
b11 8
1*
b101 +
b01011 /
#1706
b01010 &
0*
#1711
b01010 #
b110 $
b10 4
b1000 5
b11 '
b00 8
1*
b110 +
b01100 /
#1716
b01011 &
0*
#1721
b01011 #
b111 $
b11 4
b1001 5
1*
b111 +
#1726
b01100 &
0*
#1731
b01100 #
b100 $
1*
b100 +
b001 ,
b10 -
b01101 /
b11 2
b00 4
b0101 5
b11 6
b01 8
#1736
b01101 &
0*
#1741
b01101 #
b101 $
b01 4
b0110 5
b10 8
1*
b101 +
b01110 /
#1746
b01110 &
0*
#1751
b01110 #
b110 $
b10 4
b0111 5
b11 8
1*
b110 +
b01111 /
#1756
b01111 &
0*
#1761
b01111 #
b111 $
b11 4
b1000 5
b00 '
b00 8
1*
b111 +
b00000 /
#1766
b10000 &
0*
#1771
b10000 #
b100 $
b01 '
1*
b010 +
b101 ,
b01 -
b00111 /
10
b01 2
b00 4
b0111 5
b00 6
b11 8
#1776
b10001 &
0*
#1781
b10001 #
b101 $
b01 4
1*
#1786
b10010 &
0*
#1791
b10010 #
b110 $
b10 4
b1000 5
b10 '
b00 8
1*
b011 +
b01000 /
#1796
b10011 &
0*
#1801
b10011 #
b111 $
b11 4
1*
#1806
b10100 &
0*
#1811
b10100 #
b100 $
b00 4
b1001 5
b01 6
1*
b100 +
b00 -
#1816
b10101 &
0*
#1821
b10101 #
b101 $
b01 4
b1010 5
b01 8
1*
b101 +
b01001 /
#1826
b10110 &
0*
#1831
b10110 #
b110 $
b10 4
b1011 5
1*
b110 +
#1836
b10111 &
0*
#1841
b10111 #
b111 $
b11 4
b1100 5
b10 8
1*
b111 +
b01010 /
#1846
b11000 &
0*
#1851
00
b10 2
b11000 #
b100 $
b00 4
b0110 5
b10 6
1*
b100 +
b010 ,
b01 -
#1856
b11001 &
0*
#1861
b11001 #
b101 $
b01 4
b0111 5
b11 8
1*
b101 +
b01011 /
#1866
b11010 &
0*
#1871
b11010 #
b110 $
b10 4
b1000 5
b11 '
b00 8
1*
b110 +
b01100 /
#1876
b11011 &
0*
#1881
b11011 #
b111 $
b11 4
b1001 5
1*
b111 +
#1886
b11100 &
0*
#1891
b11100 #
b100 $
1*
b100 +
b001 ,
b10 -
b01101 /
b11 2
b00 4
b0101 5
b11 6
b01 8
#1896
b11101 &
0*
#1901
b11101 #
b101 $
b01 4
b0110 5
b10 8
1*
b101 +
b01110 /
#1906
b11110 &
0*
#1911
b11110 #
b110 $
b10 4
b0111 5
b11 8
1*
b110 +
b01111 /
#1916
b11111 &
0*
#1921
b11111 #
b111 $
b11 4
b1000 5
b00 '
b00 8
1*
b111 +
b00000 /
#1926
b00110 %
b00000 &
0*
#1931
b110 !
b00000 #
b100 $
b10 '
1*
b010 +
b110 ,
b01 -
b01000 /
10
b10 1
b01 2
b00110 3
b00 4
b00 6
#1936
b00001 &
0*
#1941
b00001 #
b101 $
b01 4
1*
#1946
b00010 &
0*
#1951
b00010 #
b110 $
b10 4
b1001 5
1*
b011 +
#1956
b00011 &
0*
#1961
b00011 #
b111 $
b11 4
1*
#1966
b00100 &
0*
#1971
b00100 #
b100 $
b00 4
b1010 5
b01 6
b01 8
1*
b100 +
b00 -
b01001 /
#1976
b00101 &
0*
#1981
b00101 #
b101 $
b01 4
b1011 5
1*
b101 +
#1986
b00110 &
0*
#1991
b00110 #
b110 $
b10 4
b1100 5
b10 8
1*
b110 +
b01010 /
#1996
b00111 &
0*
#2001
b00111 #
b111 $
b11 4
b1101 5
1*
b111 +
#2006
b01000 &
0*
#2011
b01000 #
b100 $
1*
b100 +
b011 ,
b01 -
b01011 /
00
b10 2
b00 4
b0111 5
b10 6
b11 8
#2016
b01001 &
0*
#2021
b01001 #
b101 $
b01 4
b1000 5
b11 '
b00 8
1*
b101 +
b01100 /
#2026
b01010 &
0*
#2031
b01010 #
b110 $
b10 4
b1001 5
1*
b110 +
#2036
b01011 &
0*
#2041
b01011 #
b111 $
b11 4
b1010 5
b01 8
1*
b111 +
b01101 /
#2046
b01100 &
0*
#2051
b11 2
b01100 #
b100 $
b00 4
b0101 5
b11 6
1*
b100 +
b001 ,
b10 -
#2056
b01101 &
0*
#2061
b01101 #
b101 $
b01 4
b0110 5
b10 8
1*
b101 +
b01110 /
#2066
b01110 &
0*
#2071
b01110 #
b110 $
b10 4
b0111 5
b11 8
1*
b110 +
b01111 /
#2076
b01111 &
0*
#2081
b01111 #
b111 $
b11 4
b1000 5
b00 '
b00 8
1*
b111 +
b00000 /
#2086
b10000 &
0*
#2091
b10000 #
b100 $
b10 '
1*
b010 +
b110 ,
b01 -
b01000 /
10
b01 2
b00 4
b00 6
#2096
b10001 &
0*
#2101
b10001 #
b101 $
b01 4
1*
#2106
b10010 &
0*
#2111
b10010 #
b110 $
b10 4
b1001 5
1*
b011 +
#2116
b10011 &
0*
#2121
b10011 #
b111 $
b11 4
1*
#2126
b10100 &
0*
#2131
b10100 #
b100 $
b00 4
b1010 5
b01 6
b01 8
1*
b100 +
b00 -
b01001 /
#2136
b10101 &
0*
#2141
b10101 #
b101 $
b01 4
b1011 5
1*
b101 +
#2146
b10110 &
0*
#2151
b10110 #
b110 $
b10 4
b1100 5
b10 8
1*
b110 +
b01010 /
#2156
b10111 &
0*
#2161
b10111 #
b111 $
b11 4
b1101 5
1*
b111 +
#2166
b11000 &
0*
#2171
b11000 #
b100 $
1*
b100 +
b011 ,
b01 -
b01011 /
00
b10 2
b00 4
b0111 5
b10 6
b11 8
#2176
b11001 &
0*
#2181
b11001 #
b101 $
b01 4
b1000 5
b11 '
b00 8
1*
b101 +
b01100 /
#2186
b11010 &
0*
#2191
b11010 #
b110 $
b10 4
b1001 5
1*
b110 +
#2196
b11011 &
0*
#2201
b11011 #
b111 $
b11 4
b1010 5
b01 8
1*
b111 +
b01101 /
#2206
b11100 &
0*
#2211
b11 2
b11100 #
b100 $
b00 4
b0101 5
b11 6
1*
b100 +
b001 ,
b10 -
#2216
b11101 &
0*
#2221
b11101 #
b101 $
b01 4
b0110 5
b10 8
1*
b101 +
b01110 /
#2226
b11110 &
0*
#2231
b11110 #
b110 $
b10 4
b0111 5
b11 8
1*
b110 +
b01111 /
#2236
b11111 &
0*
#2241
b11111 #
b111 $
b11 4
b1000 5
b00 '
b00 8
1*
b111 +
b00000 /
#2246
b00111 %
b00000 &
0*
#2251
b111 !
b00000 #
b100 $
b10 '
1*
b010 +
b111 ,
b01 -
b01000 /
10
b11 1
b01 2
b00111 3
b00 4
b1001 5
b00 6
#2256
b00001 &
0*
#2261
b00001 #
b101 $
b01 4
1*
#2266
b00010 &
0*
#2271
b00010 #
b110 $
b10 4
b1010 5
b01 8
1*
b011 +
b01001 /
#2276
b00011 &
0*
#2281
b00011 #
b111 $
b11 4
1*
#2286
b00100 &
0*
#2291
b00100 #
b100 $
b00 4
b1011 5
b01 6
1*
b100 +
b00 -
#2296
b00101 &
0*
#2301
b00101 #
b101 $
b01 4
b1100 5
b10 8
1*
b101 +
b01010 /
#2306
b00110 &
0*
#2311
b00110 #
b110 $
b10 4
b1101 5
1*
b110 +
#2316
b00111 &
0*
#2321
b00111 #
b111 $
b11 4
b1110 5
b11 8
1*
b111 +
b01011 /
#2326
b01000 &
0*
#2331
00
b10 2
b01000 #
b100 $
b00 4
b0111 5
b10 6
1*
b100 +
b011 ,
b01 -
#2336
b01001 &
0*
#2341
b01001 #
b101 $
b01 4
b1000 5
b11 '
b00 8
1*
b101 +
b01100 /
#2346
b01010 &
0*
#2351
b01010 #
b110 $
b10 4
b1001 5
1*
b110 +
#2356
b01011 &
0*
#2361
b01011 #
b111 $
b11 4
b1010 5
b01 8
1*
b111 +
b01101 /
#2366
b01100 &
0*
#2371
b11 2
b01100 #
b100 $
b00 4
b0101 5
b11 6
1*
b100 +
b001 ,
b10 -
#2376
b01101 &
0*
#2381
b01101 #
b101 $
b01 4
b0110 5
b10 8
1*
b101 +
b01110 /
#2386
b01110 &
0*
#2391
b01110 #
b110 $
b10 4
b0111 5
b11 8
1*
b110 +
b01111 /
#2396
b01111 &
0*
#2401
b01111 #
b111 $
b11 4
b1000 5
b00 '
b00 8
1*
b111 +
b00000 /
#2406
b10000 &
0*
