test_run_dir/FP4Adder_pipeline_depth__7_should_correctly_add_all_FP4_input_combinations_with_pd__7/FP4Adder.vcd
$date
2025-07-24T17:50+0000
$end
$version
0.2
$end
$comment

$end
$timescale 1ns  $end
$scope module FP4Adder $end
 $var wire 1 ! is_zero $end
 $var wire 2 " exp_b $end
 $var wire 1 # io_out_valid $end
 $var wire 1 $ in_valid_reg $end
 $var wire 2 % ref_frac $end
 $var wire 1 & in_en_reg $end
 $var wire 1 ' a_is_bigger_reg $end
 $var wire 1 ( man_b $end
 $var wire 1 ) man_a $end
 $var wire 2 * frac_a_reg $end
 $var wire 1 + overflow $end
 $var wire 3 , frac_sum $end
 $var wire 4 - b_reg $end
 $var wire 2 . aligned_shift $end
 $var wire 3 / saturated_out $end
 $var wire 1 0 clock $end
 $var wire 2 1 exp_diff $end
 $var wire 1 2 io_out_valid_r $end
 $var wire 2 3 exp_diff_reg $end
 $var wire 3 4 final_out $end
 $var wire 4 5 a_reg $end
 $var wire 2 6 shift_frac $end
 $var wire 4 7 io_b $end
 $var wire 4 8 io_a $end
 $var wire 1 9 reset $end
 $var wire 1 : carry $end
 $var wire 4 ; io_out $end
 $var wire 1 < io_in_valid $end
 $var wire 2 = norm_exp $end
 $var wire 2 > ref_exp_reg $end
 $var wire 2 ? frac_a $end
 $var wire 2 @ frac_b $end
 $var wire 1 A io_out_valid_r_1 $end
 $var wire 1 B io_out_valid_r_2 $end
 $var wire 2 C ref_exp $end
 $var wire 2 D exp_b_reg $end
 $var wire 1 E out_man $end
 $var wire 2 F frac_b_reg $end
 $var wire 3 G norm_frac $end
 $var wire 1 H io_in_en $end
 $var wire 1 I a_is_bigger $end
 $var wire 2 J exp_a_reg $end
 $var wire 3 K frac_sum_reg $end
 $var wire 2 L exp_a $end
$upscope $end
$enddefinitions $end
$dumpvars
b000 G
00
02
b00 6
b00 =
b00 1
09
0:
b00 .
b000 K
0<
b00 3
0A
0B
0E
b000 4
b00 *
0H
0I
b00 %
b00 "
b000 /
b0000 -
b000 ,
b0000 5
0!
0#
b00 F
0$
b00 L
0&
0'
b00 J
0(
0)
b00 @
b00 ?
b0000 ;
0+
b00 >
b0000 8
b00 D
b00 C
b0000 7
$end
#0
b10 @
1!
19
1I
b111 /
b10 ?
#1
10
#6
00
1H
09
1<
#11
10
1$
b10 %
1&
b10 6
b10 F
1'
b10 *
b100 ,
b10 .
#16
00
b0001 7
#21
b11 @
0!
b010 G
1(
b100 K
b0001 -
10
12
b010 4
1:
b0010 ;
b01 =
#26
00
b0010 7
#31
b10 @
1A
b01 "
b11 F
0(
0I
b101 ,
b0010 -
b11 .
10
b01 1
b11 6
#36
00
b0011 7
#41
b11 @
1B
1#
b01 C
b01 D
b10 F
0'
1(
b101 K
b011 ,
b0011 -
b01 .
10
b01 3
b10 6
#46
00
b0100 7
#51
b10 @
b10 "
b11 %
1E
b11 F
b011 G
0(
b011 K
b100 ,
b0100 -
10
b10 1
b011 4
0:
b0011 ;
b01 >
#56
00
b0101 7
#61
b11 @
b10 C
b10 D
b10 %
0E
b10 F
b010 G
1(
b100 K
b010 ,
b0101 -
b00 .
10
b10 3
b100 4
1:
b0100 ;
b10 =
#66
00
b0110 7
#71
b10 @
b11 "
b11 %
b11 F
0(
b010 K
b011 ,
b0110 -
10
b11 1
0:
b10 >
#76
00
b0111 7
#81
b11 @
b11 C
b11 D
b10 %
1E
b10 F
b011 G
1(
b011 K
b010 ,
b0111 -
10
b11 3
b101 4
b0101 ;
#86
00
b1000 7
#91
b10 @
b00 "
b11 %
0E
b11 F
b010 G
0(
1I
b010 K
b011 ,
b1000 -
10
b00 1
b110 4
b0110 ;
b11 =
b11 >
#96
00
b1001 7
#101
b11 @
b00 C
b00 D
b10 %
1E
b10 F
1'
b011 G
1(
b011 K
b100 ,
b1001 -
b10 .
10
b00 3
b111 4
b0111 ;
#106
00
b1010 7
#111
b10 @
b01 "
0E
b11 F
b010 G
0(
0I
b100 K
b101 ,
b1010 -
b11 .
10
b01 1
b010 4
b11 6
1:
b0010 ;
b01 =
b00 >
#116
00
b1011 7
#121
b11 @
b01 C
b01 D
b10 F
0'
1(
b101 K
b011 ,
b1011 -
b01 .
10
b01 3
b10 6
#126
00
b1100 7
#131
b10 @
b10 "
b11 %
1E
b11 F
b011 G
0(
b011 K
b100 ,
b1100 -
10
b10 1
b011 4
0:
b0011 ;
b01 >
#136
00
b1101 7
#141
b11 @
b10 C
b10 D
b10 %
0E
b10 F
b010 G
1(
b100 K
b010 ,
b1101 -
b00 .
10
b10 3
b100 4
1:
b0100 ;
b10 =
#146
00
b1110 7
#151
b10 @
b11 "
b11 %
b11 F
0(
b010 K
b011 ,
b1110 -
10
b11 1
0:
b10 >
#156
00
b1111 7
#161
b11 @
b11 C
b11 D
b10 %
1E
b10 F
b011 G
1(
b011 K
b010 ,
b1111 -
10
b11 3
b101 4
b0101 ;
#166
00
b0000 7
b0001 8
#171
b10 @
b00 "
b11 %
0E
b11 F
b010 G
0(
1)
1I
b010 K
b011 ,
b0000 -
10
b00 1
b110 4
b0001 5
b0110 ;
b11 =
b11 >
b11 ?
#176
00
b0001 7
#181
b11 @
b00 C
b00 D
1E
b10 F
1'
b011 G
1(
b11 *
b011 K
b101 ,
b0001 -
b10 .
10
b00 3
b111 4
b0111 ;
#186
00
b0010 7
#191
b10 @
b01 "
0E
b11 F
b010 G
0(
0I
b101 K
b110 ,
b0010 -
b11 .
10
b01 1
b010 4
b11 6
1:
b0010 ;
b01 =
b00 >
#196
00
b0011 7
#201
b11 @
b01 C
b01 D
b10 %
1E
b10 F
0'
b011 G
1(
b110 K
b011 ,
b0011 -
b01 .
10
b01 3
b011 4
b0011 ;
#206
00
b0100 7
#211
b10 @
b10 "
b11 %
b11 F
0(
b011 K
b100 ,
b0100 -
10
b10 1
0:
b01 >
#216
00
b0101 7
#221
b11 @
b10 C
b10 D
b10 %
0E
b10 F
b010 G
1(
b100 K
b010 ,
b0101 -
b00 .
10
b10 3
b100 4
1:
b0100 ;
b10 =
#226
00
b0110 7
#231
b10 @
b11 "
b11 %
b11 F
0(
b010 K
b011 ,
b0110 -
10
b11 1
0:
b10 >
#236
00
b0111 7
#241
b11 @
b11 C
b11 D
b10 %
1E
b10 F
b011 G
1(
b011 K
b010 ,
b0111 -
10
b11 3
b101 4
b0101 ;
#246
00
b1000 7
#251
b10 @
b00 "
b11 %
0E
b11 F
b010 G
0(
1I
b010 K
b011 ,
b1000 -
10
b00 1
b110 4
b0110 ;
b11 =
b11 >
#256
00
b1001 7
#261
b11 @
b00 C
b00 D
1E
b10 F
1'
b011 G
1(
b011 K
b101 ,
b1001 -
b10 .
10
b00 3
b111 4
b10 6
b0111 ;
#266
00
b1010 7
#271
b10 @
b01 "
0E
b11 F
b010 G
0(
0I
b101 K
b110 ,
b1010 -
b11 .
10
b01 1
b010 4
b11 6
1:
b0010 ;
b01 =
b00 >
#276
00
b1011 7
#281
b11 @
b01 C
b01 D
b10 %
1E
b10 F
0'
b011 G
1(
b110 K
b011 ,
b1011 -
b01 .
10
b01 3
b011 4
b0011 ;
#286
00
b1100 7
#291
b10 @
b10 "
b11 %
b11 F
0(
b011 K
b100 ,
b1100 -
10
b10 1
0:
b01 >
#296
00
b1101 7
#301
b11 @
b10 C
b10 D
b10 %
0E
b10 F
b010 G
1(
b100 K
b010 ,
b1101 -
b00 .
10
b10 3
b100 4
1:
b0100 ;
b10 =
#306
00
b1110 7
#311
b10 @
b11 "
b11 %
b11 F
0(
b010 K
b011 ,
b1110 -
10
b11 1
0:
b10 >
#316
00
b1111 7
#321
b11 @
b11 C
b11 D
b10 %
1E
b10 F
b011 G
1(
b011 K
b010 ,
b1111 -
10
b11 3
b101 4
b0101 ;
#326
00
b0000 7
b0010 8
#331
b10 @
b00 "
b11 %
0E
b11 F
b010 G
0(
0)
1I
b010 K
b011 ,
b01 L
b0000 -
10
b01 1
b110 4
b0010 5
b0110 ;
b11 =
b11 >
b10 ?
#336
00
b0001 7
#341
b11 @
b01 C
b00 D
b10 %
1E
b10 F
1'
b011 G
1(
b10 *
b01 J
b011 K
b0001 -
b01 .
10
b01 3
b111 4
b10 6
b0111 ;
#346
00
b0010 7
#351
b10 @
b01 "
b11 F
0(
b0010 -
10
b00 1
b011 4
b11 6
b0011 ;
b01 =
b01 >
#356
00
b0011 7
#361
10
b11 @
b00 3
b01 D
b10 6
b10 F
1(
b100 ,
b0011 -
b10 .
#366
00
b0100 7
#371
b10 @
b10 "
0E
b11 F
b010 G
0(
0I
b100 K
b101 ,
b0100 -
b11 .
10
b01 1
b100 4
b11 6
1:
b0100 ;
b10 =
#376
00
b0101 7
#381
b11 @
b10 C
b10 D
b10 F
0'
1(
b101 K
b011 ,
b0101 -
b01 .
10
b01 3
b10 6
#386
00
b0110 7
#391
b10 @
b11 "
b11 %
1E
b11 F
b011 G
0(
b011 K
b100 ,
b0110 -
10
b10 1
b101 4
0:
b0101 ;
b10 >
#396
00
b0111 7
#401
b11 @
b11 C
b11 D
b10 %
0E
b10 F
b010 G
1(
b100 K
b010 ,
b0111 -
b00 .
10
b10 3
b110 4
1:
b0110 ;
b11 =
#406
00
b1000 7
#411
b10 @
b00 "
b11 %
b11 F
0(
1I
b010 K
b011 ,
b1000 -
10
b01 1
0:
b11 >
#416
00
b1001 7
#421
b11 @
b01 C
b00 D
b10 %
1E
b10 F
1'
b011 G
1(
b011 K
b1001 -
b01 .
10
b01 3
b111 4
b0111 ;
#426
00
b1010 7
#431
b10 @
b01 "
b11 F
0(
b1010 -
10
b00 1
b011 4
b11 6
b0011 ;
b01 =
b01 >
#436
00
b1011 7
#441
10
b11 @
b00 3
b01 D
b10 6
b10 F
1(
b100 ,
b1011 -
b10 .
#446
00
b1100 7
#451
b10 @
b10 "
0E
b11 F
b010 G
0(
0I
b100 K
b101 ,
b1100 -
b11 .
10
b01 1
b100 4
b11 6
1:
b0100 ;
b10 =
#456
00
b1101 7
#461
b11 @
b10 C
b10 D
b10 F
0'
1(
b101 K
b011 ,
b1101 -
b01 .
10
b01 3
b10 6
#466
00
b1110 7
#471
b10 @
b11 "
b11 %
1E
b11 F
b011 G
0(
b011 K
b100 ,
b1110 -
10
b10 1
b101 4
0:
b0101 ;
b10 >
#476
00
b1111 7
#481
b11 @
b11 C
b11 D
b10 %
0E
b10 F
b010 G
1(
b100 K
b010 ,
b1111 -
b00 .
10
b10 3
b110 4
1:
b0110 ;
b11 =
#486
00
b0000 7
b0011 8
#491
b10 @
b00 "
b11 %
b11 F
0(
1)
1I
b010 K
b011 ,
b0000 -
10
b01 1
b0011 5
0:
b11 >
b11 ?
#496
00
b0001 7
#501
b11 @
b01 C
b00 D
1E
b10 F
1'
b011 G
1(
b11 *
b011 K
b100 ,
b0001 -
b01 .
10
b01 3
b111 4
b0111 ;
#506
00
b0010 7
#511
b10 @
b01 "
0E
b11 F
b010 G
0(
b100 K
b0010 -
10
b00 1
b100 4
b11 6
1:
b0100 ;
b10 =
b01 >
#516
00
b0011 7
#521
10
b11 @
b00 3
b01 D
b10 6
b10 F
1(
b101 ,
b0011 -
b10 .
#526
00
b0100 7
#531
b10 @
b10 "
b11 F
0(
0I
b101 K
b110 ,
b0100 -
b11 .
10
b01 1
b11 6
#536
00
b0101 7
#541
b11 @
b10 C
b10 D
b10 %
1E
b10 F
0'
b011 G
1(
b110 K
b011 ,
b0101 -
b01 .
10
b01 3
b101 4
b0101 ;
#546
00
b0110 7
#551
b10 @
b11 "
b11 %
b11 F
0(
b011 K
b100 ,
b0110 -
10
b10 1
0:
b10 >
#556
00
b0111 7
#561
b11 @
b11 C
b11 D
b10 %
0E
b10 F
b010 G
1(
b100 K
b010 ,
b0111 -
b00 .
10
b10 3
b110 4
1:
b0110 ;
b11 =
#566
00
b1000 7
#571
b10 @
b00 "
b11 %
b11 F
0(
1I
b010 K
b011 ,
b1000 -
10
b01 1
0:
b11 >
#576
00
b1001 7
#581
b11 @
b01 C
b00 D
1E
b10 F
1'
b011 G
1(
b011 K
b100 ,
b1001 -
b01 .
10
b01 3
b111 4
b10 6
b0111 ;
#586
00
b1010 7
#591
b10 @
b01 "
0E
b11 F
b010 G
0(
b100 K
b1010 -
10
b00 1
b100 4
b11 6
1:
b0100 ;
b10 =
b01 >
#596
00
b1011 7
#601
10
b11 @
b00 3
b01 D
b10 6
b10 F
1(
b101 ,
b1011 -
b10 .
#606
00
b1100 7
#611
b10 @
b10 "
b11 F
0(
0I
b101 K
b110 ,
b1100 -
b11 .
10
b01 1
b11 6
#616
00
b1101 7
#621
b11 @
b10 C
b10 D
b10 %
1E
b10 F
0'
b011 G
1(
b110 K
b011 ,
b1101 -
b01 .
10
b01 3
b101 4
b0101 ;
#626
00
b1110 7
#631
b10 @
b11 "
b11 %
b11 F
0(
b011 K
b100 ,
b1110 -
10
b10 1
0:
b10 >
#636
00
b1111 7
#641
b11 @
b11 C
b11 D
b10 %
0E
b10 F
b010 G
1(
b100 K
b010 ,
b1111 -
b00 .
10
b10 3
b110 4
1:
b0110 ;
b11 =
#646
00
b0000 7
b0100 8
#651
b10 @
b00 "
b11 %
b11 F
0(
0)
1I
b010 K
b011 ,
b10 L
b0000 -
10
b0100 5
0:
b11 >
b10 ?
#656
00
b0001 7
#661
b11 @
b10 C
b00 D
b10 %
1E
b10 F
1'
b011 G
1(
b10 *
b10 J
b011 K
b010 ,
b0001 -
10
b111 4
b10 6
b0111 ;
#666
00
b0010 7
#671
b10 @
b01 "
0E
b11 F
b010 G
0(
b010 K
b0010 -
10
b01 1
b100 4
b11 6
b0100 ;
b10 =
b10 >
#676
00
b0011 7
#681
10
b11 @
b01 3
b01 D
b10 6
b10 F
1(
b011 ,
b0011 -
b01 .
#686
00
b0100 7
#691
b10 @
b10 "
1E
b11 F
b011 G
0(
b011 K
b0100 -
10
b00 1
b101 4
b11 6
b0101 ;
#696
00
b0101 7
#701
10
b11 @
b00 3
b10 D
b10 6
b10 F
1(
b100 ,
b0101 -
b10 .
#706
00
b0110 7
#711
b10 @
b11 "
0E
b11 F
b010 G
0(
0I
b100 K
b101 ,
b0110 -
b11 .
10
b01 1
b110 4
b11 6
1:
b0110 ;
b11 =
#716
00
b0111 7
#721
b11 @
b11 C
b11 D
b10 F
0'
1(
b101 K
b011 ,
b0111 -
b01 .
10
b01 3
b10 6
#726
00
b1000 7
#731
b10 @
b00 "
b11 %
1E
b11 F
b011 G
0(
1I
b011 K
b100 ,
b1000 -
10
b10 1
b111 4
0:
b0111 ;
b11 >
#736
00
b1001 7
#741
b11 @
b10 C
b00 D
b10 %
0E
b10 F
1'
b010 G
1(
b100 K
b010 ,
b1001 -
b00 .
10
b10 3
b000 4
1:
b0000 ;
b00 =
#746
00
b1010 7
#751
b10 @
b01 "
b11 F
0(
b010 K
b1010 -
10
b01 1
b100 4
b11 6
0:
b0100 ;
b10 =
b10 >
#756
00
b1011 7
#761
10
b11 @
b01 3
b01 D
b10 6
b10 F
1(
b011 ,
b1011 -
b01 .
#766
00
b1100 7
#771
b10 @
b10 "
1E
b11 F
b011 G
0(
b011 K
b1100 -
10
b00 1
b101 4
b11 6
b0101 ;
#776
00
b1101 7
#781
10
b11 @
b00 3
b10 D
b10 6
b10 F
1(
b100 ,
b1101 -
b10 .
#786
00
b1110 7
#791
b10 @
b11 "
0E
b11 F
b010 G
0(
0I
b100 K
b101 ,
b1110 -
b11 .
10
b01 1
b110 4
b11 6
1:
b0110 ;
b11 =
#796
00
b1111 7
#801
b11 @
b11 C
b11 D
b10 F
0'
1(
b101 K
b011 ,
b1111 -
b01 .
10
b01 3
b10 6
#806
00
b0000 7
b0101 8
#811
b10 @
b00 "
b11 %
1E
b11 F
b011 G
0(
1)
1I
b011 K
b100 ,
b0000 -
10
b10 1
b111 4
b0101 5
0:
b0111 ;
b11 >
b11 ?
#816
00
b0001 7
#821
b11 @
b10 C
b00 D
0E
b10 F
1'
b010 G
1(
b11 *
b100 K
b011 ,
b0001 -
b00 .
10
b10 3
b000 4
1:
b0000 ;
b00 =
#826
00
b0010 7
#831
b10 @
b01 "
1E
b11 F
b011 G
0(
b011 K
b0010 -
10
b01 1
b101 4
b11 6
0:
b0101 ;
b10 =
b10 >
#836
00
b0011 7
#841
10
b11 @
b01 3
b01 D
b10 6
b10 F
1(
b100 ,
b0011 -
b01 .
#846
00
b0100 7
#851
b10 @
b10 "
0E
b11 F
b010 G
0(
b100 K
b0100 -
10
b00 1
b110 4
b11 6
1:
b0110 ;
b11 =
#856
00
b0101 7
#861
10
b11 @
b00 3
b10 D
b10 6
b10 F
1(
b101 ,
b0101 -
b10 .
#866
00
b0110 7
#871
b10 @
b11 "
b11 F
0(
0I
b101 K
b110 ,
b0110 -
b11 .
10
b01 1
b11 6
#876
00
b0111 7
#881
b11 @
b11 C
b11 D
b10 %
1E
b10 F
0'
b011 G
1(
b110 K
b011 ,
b0111 -
b01 .
10
b01 3
b111 4
b0111 ;
#886
00
b1000 7
#891
b10 @
b00 "
b11 %
b11 F
0(
1I
b011 K
b100 ,
b1000 -
10
b10 1
0:
b11 >
#896
00
b1001 7
#901
b11 @
b10 C
b00 D
0E
b10 F
1'
b010 G
1(
b100 K
b011 ,
b1001 -
b00 .
10
b10 3
b000 4
b10 6
1:
b0000 ;
b00 =
#906
00
b1010 7
#911
b10 @
b01 "
1E
b11 F
b011 G
0(
b011 K
b1010 -
10
b01 1
b101 4
b11 6
0:
b0101 ;
b10 =
b10 >
#916
00
b1011 7
#921
10
b11 @
b01 3
b01 D
b10 6
b10 F
1(
b100 ,
b1011 -
b01 .
#926
00
b1100 7
#931
b10 @
b10 "
0E
b11 F
b010 G
0(
b100 K
b1100 -
10
b00 1
b110 4
b11 6
1:
b0110 ;
b11 =
#936
00
b1101 7
#941
10
b11 @
b00 3
b10 D
b10 6
b10 F
1(
b101 ,
b1101 -
b10 .
#946
00
b1110 7
#951
b10 @
b11 "
b11 F
0(
0I
b101 K
b110 ,
b1110 -
b11 .
10
b01 1
b11 6
#956
00
b1111 7
#961
b11 @
b11 C
b11 D
b10 %
1E
b10 F
0'
b011 G
1(
b110 K
b011 ,
b1111 -
b01 .
10
b01 3
b111 4
b0111 ;
#966
00
b0000 7
b0110 8
#971
b10 @
b00 "
b11 %
b11 F
0(
0)
1I
b011 K
b100 ,
b11 L
b0000 -
10
b11 1
b0110 5
0:
b11 >
b10 ?
#976
00
b0001 7
#981
b11 @
b00 D
b10 %
0E
b10 F
1'
b010 G
1(
b10 *
b11 J
b100 K
b010 ,
b0001 -
b00 .
10
b11 3
b000 4
b10 6
1:
b0000 ;
b00 =
#986
00
b0010 7
#991
b10 @
b01 "
b11 F
0(
b010 K
b0010 -
10
b10 1
b110 4
b11 6
0:
b0110 ;
b11 =
#996
00
b0011 7
#1001
10
b11 @
b10 3
b01 D
b10 6
b10 F
1(
b0011 -
#1006
00
b0100 7
#1011
10
b10 @
b01 1
b10 "
b11 6
b11 F
0(
b0100 -
#1016
00
b0101 7
#1021
10
b11 @
b01 3
b10 D
b10 6
b10 F
1(
b011 ,
b0101 -
b01 .
#1026
00
b0110 7
#1031
b10 @
b11 "
1E
b11 F
b011 G
0(
b011 K
b0110 -
10
b00 1
b111 4
b11 6
b0111 ;
#1036
00
b0111 7
#1041
10
b11 @
b00 3
b11 D
b10 6
b10 F
1(
b100 ,
b0111 -
b10 .
#1046
00
b1000 7
#1051
b10 @
b00 "
0E
b11 F
b010 G
0(
b100 K
b101 ,
b1000 -
b11 .
10
b11 1
b000 4
b11 6
1:
b0000 ;
b00 =
#1056
00
b1001 7
#1061
10
b11 @
b11 3
b00 D
b10 6
b10 F
1(
b101 K
b010 ,
b1001 -
b00 .
#1066
00
b1010 7
#1071
b10 @
b01 "
b11 F
0(
b010 K
b1010 -
10
b10 1
b110 4
b11 6
0:
b0110 ;
b11 =
#1076
00
b1011 7
#1081
10
b11 @
b10 3
b01 D
b10 6
b10 F
1(
b1011 -
#1086
00
b1100 7
#1091
10
b10 @
b01 1
b10 "
b11 6
b11 F
0(
b1100 -
#1096
00
b1101 7
#1101
10
b11 @
b01 3
b10 D
b10 6
b10 F
1(
b011 ,
b1101 -
b01 .
#1106
00
b1110 7
#1111
b10 @
b11 "
1E
b11 F
b011 G
0(
b011 K
b1110 -
10
b00 1
b111 4
b11 6
b0111 ;
#1116
00
b1111 7
#1121
10
b11 @
b00 3
b11 D
b10 6
b10 F
1(
b100 ,
b1111 -
b10 .
#1126
00
b0000 7
b0111 8
#1131
b10 @
b00 "
0E
b11 F
b010 G
0(
1)
b100 K
b101 ,
b0000 -
b11 .
10
b11 1
b000 4
b0111 5
b11 6
1:
b0000 ;
b00 =
b11 ?
#1136
00
b0001 7
#1141
b11 @
b00 D
b11 %
b10 F
1(
b11 *
b101 K
b011 ,
b0001 -
b00 .
10
b11 3
b10 6
#1146
00
b0010 7
#1151
b10 @
b01 "
1E
b11 F
b011 G
0(
b011 K
b0010 -
10
b10 1
b111 4
b11 6
0:
b0111 ;
b11 =
#1156
00
b0011 7
#1161
10
b11 @
b10 3
b01 D
b10 6
b10 F
1(
b0011 -
#1166
00
b0100 7
#1171
10
b10 @
b01 1
b10 "
b11 6
b11 F
0(
b0100 -
#1176
00
b0101 7
#1181
10
b11 @
b01 3
b10 D
b10 6
b10 F
1(
b100 ,
b0101 -
b01 .
#1186
00
b0110 7
#1191
b10 @
b11 "
0E
b11 F
b010 G
0(
b100 K
b0110 -
10
b00 1
b000 4
b11 6
1:
b0000 ;
b00 =
#1196
00
b0111 7
#1201
10
b11 @
b00 3
b11 D
b10 6
b10 F
1(
b101 ,
b0111 -
b10 .
#1206
00
b1000 7
#1211
10
b10 @
b11 1
b00 "
b11 6
b11 F
0(
b101 K
b110 ,
b1000 -
b11 .
#1216
00
b1001 7
#1221
b11 @
b00 D
1E
b10 F
b011 G
1(
b110 K
b011 ,
b1001 -
b00 .
10
b11 3
b001 4
b10 6
b0001 ;
#1226
00
b1010 7
#1231
b10 @
b01 "
b11 F
0(
b011 K
b1010 -
10
b10 1
b111 4
b11 6
0:
b0111 ;
b11 =
#1236
00
b1011 7
#1241
10
b11 @
b10 3
b01 D
b10 6
b10 F
1(
b1011 -
#1246
00
b1100 7
#1251
10
b10 @
b01 1
b10 "
b11 6
b11 F
0(
b1100 -
#1256
00
b1101 7
#1261
10
b11 @
b01 3
b10 D
b10 6
b10 F
1(
b100 ,
b1101 -
b01 .
#1266
00
b1110 7
#1271
b10 @
b11 "
0E
b11 F
b010 G
0(
b100 K
b1110 -
10
b00 1
b000 4
b11 6
1:
b0000 ;
b00 =
#1276
00
b1111 7
#1281
10
b11 @
b00 3
b11 D
b10 6
b10 F
1(
b101 ,
b1111 -
b10 .
#1286
00
b0000 7
b1000 8
#1291
b10 @
b00 "
b11 F
0(
0)
b101 K
b110 ,
b00 L
b0000 -
b11 .
10
b1000 5
b11 6
b10 ?
#1296
00
b0001 7
#1301
b11 @
b00 C
b00 D
b10 %
1E
b10 F
b011 G
1(
b10 *
b00 J
b110 K
b100 ,
b0001 -
b10 .
10
b001 4
b10 6
b0001 ;
#1306
00
b0010 7
#1311
b10 @
b01 "
0E
b11 F
b010 G
0(
0I
b100 K
b101 ,
b0010 -
b11 .
10
b01 1
b010 4
b11 6
b0010 ;
b01 =
b00 >
#1316
00
b0011 7
#1321
b11 @
b01 C
b01 D
b10 F
0'
1(
b101 K
b011 ,
b0011 -
b01 .
10
b01 3
b10 6
#1326
00
b0100 7
#1331
b10 @
b10 "
b11 %
1E
b11 F
b011 G
0(
b011 K
b100 ,
b0100 -
10
b10 1
b011 4
0:
b0011 ;
b01 >
#1336
00
b0101 7
#1341
b11 @
b10 C
b10 D
b10 %
0E
b10 F
b010 G
1(
b100 K
b010 ,
b0101 -
b00 .
10
b10 3
b100 4
1:
b0100 ;
b10 =
#1346
00
b0110 7
#1351
b10 @
b11 "
b11 %
b11 F
0(
b010 K
b011 ,
b0110 -
10
b11 1
0:
b10 >
#1356
00
b0111 7
#1361
b11 @
b11 C
b11 D
b10 %
1E
b10 F
b011 G
1(
b011 K
b010 ,
b0111 -
10
b11 3
b101 4
b0101 ;
#1366
00
b1000 7
#1371
b10 @
b00 "
b11 %
0E
b11 F
b010 G
0(
1I
b010 K
b011 ,
b1000 -
10
b00 1
b110 4
b0110 ;
b11 =
b11 >
#1376
00
b1001 7
#1381
b11 @
b00 C
b00 D
b10 %
1E
b10 F
1'
b011 G
1(
b011 K
b100 ,
b1001 -
b10 .
10
b00 3
b111 4
b0111 ;
#1386
00
b1010 7
#1391
b10 @
b01 "
0E
b11 F
b010 G
0(
0I
b100 K
b101 ,
b1010 -
b11 .
10
b01 1
b010 4
b11 6
1:
b0010 ;
b01 =
b00 >
#1396
00
b1011 7
#1401
b11 @
b01 C
b01 D
b10 F
0'
1(
b101 K
b011 ,
b1011 -
b01 .
10
b01 3
b10 6
#1406
00
b1100 7
#1411
b10 @
b10 "
b11 %
1E
b11 F
b011 G
0(
b011 K
b100 ,
b1100 -
10
b10 1
b011 4
0:
b0011 ;
b01 >
#1416
00
b1101 7
#1421
b11 @
b10 C
b10 D
b10 %
0E
b10 F
b010 G
1(
b100 K
b010 ,
b1101 -
b00 .
10
b10 3
b100 4
1:
b0100 ;
b10 =
#1426
00
b1110 7
#1431
b10 @
b11 "
b11 %
b11 F
0(
b010 K
b011 ,
b1110 -
10
b11 1
0:
b10 >
#1436
00
b1111 7
#1441
b11 @
b11 C
b11 D
b10 %
1E
b10 F
b011 G
1(
b011 K
b010 ,
b1111 -
10
b11 3
b101 4
b0101 ;
#1446
00
b0000 7
b1001 8
#1451
b10 @
b00 "
b11 %
0E
b11 F
b010 G
0(
1)
1I
b010 K
b011 ,
b0000 -
10
b00 1
b110 4
b1001 5
b0110 ;
b11 =
b11 >
b11 ?
#1456
00
b0001 7
#1461
b11 @
b00 C
b00 D
1E
b10 F
1'
b011 G
1(
b11 *
b011 K
b101 ,
b0001 -
b10 .
10
b00 3
b111 4
b0111 ;
#1466
00
b0010 7
#1471
b10 @
b01 "
0E
b11 F
b010 G
0(
0I
b101 K
b110 ,
b0010 -
b11 .
10
b01 1
b010 4
b11 6
1:
b0010 ;
b01 =
b00 >
#1476
00
b0011 7
#1481
b11 @
b01 C
b01 D
b10 %
1E
b10 F
0'
b011 G
1(
b110 K
b011 ,
b0011 -
b01 .
10
b01 3
b011 4
b0011 ;
#1486
00
b0100 7
#1491
b10 @
b10 "
b11 %
b11 F
0(
b011 K
b100 ,
b0100 -
10
b10 1
0:
b01 >
#1496
00
b0101 7
#1501
b11 @
b10 C
b10 D
b10 %
0E
b10 F
b010 G
1(
b100 K
b010 ,
b0101 -
b00 .
10
b10 3
b100 4
1:
b0100 ;
b10 =
#1506
00
b0110 7
#1511
b10 @
b11 "
b11 %
b11 F
0(
b010 K
b011 ,
b0110 -
10
b11 1
0:
b10 >
#1516
00
b0111 7
#1521
b11 @
b11 C
b11 D
b10 %
1E
b10 F
b011 G
1(
b011 K
b010 ,
b0111 -
10
b11 3
b101 4
b0101 ;
#1526
00
b1000 7
#1531
b10 @
b00 "
b11 %
0E
b11 F
b010 G
0(
1I
b010 K
b011 ,
b1000 -
10
b00 1
b110 4
b0110 ;
b11 =
b11 >
#1536
00
b1001 7
#1541
b11 @
b00 C
b00 D
1E
b10 F
1'
b011 G
1(
b011 K
b101 ,
b1001 -
b10 .
10
b00 3
b111 4
b10 6
b0111 ;
#1546
00
b1010 7
#1551
b10 @
b01 "
0E
b11 F
b010 G
0(
0I
b101 K
b110 ,
b1010 -
b11 .
10
b01 1
b010 4
b11 6
1:
b0010 ;
b01 =
b00 >
#1556
00
b1011 7
#1561
b11 @
b01 C
b01 D
b10 %
1E
b10 F
0'
b011 G
1(
b110 K
b011 ,
b1011 -
b01 .
10
b01 3
b011 4
b0011 ;
#1566
00
b1100 7
#1571
b10 @
b10 "
b11 %
b11 F
0(
b011 K
b100 ,
b1100 -
10
b10 1
0:
b01 >
#1576
00
b1101 7
#1581
b11 @
b10 C
b10 D
b10 %
0E
b10 F
b010 G
1(
b100 K
b010 ,
b1101 -
b00 .
10
b10 3
b100 4
1:
b0100 ;
b10 =
#1586
00
b1110 7
#1591
b10 @
b11 "
b11 %
b11 F
0(
b010 K
b011 ,
b1110 -
10
b11 1
0:
b10 >
#1596
00
b1111 7
#1601
b11 @
b11 C
b11 D
b10 %
1E
b10 F
b011 G
1(
b011 K
b010 ,
b1111 -
10
b11 3
b101 4
b0101 ;
#1606
00
b0000 7
b1010 8
#1611
b10 @
b00 "
b11 %
0E
b11 F
b010 G
0(
0)
1I
b010 K
b011 ,
b01 L
b0000 -
10
b01 1
b110 4
b1010 5
b0110 ;
b11 =
b11 >
b10 ?
#1616
00
b0001 7
#1621
b11 @
b01 C
b00 D
b10 %
1E
b10 F
1'
b011 G
1(
b10 *
b01 J
b011 K
b0001 -
b01 .
10
b01 3
b111 4
b10 6
b0111 ;
#1626
00
b0010 7
#1631
b10 @
b01 "
b11 F
0(
b0010 -
10
b00 1
b011 4
b11 6
b0011 ;
b01 =
b01 >
#1636
00
b0011 7
#1641
10
b11 @
b00 3
b01 D
b10 6
b10 F
1(
b100 ,
b0011 -
b10 .
#1646
00
b0100 7
#1651
b10 @
b10 "
0E
b11 F
b010 G
0(
0I
b100 K
b101 ,
b0100 -
b11 .
10
b01 1
b100 4
b11 6
1:
b0100 ;
b10 =
#1656
00
b0101 7
#1661
b11 @
b10 C
b10 D
b10 F
0'
1(
b101 K
b011 ,
b0101 -
b01 .
10
b01 3
b10 6
#1666
00
b0110 7
#1671
b10 @
b11 "
b11 %
1E
b11 F
b011 G
0(
b011 K
b100 ,
b0110 -
10
b10 1
b101 4
0:
b0101 ;
b10 >
