test_run_dir/should_Test_all_inputs_for_FPAdder_with_bw4_and_pd3/FPAdder.vcd
$date
2025-07-28T19:48+0000
$end
$version
0.2
$end
$comment

$end
$timescale 1ns  $end
$scope module FPAdder $end
 $var wire 4 ! io_in_a $end
 $var wire 4 " io_in_b $end
 $var wire 1 # io_out_valid $end
 $var wire 3 $ manA $end
 $var wire 4 % pipe_data_2 $end
 $var wire 4 & pipe_data_0 $end
 $var wire 4 ' pipe_data_1 $end
 $var wire 3 ( manB $end
 $var wire 3 ) expDiff $end
 $var wire 2 * manB_raw $end
 $var wire 1 + reset $end
 $var wire 1 , io_in_valid $end
 $var wire 2 - resultFrac $end
 $var wire 2 . resultExp $end
 $var wire 32 / cycle $end
 $var wire 4 0 resultMan $end
 $var wire 2 1 manA_raw $end
 $var wire 2 2 expBig $end
 $var wire 3 3 alignedManA $end
 $var wire 3 4 alignedManB $end
 $var wire 3 5 maxExp $end
 $var wire 1 6 clock $end
 $var wire 1 7 printf_1 $end
 $var wire 1 8 printf_2 $end
 $var wire 3 9 shiftAmount $end
 $var wire 1 : pipe_valids_1 $end
 $var wire 1 ; pipe_valids_2 $end
 $var wire 1 < pipe_valids_0 $end
 $var wire 4 = io_out $end
 $var wire 4 > normalized $end
 $var wire 1 ? printf $end
 $var wire 2 @ expB $end
 $var wire 2 A expA $end
 $var wire 4 B finalResult $end
$upscope $end
$enddefinitions $end
$dumpvars
b0000 B
b0000 >
06
07
08
b00 1
0:
0;
b00 .
0<
0?
b00 2
b000 9
b000 3
b00 -
b000 5
b000 4
b00 *
b00000000000000000000000000000000 /
b0000 %
b0000 "
b000 )
b000 (
b0000 !
b000 $
b0000 &
b0000 '
0#
b0000 0
b00 A
b0000 =
b00 @
0+
0,
$end
#0
b011 5
1+
#1
16
#6
06
0+
1,
#11
16
1<
b00000000000000000000000000000001 /
#16
b0001 0
b0001 "
b001 4
06
b001 (
b01 *
b0001 >
#21
16
1:
b00000000000000000000000000000010 /
#26
b0010 0
b0010 "
b0001 B
b010 4
06
b010 (
b10 *
b01 -
b0010 >
#31
1#
b0001 &
16
1;
b00000000000000000000000000000011 /
#36
b0011 0
b0011 "
b011 4
06
b011 (
b11 *
b0011 >
#41
16
b0001 '
b00000000000000000000000000000100 /
#46
b01 @
b0100 "
b0110 B
b100 (
b111 )
b00 *
b10 -
b01 .
b0100 0
b01 2
b100 4
06
b001 9
b0100 >
#51
b0001 %
b0110 &
16
b0001 =
b00000000000000000000000000000101 /
#56
b0101 0
b0101 "
b101 4
06
b101 (
b01 *
b0101 >
#61
16
b0110 '
b00000000000000000000000000000110 /
#66
b0110 0
b0110 "
b0111 B
b110 4
06
b110 (
b10 *
b11 -
b0110 >
#71
b0110 %
b0111 &
16
b0110 =
b00000000000000000000000000000111 /
#76
b0111 0
b0111 "
b111 4
06
b111 (
b11 *
b0111 >
#81
16
b0111 '
b00000000000000000000000000001000 /
#86
b10 @
b1000 "
b1010 B
b100 (
b110 )
b00 *
b10 -
b10 .
b0100 0
b10 2
b100 4
06
b010 9
b0100 >
#91
b0111 %
b1010 &
16
b0111 =
b00000000000000000000000000001001 /
#96
b0101 0
b1001 "
b101 4
06
b101 (
b01 *
b0101 >
#101
16
b1010 '
b00000000000000000000000000001010 /
#106
b0110 0
b1010 "
b1011 B
b110 4
06
b110 (
b10 *
b11 -
b0110 >
#111
b1010 %
b1011 &
16
b1010 =
b00000000000000000000000000001011 /
#116
b0111 0
b1011 "
b111 4
06
b111 (
b11 *
b0111 >
#121
16
b1011 '
b00000000000000000000000000001100 /
#126
b11 @
b1100 "
b1110 B
b100 (
b101 )
b00 *
b10 -
b11 .
b0100 0
b11 2
b100 4
06
b011 9
b0100 >
#131
b1011 %
b1110 &
16
b1011 =
b00000000000000000000000000001101 /
#136
b0101 0
b1101 "
b101 4
06
b101 (
b01 *
b0101 >
#141
16
b1110 '
b00000000000000000000000000001110 /
#146
b0110 0
b1110 "
b1111 B
b110 4
06
b110 (
b10 *
b11 -
b0110 >
#151
b1110 %
b1111 &
16
b1110 =
b00000000000000000000000000001111 /
#156
b0111 0
b1111 "
b111 4
06
b111 (
b11 *
b0111 >
#161
16
b1111 '
b00000000000000000000000000010000 /
#166
b00 @
b0001 !
b0000 "
b0000 B
b001 $
b000 (
b000 )
b00 *
b00 -
b00 .
b0001 0
b01 1
b00 2
b001 3
b000 4
06
b000 9
b0001 >
#171
b1111 %
b0000 &
16
b1111 =
b00000000000000000000000000010001 /
#176
b0010 0
b0001 "
b0001 B
b001 4
06
b001 (
b01 *
b01 -
b0010 >
#181
b0001 &
16
b0000 '
b00000000000000000000000000010010 /
#186
b0011 0
b0010 "
b010 4
06
b010 (
b10 *
b0011 >
#191
b0000 %
16
b0001 '
b0000 =
b00000000000000000000000000010011 /
#196
b0100 0
b0011 "
b0010 B
b011 4
06
b011 (
b11 *
b10 -
b0100 >
#201
b0001 %
b0010 &
16
b0001 =
b00000000000000000000000000010100 /
#206
b01 @
b0100 "
b0110 B
b100 (
b111 )
b00 *
b01 .
b01 2
b000 3
b100 4
06
b001 9
#211
b0110 &
16
b0010 '
b00000000000000000000000000010101 /
#216
b0101 0
b0101 "
b101 4
06
b101 (
b01 *
b0101 >
#221
b0010 %
16
b0110 '
b0010 =
b00000000000000000000000000010110 /
#226
b0110 0
b0110 "
b0111 B
b110 4
06
b110 (
b10 *
b11 -
b0110 >
#231
b0110 %
b0111 &
16
b0110 =
b00000000000000000000000000010111 /
#236
b0111 0
b0111 "
b111 4
06
b111 (
b11 *
b0111 >
#241
16
b0111 '
b00000000000000000000000000011000 /
#246
b10 @
b1000 "
b1010 B
b100 (
b110 )
b00 *
b10 -
b10 .
b0100 0
b10 2
b100 4
06
b010 9
b0100 >
#251
b0111 %
b1010 &
16
b0111 =
b00000000000000000000000000011001 /
#256
b0101 0
b1001 "
b101 4
06
b101 (
b01 *
b0101 >
#261
16
b1010 '
b00000000000000000000000000011010 /
#266
b0110 0
b1010 "
b1011 B
b110 4
06
b110 (
b10 *
b11 -
b0110 >
#271
b1010 %
b1011 &
16
b1010 =
b00000000000000000000000000011011 /
#276
b0111 0
b1011 "
b111 4
06
b111 (
b11 *
b0111 >
#281
16
b1011 '
b00000000000000000000000000011100 /
#286
b11 @
b1100 "
b1110 B
b100 (
b101 )
b00 *
b10 -
b11 .
b0100 0
b11 2
b100 4
06
b011 9
b0100 >
#291
b1011 %
b1110 &
16
b1011 =
b00000000000000000000000000011101 /
#296
b0101 0
b1101 "
b101 4
06
b101 (
b01 *
b0101 >
#301
16
b1110 '
b00000000000000000000000000011110 /
#306
b0110 0
b1110 "
b1111 B
b110 4
06
b110 (
b10 *
b11 -
b0110 >
#311
b1110 %
b1111 &
16
b1110 =
b00000000000000000000000000011111 /
#316
b0111 0
b1111 "
b111 4
06
b111 (
b11 *
b0111 >
#321
16
b1111 '
b00000000000000000000000000100000 /
#326
b00 @
b0010 !
b0000 "
b0001 B
b010 $
b000 (
b000 )
b00 *
b01 -
b00 .
b0010 0
b10 1
b00 2
b010 3
b000 4
06
b000 9
b0010 >
#331
b1111 %
b0001 &
16
b1111 =
b00000000000000000000000000100001 /
#336
b0011 0
b0001 "
b001 4
06
b001 (
b01 *
b0011 >
#341
16
b0001 '
b00000000000000000000000000100010 /
#346
b0100 0
b0010 "
b0010 B
b010 4
06
b010 (
b10 *
b10 -
b0100 >
#351
b0001 %
b0010 &
16
b0001 =
b00000000000000000000000000100011 /
#356
b0101 0
b0011 "
b011 4
06
b011 (
b11 *
b0101 >
#361
16
b0010 '
b00000000000000000000000000100100 /
#366
b01 @
b0100 "
b0110 B
b100 (
b111 )
b00 *
b01 .
b01 2
b001 3
b100 4
06
b001 9
#371
b0010 %
b0110 &
16
b0010 =
b00000000000000000000000000100101 /
#376
b0110 0
b0101 "
b0111 B
b101 4
06
b101 (
b01 *
b11 -
b0110 >
#381
b0111 &
16
b0110 '
b00000000000000000000000000100110 /
#386
b0111 0
b0110 "
b110 4
06
b110 (
b10 *
b0111 >
#391
b0110 %
16
b0111 '
b0110 =
b00000000000000000000000000100111 /
#396
b1000 0
b0111 "
b1010 B
b111 4
06
b111 (
b11 *
b10 -
b10 .
b0100 >
#401
b0111 %
b1010 &
16
b0111 =
b00000000000000000000000000101000 /
#406
b0100 0
b10 @
b1000 "
b10 2
b000 3
b100 4
06
b100 (
b110 )
b010 9
b00 *
#411
16
b1010 '
b00000000000000000000000000101001 /
#416
b0101 0
b1001 "
b101 4
06
b101 (
b01 *
b0101 >
#421
b1010 %
16
b1010 =
b00000000000000000000000000101010 /
#426
b0110 0
b1010 "
b1011 B
b110 4
06
b110 (
b10 *
b11 -
b0110 >
#431
b1011 &
16
b00000000000000000000000000101011 /
#436
b0111 0
b1011 "
b111 4
06
b111 (
b11 *
b0111 >
#441
16
b1011 '
b00000000000000000000000000101100 /
#446
b11 @
b1100 "
b1110 B
b100 (
b101 )
b00 *
b10 -
b11 .
b0100 0
b11 2
b100 4
06
b011 9
b0100 >
#451
b1011 %
b1110 &
16
b1011 =
b00000000000000000000000000101101 /
#456
b0101 0
b1101 "
b101 4
06
b101 (
b01 *
b0101 >
#461
16
b1110 '
b00000000000000000000000000101110 /
#466
b0110 0
b1110 "
b1111 B
b110 4
06
b110 (
b10 *
b11 -
b0110 >
#471
b1110 %
b1111 &
16
b1110 =
b00000000000000000000000000101111 /
#476
b0111 0
b1111 "
b111 4
06
b111 (
b11 *
b0111 >
#481
16
b1111 '
b00000000000000000000000000110000 /
#486
b00 @
b0011 !
b0000 "
b0001 B
b011 $
b000 (
b000 )
b00 *
b01 -
b00 .
b0011 0
b11 1
b00 2
b011 3
b000 4
06
b000 9
b0011 >
#491
b1111 %
b0001 &
16
b1111 =
b00000000000000000000000000110001 /
#496
b0100 0
b0001 "
b0010 B
b001 4
06
b001 (
b01 *
b10 -
b0100 >
#501
b0010 &
16
b0001 '
b00000000000000000000000000110010 /
#506
b0101 0
b0010 "
b010 4
06
b010 (
b10 *
b0101 >
#511
b0001 %
16
b0010 '
b0001 =
b00000000000000000000000000110011 /
#516
b0110 0
b0011 "
b0011 B
b011 4
06
b011 (
b11 *
b11 -
b0110 >
#521
b0010 %
b0011 &
16
b0010 =
b00000000000000000000000000110100 /
#526
b01 @
b0100 "
b0110 B
b100 (
b111 )
b00 *
b10 -
b01 .
b0101 0
b01 2
b001 3
b100 4
06
b001 9
b0101 >
#531
b0110 &
16
b0011 '
b00000000000000000000000000110101 /
#536
b0110 0
b0101 "
b0111 B
b101 4
06
b101 (
b01 *
b11 -
b0110 >
#541
b0011 %
b0111 &
16
b0110 '
b0011 =
b00000000000000000000000000110110 /
#546
b0111 0
b0110 "
b110 4
06
b110 (
b10 *
b0111 >
#551
b0110 %
16
b0111 '
b0110 =
b00000000000000000000000000110111 /
#556
b1000 0
b0111 "
b1010 B
b111 4
06
b111 (
b11 *
b10 -
b10 .
b0100 >
#561
b0111 %
b1010 &
16
b0111 =
b00000000000000000000000000111000 /
#566
b0100 0
b10 @
b1000 "
b10 2
b000 3
b100 4
06
b100 (
b110 )
b010 9
b00 *
#571
16
b1010 '
b00000000000000000000000000111001 /
#576
b0101 0
b1001 "
b101 4
06
b101 (
b01 *
b0101 >
#581
b1010 %
16
b1010 =
b00000000000000000000000000111010 /
#586
b0110 0
b1010 "
b1011 B
b110 4
06
b110 (
b10 *
b11 -
b0110 >
#591
b1011 &
16
b00000000000000000000000000111011 /
#596
b0111 0
b1011 "
b111 4
06
b111 (
b11 *
b0111 >
#601
16
b1011 '
b00000000000000000000000000111100 /
#606
b11 @
b1100 "
b1110 B
b100 (
b101 )
b00 *
b10 -
b11 .
b0100 0
b11 2
b100 4
06
b011 9
b0100 >
#611
b1011 %
b1110 &
16
b1011 =
b00000000000000000000000000111101 /
#616
b0101 0
b1101 "
b101 4
06
b101 (
b01 *
b0101 >
#621
16
b1110 '
b00000000000000000000000000111110 /
#626
b0110 0
b1110 "
b1111 B
b110 4
06
b110 (
b10 *
b11 -
b0110 >
#631
b1110 %
b1111 &
16
b1110 =
b00000000000000000000000000111111 /
#636
b0111 0
b1111 "
b111 4
06
b111 (
b11 *
b0111 >
#641
16
b1111 '
b00000000000000000000000001000000 /
#646
b00 @
b0100 !
b01 A
b0000 "
b0110 B
b100 $
b000 (
b001 )
b00 *
b10 -
b01 .
b0100 0
b00 1
b01 2
b100 3
b000 4
06
b001 9
b0100 >
#651
b1111 %
b0110 &
16
b1111 =
b00000000000000000000000001000001 /
#656
b0001 "
06
b001 (
b01 *
#661
16
b0110 '
b00000000000000000000000001000010 /
#666
b0101 0
b0010 "
b001 4
06
b010 (
b10 *
b0101 >
#671
b0110 %
16
b0110 =
b00000000000000000000000001000011 /
#676
b0011 "
06
b011 (
b11 *
#681
16
b00000000000000000000000001000100 /
#686
b01 @
b0100 "
b1010 B
b100 (
b000 )
b00 *
b10 .
b1000 0
b100 4
06
b000 9
b0100 >
#691
b1010 &
16
b00000000000000000000000001000101 /
#696
b1001 0
b0101 "
b101 4
06
b101 (
b01 *
#701
16
b1010 '
b00000000000000000000000001000110 /
#706
b1010 0
b0110 "
b110 4
06
b110 (
b10 *
b0101 >
#711
b1010 %
16
b1010 =
b00000000000000000000000001000111 /
#716
b1011 0
b0111 "
b111 4
06
b111 (
b11 *
#721
16
b00000000000000000000000001001000 /
#726
b10 @
b1000 "
b1011 B
b100 (
b111 )
b00 *
b11 -
b0110 0
b10 2
b010 3
b100 4
06
b001 9
b0110 >
#731
b1011 &
16
b00000000000000000000000001001001 /
#736
b0111 0
b1001 "
b101 4
06
b101 (
b01 *
b0111 >
#741
16
b1011 '
b00000000000000000000000001001010 /
#746
b1000 0
b1010 "
b1110 B
b110 4
06
b110 (
b10 *
b10 -
b11 .
b0100 >
#751
b1011 %
b1110 &
16
b1011 =
b00000000000000000000000001001011 /
#756
b1001 0
b1011 "
b111 4
06
b111 (
b11 *
#761
16
b1110 '
b00000000000000000000000001001100 /
#766
b11 @
b1100 "
b100 (
b110 )
b00 *
b0101 0
b11 2
b001 3
b100 4
06
b010 9
b0101 >
#771
b1110 %
16
b1110 =
b00000000000000000000000001001101 /
#776
b0110 0
b1101 "
b1111 B
b101 4
06
b101 (
b01 *
b11 -
b0110 >
#781
b1111 &
16
b00000000000000000000000001001110 /
#786
b0111 0
b1110 "
b110 4
06
b110 (
b10 *
b0111 >
#791
16
b1111 '
b00000000000000000000000001001111 /
#796
b1000 0
b1111 "
b1110 B
b111 4
06
b111 (
b11 *
b10 -
b0100 >
#801
b1111 %
b1110 &
16
b1111 =
b00000000000000000000000001010000 /
#806
b00 @
b0101 !
b0000 "
b0110 B
b101 $
b000 (
b001 )
b00 *
b01 .
b0101 0
b01 1
b01 2
b101 3
b000 4
06
b001 9
b0101 >
#811
b0110 &
16
b1110 '
b00000000000000000000000001010001 /
#816
b0001 "
06
b001 (
b01 *
#821
b1110 %
16
b0110 '
b1110 =
b00000000000000000000000001010010 /
#826
b0110 0
b0010 "
b0111 B
b001 4
06
b010 (
b10 *
b11 -
b0110 >
#831
b0110 %
b0111 &
16
b0110 =
b00000000000000000000000001010011 /
#836
b0011 "
06
b011 (
b11 *
#841
16
b0111 '
b00000000000000000000000001010100 /
#846
b01 @
b0100 "
b1010 B
b100 (
b000 )
b00 *
b10 -
b10 .
b1001 0
b100 4
06
b000 9
b0100 >
#851
b0111 %
b1010 &
16
b0111 =
b00000000000000000000000001010101 /
#856
b1010 0
b0101 "
b101 4
06
b101 (
b01 *
b0101 >
#861
16
b1010 '
b00000000000000000000000001010110 /
#866
b1011 0
b0110 "
b110 4
06
b110 (
b10 *
#871
b1010 %
16
b1010 =
b00000000000000000000000001010111 /
#876
b1100 0
b0111 "
b1011 B
b111 4
06
b111 (
b11 *
b11 -
b0110 >
#881
b1011 &
16
b00000000000000000000000001011000 /
#886
b0110 0
b10 @
b1000 "
b10 2
b010 3
b100 4
06
b100 (
b111 )
b001 9
b00 *
#891
16
b1011 '
b00000000000000000000000001011001 /
#896
b0111 0
b1001 "
b101 4
06
b101 (
b01 *
b0111 >
#901
b1011 %
16
b1011 =
b00000000000000000000000001011010 /
#906
b1000 0
b1010 "
b1110 B
b110 4
06
b110 (
b10 *
b10 -
b11 .
b0100 >
#911
b1110 &
16
b00000000000000000000000001011011 /
#916
b1001 0
b1011 "
b111 4
06
b111 (
b11 *
#921
16
b1110 '
b00000000000000000000000001011100 /
#926
b11 @
b1100 "
b100 (
b110 )
b00 *
b0101 0
b11 2
b001 3
b100 4
06
b010 9
b0101 >
#931
b1110 %
16
b1110 =
b00000000000000000000000001011101 /
#936
b0110 0
b1101 "
b1111 B
b101 4
06
b101 (
b01 *
b11 -
b0110 >
#941
b1111 &
16
b00000000000000000000000001011110 /
#946
b0111 0
b1110 "
b110 4
06
b110 (
b10 *
b0111 >
#951
16
b1111 '
b00000000000000000000000001011111 /
#956
b1000 0
b1111 "
b1110 B
b111 4
06
b111 (
b11 *
b10 -
b0100 >
#961
b1111 %
b1110 &
16
b1111 =
b00000000000000000000000001100000 /
#966
b00 @
b0110 !
b0000 "
b0111 B
b110 $
b000 (
b001 )
b00 *
b11 -
b01 .
b0110 0
b10 1
b01 2
b110 3
b000 4
06
b001 9
b0110 >
#971
b0111 &
16
b1110 '
b00000000000000000000000001100001 /
#976
b0001 "
06
b001 (
b01 *
#981
b1110 %
16
b0111 '
b1110 =
b00000000000000000000000001100010 /
#986
b0111 0
b0010 "
b001 4
06
b010 (
b10 *
b0111 >
#991
b0111 %
16
b0111 =
b00000000000000000000000001100011 /
#996
b0011 "
06
b011 (
b11 *
#1001
16
b00000000000000000000000001100100 /
#1006
b01 @
b0100 "
b1010 B
b100 (
b000 )
b00 *
b10 -
b10 .
b1010 0
b100 4
06
b000 9
b0101 >
#1011
b1010 &
16
b00000000000000000000000001100101 /
#1016
b1011 0
b0101 "
b101 4
06
b101 (
b01 *
#1021
16
b1010 '
b00000000000000000000000001100110 /
#1026
b1100 0
b0110 "
b1011 B
b110 4
06
b110 (
b10 *
b11 -
b0110 >
#1031
b1010 %
b1011 &
16
b1010 =
b00000000000000000000000001100111 /
#1036
b1101 0
b0111 "
b111 4
06
b111 (
b11 *
#1041
16
b1011 '
b00000000000000000000000001101000 /
#1046
b10 @
b1000 "
b100 (
b111 )
b00 *
b0111 0
b10 2
b011 3
b100 4
06
b001 9
b0111 >
#1051
b1011 %
16
b1011 =
b00000000000000000000000001101001 /
#1056
b1000 0
b1001 "
b1110 B
b101 4
06
b101 (
b01 *
b10 -
b11 .
b0100 >
#1061
b1110 &
16
b00000000000000000000000001101010 /
#1066
b1001 0
b1010 "
b110 4
06
b110 (
b10 *
#1071
16
b1110 '
b00000000000000000000000001101011 /
#1076
b1010 0
b1011 "
b111 4
06
b111 (
b11 *
b0101 >
#1081
b1110 %
16
b1110 =
b00000000000000000000000001101100 /
#1086
b0101 0
b11 @
b1100 "
b11 2
b001 3
b100 4
06
b100 (
b110 )
b010 9
b00 *
#1091
16
b00000000000000000000000001101101 /
#1096
b0110 0
b1101 "
b1111 B
b101 4
06
b101 (
b01 *
b11 -
b0110 >
#1101
b1111 &
16
b00000000000000000000000001101110 /
#1106
b0111 0
b1110 "
b110 4
06
b110 (
b10 *
b0111 >
#1111
16
b1111 '
b00000000000000000000000001101111 /
#1116
b1000 0
b1111 "
b1110 B
b111 4
06
b111 (
b11 *
b10 -
b0100 >
#1121
b1111 %
b1110 &
16
b1111 =
b00000000000000000000000001110000 /
#1126
b00 @
b0111 !
b0000 "
b0111 B
b111 $
b000 (
b001 )
b00 *
b11 -
b01 .
b0111 0
b11 1
b01 2
b111 3
b000 4
06
b001 9
b0111 >
#1131
b0111 &
16
b1110 '
b00000000000000000000000001110001 /
#1136
b0001 "
06
b001 (
b01 *
#1141
b1110 %
16
b0111 '
b1110 =
b00000000000000000000000001110010 /
#1146
b1000 0
b0010 "
b1010 B
b001 4
06
b010 (
b10 *
b10 -
b10 .
b0100 >
#1151
b0111 %
b1010 &
16
b0111 =
b00000000000000000000000001110011 /
#1156
b0011 "
06
b011 (
b11 *
#1161
16
b1010 '
b00000000000000000000000001110100 /
#1166
b1011 0
b01 @
b0100 "
b100 4
06
b100 (
b000 )
b000 9
b00 *
b0101 >
#1171
b1010 %
16
b1010 =
b00000000000000000000000001110101 /
#1176
b1100 0
b0101 "
b1011 B
b101 4
06
b101 (
b01 *
b11 -
b0110 >
#1181
b1011 &
16
b00000000000000000000000001110110 /
#1186
b1101 0
b0110 "
b110 4
06
b110 (
b10 *
#1191
16
b1011 '
b00000000000000000000000001110111 /
#1196
b1110 0
b0111 "
b111 4
06
b111 (
b11 *
b0111 >
#1201
b1011 %
16
b1011 =
b00000000000000000000000001111000 /
#1206
b0111 0
b10 @
b1000 "
b10 2
b011 3
b100 4
06
b100 (
b111 )
b001 9
b00 *
#1211
16
b00000000000000000000000001111001 /
#1216
b1000 0
b1001 "
b1110 B
b101 4
06
b101 (
b01 *
b10 -
b11 .
b0100 >
#1221
b1110 &
16
b00000000000000000000000001111010 /
#1226
b1001 0
b1010 "
b110 4
06
b110 (
b10 *
#1231
16
b1110 '
b00000000000000000000000001111011 /
#1236
b1010 0
b1011 "
b111 4
06
b111 (
b11 *
b0101 >
#1241
b1110 %
16
b1110 =
b00000000000000000000000001111100 /
#1246
b0101 0
b11 @
b1100 "
b11 2
b001 3
b100 4
06
b100 (
b110 )
b010 9
b00 *
#1251
16
b00000000000000000000000001111101 /
#1256
b0110 0
b1101 "
b1111 B
b101 4
06
b101 (
b01 *
b11 -
b0110 >
#1261
b1111 &
16
b00000000000000000000000001111110 /
#1266
b0111 0
b1110 "
b110 4
06
b110 (
b10 *
b0111 >
#1271
16
b1111 '
b00000000000000000000000001111111 /
#1276
b1000 0
b1111 "
b1110 B
b111 4
06
b111 (
b11 *
b10 -
b0100 >
#1281
b1111 %
b1110 &
16
b1111 =
b00000000000000000000000010000000 /
#1286
b00 @
b1000 !
b10 A
b0000 "
b1010 B
b100 $
b000 (
b010 )
b00 *
b10 .
b0100 0
b00 1
b10 2
b100 3
b000 4
06
#1291
b1010 &
16
b1110 '
b00000000000000000000000010000001 /
#1296
b0001 "
06
b001 (
b01 *
#1301
b1110 %
16
b1010 '
b1110 =
b00000000000000000000000010000010 /
#1306
b0010 "
06
b010 (
b10 *
#1311
b1010 %
16
b1010 =
b00000000000000000000000010000011 /
#1316
b0011 "
06
b011 (
b11 *
#1321
16
b00000000000000000000000010000100 /
#1326
b01 @
b0100 "
b1011 B
b100 (
b001 )
b00 *
b11 -
b0110 0
b010 4
06
b001 9
b0110 >
#1331
b1011 &
16
b00000000000000000000000010000101 /
#1336
b0101 "
06
b101 (
b01 *
#1341
16
b1011 '
b00000000000000000000000010000110 /
#1346
b0111 0
b0110 "
b011 4
06
b110 (
b10 *
b0111 >
#1351
b1011 %
16
b1011 =
b00000000000000000000000010000111 /
#1356
b0111 "
06
b111 (
b11 *
#1361
16
b00000000000000000000000010001000 /
#1366
b10 @
b1000 "
b1110 B
b100 (
b000 )
b00 *
b10 -
b11 .
b1000 0
b100 4
06
b000 9
b0100 >
#1371
b1110 &
16
b00000000000000000000000010001001 /
#1376
b1001 0
b1001 "
b101 4
06
b101 (
b01 *
#1381
16
b1110 '
b00000000000000000000000010001010 /
#1386
b1010 0
b1010 "
b110 4
06
b110 (
b10 *
b0101 >
#1391
b1110 %
16
b1110 =
b00000000000000000000000010001011 /
#1396
b1011 0
b1011 "
b111 4
06
b111 (
b11 *
#1401
16
b00000000000000000000000010001100 /
#1406
b11 @
b1100 "
b1111 B
b100 (
b111 )
b00 *
b11 -
b0110 0
b11 2
b010 3
b100 4
06
b001 9
b0110 >
#1411
b1111 &
16
b00000000000000000000000010001101 /
#1416
b0111 0
b1101 "
b101 4
06
b101 (
b01 *
b0111 >
#1421
16
b1111 '
b00000000000000000000000010001110 /
#1426
b1000 0
b1110 "
b1110 B
b110 4
06
b110 (
b10 *
b10 -
b0100 >
#1431
b1111 %
b1110 &
16
b1111 =
b00000000000000000000000010001111 /
#1436
b1001 0
b1111 "
b111 4
06
b111 (
b11 *
#1441
16
b1110 '
b00000000000000000000000010010000 /
#1446
b00 @
b1001 !
b0000 "
b1010 B
b101 $
b000 (
b010 )
b00 *
b10 .
b0101 0
b01 1
b10 2
b101 3
b000 4
06
b010 9
b0101 >
#1451
b1110 %
b1010 &
16
b1110 =
b00000000000000000000000010010001 /
#1456
b0001 "
06
b001 (
b01 *
#1461
16
b1010 '
b00000000000000000000000010010010 /
#1466
b0010 "
06
b010 (
b10 *
#1471
b1010 %
16
b1010 =
b00000000000000000000000010010011 /
#1476
b0011 "
06
b011 (
b11 *
#1481
16
b00000000000000000000000010010100 /
#1486
b01 @
b0100 "
b1011 B
b100 (
b001 )
b00 *
b11 -
b0111 0
b010 4
06
b001 9
b0111 >
#1491
b1011 &
16
b00000000000000000000000010010101 /
#1496
b0101 "
06
b101 (
b01 *
#1501
16
b1011 '
b00000000000000000000000010010110 /
#1506
b1000 0
b0110 "
b1110 B
b011 4
06
b110 (
b10 *
b10 -
b11 .
b0100 >
#1511
b1011 %
b1110 &
16
b1011 =
b00000000000000000000000010010111 /
#1516
b0111 "
06
b111 (
b11 *
#1521
16
b1110 '
b00000000000000000000000010011000 /
#1526
b1001 0
b10 @
b1000 "
b100 4
06
b100 (
b000 )
b000 9
b00 *
#1531
b1110 %
16
b1110 =
b00000000000000000000000010011001 /
#1536
b1010 0
b1001 "
b101 4
06
b101 (
b01 *
b0101 >
#1541
16
b00000000000000000000000010011010 /
#1546
b1011 0
b1010 "
b110 4
06
b110 (
b10 *
#1551
16
b00000000000000000000000010011011 /
#1556
b1100 0
b1011 "
b1111 B
b111 4
06
b111 (
b11 *
b11 -
b0110 >
#1561
b1111 &
16
b00000000000000000000000010011100 /
#1566
b0110 0
b11 @
b1100 "
b11 2
b010 3
b100 4
06
b100 (
b111 )
b001 9
b00 *
#1571
16
b1111 '
b00000000000000000000000010011101 /
#1576
b0111 0
b1101 "
b101 4
06
b101 (
b01 *
b0111 >
#1581
b1111 %
16
b1111 =
b00000000000000000000000010011110 /
#1586
b1000 0
b1110 "
b1110 B
b110 4
06
b110 (
b10 *
b10 -
b0100 >
#1591
b1110 &
16
b00000000000000000000000010011111 /
#1596
b1001 0
b1111 "
b111 4
06
b111 (
b11 *
#1601
16
b1110 '
b00000000000000000000000010100000 /
#1606
b00 @
b1010 !
b0000 "
b1011 B
b110 $
b000 (
b010 )
b00 *
b11 -
b10 .
b0110 0
b10 1
b10 2
b110 3
b000 4
06
b010 9
b0110 >
#1611
b1110 %
b1011 &
16
b1110 =
b00000000000000000000000010100001 /
#1616
b0001 "
06
b001 (
b01 *
#1621
16
b1011 '
b00000000000000000000000010100010 /
#1626
b0010 "
06
b010 (
b10 *
#1631
b1011 %
16
b1011 =
b00000000000000000000000010100011 /
#1636
b0011 "
06
b011 (
b11 *
#1641
16
b00000000000000000000000010100100 /
#1646
b01 @
b0100 "
b1110 B
b100 (
b001 )
b00 *
b10 -
b11 .
b1000 0
b010 4
06
b001 9
b0100 >
#1651
b1110 &
16
b00000000000000000000000010100101 /
#1656
b0101 "
06
b101 (
b01 *
#1661
16
b1110 '
b00000000000000000000000010100110 /
#1666
b1001 0
b0110 "
b011 4
06
b110 (
b10 *
#1671
b1110 %
16
b1110 =
b00000000000000000000000010100111 /
#1676
b0111 "
06
b111 (
b11 *
#1681
16
b00000000000000000000000010101000 /
#1686
b1010 0
b10 @
b1000 "
b100 4
06
b100 (
b000 )
b000 9
b00 *
b0101 >
#1691
16
b00000000000000000000000010101001 /
#1696
b1011 0
b1001 "
b101 4
06
b101 (
b01 *
#1701
16
b00000000000000000000000010101010 /
#1706
b1100 0
b1010 "
b1111 B
b110 4
06
b110 (
b10 *
b11 -
b0110 >
#1711
b1111 &
16
b00000000000000000000000010101011 /
#1716
b1101 0
b1011 "
b111 4
06
b111 (
b11 *
#1721
16
b1111 '
b00000000000000000000000010101100 /
#1726
b11 @
b1100 "
b100 (
b111 )
b00 *
b0111 0
b11 2
b011 3
b100 4
06
b001 9
b0111 >
#1731
b1111 %
16
b1111 =
b00000000000000000000000010101101 /
#1736
b1000 0
b1101 "
b1110 B
b101 4
06
b101 (
b01 *
b10 -
b0100 >
#1741
b1110 &
16
b00000000000000000000000010101110 /
#1746
b1001 0
b1110 "
b110 4
06
b110 (
b10 *
#1751
16
b1110 '
b00000000000000000000000010101111 /
#1756
b1010 0
b1111 "
b111 4
06
b111 (
b11 *
b0101 >
#1761
b1110 %
16
b1110 =
b00000000000000000000000010110000 /
#1766
b00 @
b1011 !
b0000 "
b1011 B
b111 $
b000 (
b010 )
b00 *
b11 -
b10 .
b0111 0
b11 1
b10 2
b111 3
b000 4
06
b010 9
b0111 >
#1771
b1011 &
16
b00000000000000000000000010110001 /
#1776
b0001 "
06
b001 (
b01 *
#1781
16
b1011 '
b00000000000000000000000010110010 /
#1786
b0010 "
06
b010 (
b10 *
#1791
b1011 %
16
b1011 =
b00000000000000000000000010110011 /
#1796
b0011 "
06
b011 (
b11 *
#1801
16
b00000000000000000000000010110100 /
#1806
b01 @
b0100 "
b1110 B
b100 (
b001 )
b00 *
b10 -
b11 .
b1001 0
b010 4
06
b001 9
b0100 >
#1811
b1110 &
16
b00000000000000000000000010110101 /
#1816
b0101 "
06
b101 (
b01 *
#1821
16
b1110 '
b00000000000000000000000010110110 /
#1826
b1010 0
b0110 "
b011 4
06
b110 (
b10 *
b0101 >
#1831
b1110 %
16
b1110 =
b00000000000000000000000010110111 /
#1836
b0111 "
06
b111 (
b11 *
#1841
16
b00000000000000000000000010111000 /
